<?xml version="1.0" encoding="utf-8"?>
<!-- Generator: Adobe Illustrator 21.1.0, SVG Export Plug-In . SVG Version: 6.00 Build 0)  -->
<svg version="1.1" id="buttons" xmlns="http://www.w3.org/2000/svg" xmlns:xlink="http://www.w3.org/1999/xlink" x="0px" y="0px"
	 viewBox="0 0 814.7 377.5" style="enable-background:new 0 0 814.7 377.5;" xml:space="preserve">
<style type="text/css">
	.st0{clip-path:url(#SVGID_2_);fill:#FF5E08;}
	.st1{clip-path:url(#SVGID_2_);fill:#FF5F08;}
	.st2{clip-path:url(#SVGID_2_);fill:#FF6008;}
	.st3{clip-path:url(#SVGID_2_);fill:#FF6108;}
	.st4{clip-path:url(#SVGID_2_);fill:#FF6208;}
	.st5{clip-path:url(#SVGID_2_);fill:#FF6308;}
	.st6{clip-path:url(#SVGID_2_);fill:#FF6408;}
	.st7{clip-path:url(#SVGID_2_);fill:#FF6508;}
	.st8{clip-path:url(#SVGID_2_);fill:#FF6608;}
	.st9{clip-path:url(#SVGID_2_);fill:#FF6708;}
	.st10{clip-path:url(#SVGID_2_);fill:#FF6808;}
	.st11{clip-path:url(#SVGID_2_);fill:#FF6908;}
	.st12{clip-path:url(#SVGID_2_);fill:#FF6A08;}
	.st13{clip-path:url(#SVGID_2_);fill:#FF6B08;}
	.st14{clip-path:url(#SVGID_2_);fill:#FF6C08;}
	.st15{clip-path:url(#SVGID_2_);fill:#FF6D08;}
	.st16{clip-path:url(#SVGID_2_);fill:#FF6E08;}
	.st17{clip-path:url(#SVGID_2_);fill:#FF6F08;}
	.st18{clip-path:url(#SVGID_2_);fill:#FF7008;}
	.st19{clip-path:url(#SVGID_2_);fill:#FF7108;}
	.st20{clip-path:url(#SVGID_2_);fill:#FF7208;}
	.st21{clip-path:url(#SVGID_2_);fill:#FF7308;}
	.st22{clip-path:url(#SVGID_2_);fill:#FF7408;}
	.st23{clip-path:url(#SVGID_2_);fill:#FF7508;}
	.st24{clip-path:url(#SVGID_2_);fill:#FF7608;}
	.st25{clip-path:url(#SVGID_2_);fill:#FF7708;}
	.st26{clip-path:url(#SVGID_2_);fill:#FF7808;}
	.st27{clip-path:url(#SVGID_2_);fill:#FF7908;}
	.st28{clip-path:url(#SVGID_2_);fill:#FF7A08;}
	.st29{clip-path:url(#SVGID_2_);fill:#FF7B08;}
	.st30{clip-path:url(#SVGID_2_);fill:#FF7C08;}
	.st31{clip-path:url(#SVGID_2_);fill:#FF7D08;}
	.st32{clip-path:url(#SVGID_2_);fill:#FF7E08;}
	.st33{clip-path:url(#SVGID_2_);fill:#FF8008;}
	.st34{clip-path:url(#SVGID_2_);fill:#FF8108;}
	.st35{clip-path:url(#SVGID_2_);fill:#FF8208;}
	.st36{clip-path:url(#SVGID_2_);fill:#FF8308;}
	.st37{clip-path:url(#SVGID_2_);fill:#FF8408;}
	.st38{clip-path:url(#SVGID_2_);fill:#FF8508;}
	.st39{clip-path:url(#SVGID_2_);fill:#FF8608;}
	.st40{clip-path:url(#SVGID_2_);fill:#FF8708;}
	.st41{clip-path:url(#SVGID_2_);fill:#FF8808;}
	.st42{clip-path:url(#SVGID_2_);fill:#FF8908;}
	.st43{clip-path:url(#SVGID_2_);fill:#FF8A08;}
	.st44{clip-path:url(#SVGID_2_);fill:#FF8B08;}
	.st45{clip-path:url(#SVGID_2_);fill:#FF8C08;}
	.st46{clip-path:url(#SVGID_2_);fill:#FF8D08;}
	.st47{clip-path:url(#SVGID_2_);fill:#FF8E08;}
	.st48{clip-path:url(#SVGID_2_);fill:#FF8F08;}
	.st49{clip-path:url(#SVGID_2_);fill:#FF9008;}
	.st50{clip-path:url(#SVGID_2_);fill:#FF9108;}
	.st51{clip-path:url(#SVGID_2_);fill:#FF9208;}
	.st52{clip-path:url(#SVGID_2_);fill:#FF9308;}
	.st53{clip-path:url(#SVGID_2_);fill:#FF9408;}
	.st54{clip-path:url(#SVGID_2_);fill:#FF9508;}
	.st55{clip-path:url(#SVGID_2_);fill:#FF9608;}
	.st56{clip-path:url(#SVGID_2_);fill:#FF9708;}
	.st57{clip-path:url(#SVGID_2_);fill:#FF9808;}
	.st58{clip-path:url(#SVGID_2_);fill:#FF9908;}
	.st59{clip-path:url(#SVGID_2_);fill:#FF9A08;}
	.st60{clip-path:url(#SVGID_2_);fill:#FF9B08;}
	.st61{clip-path:url(#SVGID_2_);fill:#FF9C08;}
	.st62{clip-path:url(#SVGID_2_);fill:#FF9D08;}
	.st63{clip-path:url(#SVGID_2_);fill:#FF9E08;}
	.st64{clip-path:url(#SVGID_2_);fill:#FF9F08;}
	.st65{clip-path:url(#SVGID_2_);fill:#FFA008;}
	.st66{fill:#FFF396;}
	.st67{fill:#FFFFFF;}
	.st68{clip-path:url(#SVGID_4_);fill:#FFBC2B;}
	.st69{clip-path:url(#SVGID_4_);fill:#FFBD2C;}
	.st70{clip-path:url(#SVGID_4_);fill:#FFBE2D;}
	.st71{clip-path:url(#SVGID_4_);fill:#FFBF2E;}
	.st72{clip-path:url(#SVGID_4_);fill:#FFC02F;}
	.st73{clip-path:url(#SVGID_4_);fill:#FFC130;}
	.st74{clip-path:url(#SVGID_4_);fill:#FEC231;}
	.st75{clip-path:url(#SVGID_4_);fill:#FEC332;}
	.st76{clip-path:url(#SVGID_4_);fill:#FEC333;}
	.st77{clip-path:url(#SVGID_4_);fill:#FEC434;}
	.st78{clip-path:url(#SVGID_4_);fill:#FEC535;}
	.st79{clip-path:url(#SVGID_4_);fill:#FEC636;}
	.st80{clip-path:url(#SVGID_4_);fill:#FEC737;}
	.st81{clip-path:url(#SVGID_4_);fill:#FEC838;}
	.st82{clip-path:url(#SVGID_4_);fill:#FEC939;}
	.st83{clip-path:url(#SVGID_4_);fill:#FECA3B;}
	.st84{clip-path:url(#SVGID_4_);fill:#FDCB3C;}
	.st85{clip-path:url(#SVGID_4_);fill:#FDCC3D;}
	.st86{clip-path:url(#SVGID_4_);fill:#FDCD3E;}
	.st87{clip-path:url(#SVGID_4_);fill:#FDCE3F;}
	.st88{clip-path:url(#SVGID_4_);fill:#FDCF40;}
	.st89{clip-path:url(#SVGID_4_);fill:#FDD041;}
	.st90{clip-path:url(#SVGID_4_);fill:#FDD142;}
	.st91{clip-path:url(#SVGID_4_);fill:#FDD143;}
	.st92{clip-path:url(#SVGID_4_);fill:#FDD244;}
	.st93{clip-path:url(#SVGID_4_);fill:#FDD345;}
	.st94{clip-path:url(#SVGID_4_);fill:#FCD446;}
	.st95{clip-path:url(#SVGID_4_);fill:#FCD547;}
	.st96{clip-path:url(#SVGID_4_);fill:#FCD648;}
	.st97{clip-path:url(#SVGID_4_);fill:#FCD749;}
	.st98{clip-path:url(#SVGID_4_);fill:#FCD84A;}
	.st99{clip-path:url(#SVGID_6_);fill:#FF5E08;}
	.st100{clip-path:url(#SVGID_6_);fill:#FF5F08;}
	.st101{clip-path:url(#SVGID_6_);fill:#FF6008;}
	.st102{clip-path:url(#SVGID_6_);fill:#FF6108;}
	.st103{clip-path:url(#SVGID_6_);fill:#FF6208;}
	.st104{clip-path:url(#SVGID_6_);fill:#FF6308;}
	.st105{clip-path:url(#SVGID_6_);fill:#FF6408;}
	.st106{clip-path:url(#SVGID_6_);fill:#FF6508;}
	.st107{clip-path:url(#SVGID_6_);fill:#FF6608;}
	.st108{clip-path:url(#SVGID_6_);fill:#FF6708;}
	.st109{clip-path:url(#SVGID_6_);fill:#FF6808;}
	.st110{clip-path:url(#SVGID_6_);fill:#FF6908;}
	.st111{clip-path:url(#SVGID_6_);fill:#FF6A08;}
	.st112{clip-path:url(#SVGID_6_);fill:#FF6B08;}
	.st113{clip-path:url(#SVGID_6_);fill:#FF6C08;}
	.st114{clip-path:url(#SVGID_6_);fill:#FF6D08;}
	.st115{clip-path:url(#SVGID_6_);fill:#FF6E08;}
	.st116{clip-path:url(#SVGID_6_);fill:#FF6F08;}
	.st117{clip-path:url(#SVGID_6_);fill:#FF7008;}
	.st118{clip-path:url(#SVGID_6_);fill:#FF7108;}
	.st119{clip-path:url(#SVGID_6_);fill:#FF7208;}
	.st120{clip-path:url(#SVGID_6_);fill:#FF7308;}
	.st121{clip-path:url(#SVGID_6_);fill:#FF7408;}
	.st122{clip-path:url(#SVGID_6_);fill:#FF7508;}
	.st123{clip-path:url(#SVGID_6_);fill:#FF7608;}
	.st124{clip-path:url(#SVGID_6_);fill:#FF7708;}
	.st125{clip-path:url(#SVGID_6_);fill:#FF7808;}
	.st126{clip-path:url(#SVGID_6_);fill:#FF7908;}
	.st127{clip-path:url(#SVGID_6_);fill:#FF7A08;}
	.st128{clip-path:url(#SVGID_6_);fill:#FF7B08;}
	.st129{clip-path:url(#SVGID_6_);fill:#FF7C08;}
	.st130{clip-path:url(#SVGID_6_);fill:#FF7D08;}
	.st131{clip-path:url(#SVGID_6_);fill:#FF7E08;}
	.st132{clip-path:url(#SVGID_6_);fill:#FF8008;}
	.st133{clip-path:url(#SVGID_6_);fill:#FF8108;}
	.st134{clip-path:url(#SVGID_6_);fill:#FF8208;}
	.st135{clip-path:url(#SVGID_6_);fill:#FF8308;}
	.st136{clip-path:url(#SVGID_6_);fill:#FF8408;}
	.st137{clip-path:url(#SVGID_6_);fill:#FF8508;}
	.st138{clip-path:url(#SVGID_6_);fill:#FF8608;}
	.st139{clip-path:url(#SVGID_6_);fill:#FF8708;}
	.st140{clip-path:url(#SVGID_6_);fill:#FF8808;}
	.st141{clip-path:url(#SVGID_6_);fill:#FF8908;}
	.st142{clip-path:url(#SVGID_6_);fill:#FF8A08;}
	.st143{clip-path:url(#SVGID_6_);fill:#FF8B08;}
	.st144{clip-path:url(#SVGID_6_);fill:#FF8C08;}
	.st145{clip-path:url(#SVGID_6_);fill:#FF8D08;}
	.st146{clip-path:url(#SVGID_6_);fill:#FF8E08;}
	.st147{clip-path:url(#SVGID_6_);fill:#FF8F08;}
	.st148{clip-path:url(#SVGID_6_);fill:#FF9008;}
	.st149{clip-path:url(#SVGID_6_);fill:#FF9108;}
	.st150{clip-path:url(#SVGID_6_);fill:#FF9208;}
	.st151{clip-path:url(#SVGID_6_);fill:#FF9308;}
	.st152{clip-path:url(#SVGID_6_);fill:#FF9408;}
	.st153{clip-path:url(#SVGID_6_);fill:#FF9508;}
	.st154{clip-path:url(#SVGID_6_);fill:#FF9608;}
	.st155{clip-path:url(#SVGID_6_);fill:#FF9708;}
	.st156{clip-path:url(#SVGID_6_);fill:#FF9808;}
	.st157{clip-path:url(#SVGID_6_);fill:#FF9908;}
	.st158{clip-path:url(#SVGID_6_);fill:#FF9A08;}
	.st159{clip-path:url(#SVGID_6_);fill:#FF9B08;}
	.st160{clip-path:url(#SVGID_6_);fill:#FF9C08;}
	.st161{clip-path:url(#SVGID_6_);fill:#FF9D08;}
	.st162{clip-path:url(#SVGID_6_);fill:#FF9E08;}
	.st163{clip-path:url(#SVGID_6_);fill:#FF9F08;}
	.st164{clip-path:url(#SVGID_6_);fill:#FFA008;}
	.st165{clip-path:url(#SVGID_8_);}
	.st166{fill:#FFBC2B;}
	.st167{clip-path:url(#SVGID_10_);}
	.st168{clip-path:url(#SVGID_12_);}
	.st169{fill:#FFBD2C;}
	.st170{clip-path:url(#SVGID_14_);}
	.st171{fill:#FFBE2D;}
	.st172{clip-path:url(#SVGID_16_);}
	.st173{fill:#FFBF2E;}
	.st174{clip-path:url(#SVGID_18_);}
	.st175{fill:#FFC02F;}
	.st176{clip-path:url(#SVGID_20_);}
	.st177{fill:#FFC130;}
	.st178{clip-path:url(#SVGID_22_);}
	.st179{fill:#FEC231;}
	.st180{clip-path:url(#SVGID_24_);}
	.st181{fill:#FEC332;}
	.st182{clip-path:url(#SVGID_26_);}
	.st183{fill:#FEC333;}
	.st184{clip-path:url(#SVGID_28_);}
	.st185{fill:#FEC434;}
	.st186{clip-path:url(#SVGID_30_);}
	.st187{fill:#FEC535;}
	.st188{clip-path:url(#SVGID_32_);}
	.st189{fill:#FEC636;}
	.st190{clip-path:url(#SVGID_34_);}
	.st191{fill:#FEC737;}
	.st192{clip-path:url(#SVGID_36_);}
	.st193{fill:#FEC838;}
	.st194{clip-path:url(#SVGID_38_);}
	.st195{fill:#FEC939;}
	.st196{clip-path:url(#SVGID_40_);}
	.st197{fill:#FECA3B;}
	.st198{clip-path:url(#SVGID_42_);}
	.st199{fill:#FDCB3C;}
	.st200{clip-path:url(#SVGID_44_);}
	.st201{fill:#FDCC3D;}
	.st202{clip-path:url(#SVGID_46_);}
	.st203{fill:#FDCD3E;}
	.st204{clip-path:url(#SVGID_48_);}
	.st205{fill:#FDCE3F;}
	.st206{clip-path:url(#SVGID_50_);}
	.st207{fill:#FDCF40;}
	.st208{clip-path:url(#SVGID_52_);}
	.st209{fill:#FDD041;}
	.st210{clip-path:url(#SVGID_54_);}
	.st211{fill:#FDD142;}
	.st212{clip-path:url(#SVGID_56_);}
	.st213{fill:#FDD143;}
	.st214{clip-path:url(#SVGID_58_);}
	.st215{fill:#FDD244;}
	.st216{clip-path:url(#SVGID_60_);}
	.st217{fill:#FDD345;}
	.st218{clip-path:url(#SVGID_62_);}
	.st219{fill:#FCD446;}
	.st220{clip-path:url(#SVGID_64_);}
	.st221{fill:#FCD547;}
	.st222{clip-path:url(#SVGID_66_);}
	.st223{fill:#FCD648;}
	.st224{clip-path:url(#SVGID_68_);}
	.st225{fill:#FCD749;}
	.st226{clip-path:url(#SVGID_70_);}
	.st227{fill:#FCD84A;}
</style>
<g>
	<g>
		<g>
			<defs>
				<path id="SVGID_1_" d="M814.7,296.8c0,44.4-30.9,80.7-68.7,80.7H68.7C30.9,377.5,0,341.2,0,296.8V91.4C0,47,30.9,10.7,68.7,10.7
					H746c37.8,0,68.7,36.3,68.7,80.7V296.8z"/>
			</defs>
			<clipPath id="SVGID_2_">
				<use xlink:href="#SVGID_1_"  style="overflow:visible;"/>
			</clipPath>
			<rect y="10.7" class="st0" width="814.7" height="366.8"/>
			<path class="st0" d="M682.5,194.1c0-38-7.7-74.2-21.6-107.1c-7-16.5-15.5-32.1-25.4-46.7c-4.9-7.3-10.2-14.4-15.8-21.2
				c-2.8-3.4-5.7-6.7-8.6-10v0.6H203.7V9.1c-3,3.3-5.8,6.6-8.6,10c-5.6,6.8-10.9,13.9-15.8,21.2c-9.9,14.6-18.4,30.3-25.4,46.7
				c-13.9,32.9-21.6,69.1-21.6,107.1s7.7,74.2,21.6,107.1c7,16.5,15.5,32.1,25.4,46.7c4.9,7.3,10.2,14.4,15.8,21.2
				c2.8,3.4,5.7,6.7,8.6,10v-0.6H611v0.6c3-3.3,5.8-6.6,8.6-10c5.6-6.8,10.9-13.9,15.8-21.2c9.9-14.6,18.4-30.3,25.4-46.7
				C674.8,268.3,682.5,232.1,682.5,194.1z"/>
			<path class="st1" d="M678.4,194.1c0-37.4-7.6-73.1-21.3-105.5c-6.9-16.2-15.2-31.6-25-46c-4.9-7.2-10.1-14.2-15.6-20.9
				c-2.8-3.3-5.6-6.6-8.5-9.8c-1.5-1.6-2.9-3.2-4.4-4.8v2.6H211.2V7.1c-1.5,1.6-3,3.2-4.4,4.8c-2.9,3.2-5.8,6.5-8.5,9.8
				c-5.5,6.7-10.7,13.7-15.6,20.9c-9.7,14.4-18.1,29.8-25,46c-13.7,32.4-21.3,68.1-21.3,105.5s7.6,73.1,21.3,105.5
				c6.9,16.2,15.2,31.6,25,46c4.9,7.2,10.1,14.2,15.6,20.9c2.8,3.3,5.6,6.6,8.5,9.8c1.5,1.6,2.9,3.2,4.4,4.8v-2.6h392.3v2.6
				c1.5-1.6,3-3.2,4.4-4.8c2.9-3.2,5.8-6.5,8.5-9.8c5.5-6.7,10.7-13.7,15.6-20.9c9.7-14.4,18.1-29.8,25-46
				C670.8,267.2,678.4,231.5,678.4,194.1z"/>
			<path class="st2" d="M674.2,194.1c0-73.7-29.9-140.4-78.2-188.7v4.3H218.7V5.4c-48.3,48.3-78.2,115-78.2,188.7
				s29.9,140.4,78.2,188.7v-4.3H596v4.3C644.3,334.5,674.2,267.8,674.2,194.1z"/>
			<path class="st3" d="M670,194.1c0-72.5-29.4-138.2-76.9-185.7v1.3H221.6V8.4c-47.5,47.5-76.9,113.2-76.9,185.7
				s29.4,138.2,76.9,185.7v-1.3h371.5v1.3C640.6,332.3,670,266.6,670,194.1z"/>
			<path class="st4" d="M665.8,194.1c0-71.4-28.9-136-75.7-182.8c-2.9-2.9-5.9-5.8-9-8.6v6.9H233.5V2.8c-3.1,2.8-6.1,5.6-9,8.6
				c-46.8,46.8-75.7,111.4-75.7,182.8s28.9,136,75.7,182.8c2.9,2.9,5.9,5.8,9,8.6v-6.9h347.6v6.9c3.1-2.8,6.1-5.6,9-8.6
				C636.9,330.1,665.8,265.5,665.8,194.1z"/>
			<path class="st5" d="M661.7,194.1c0-70.2-28.5-133.8-74.5-179.8c-2.9-2.9-5.8-5.7-8.8-8.4v3.9h-342V5.8c-3,2.7-6,5.5-8.8,8.4
				c-46,46-74.5,109.6-74.5,179.8s28.5,133.8,74.5,179.8c2.9,2.9,5.8,5.7,8.8,8.4v-3.9h342v3.9c3-2.7,6-5.5,8.8-8.4
				C633.2,327.9,661.7,264.3,661.7,194.1z"/>
			<path class="st6" d="M657.5,194.1c0-69.1-28-131.6-73.3-176.9c-2.8-2.8-5.7-5.6-8.7-8.3v0.8H239.2V8.9c-3,2.7-5.9,5.5-8.7,8.3
				c-45.3,45.3-73.3,107.8-73.3,176.9s28,131.6,73.3,176.9c2.8,2.8,5.7,5.6,8.7,8.3v-0.8h336.4v0.8c3-2.7,5.9-5.5,8.7-8.3
				C629.5,325.7,657.5,263.2,657.5,194.1z"/>
			<path class="st7" d="M653.3,194.1c0-67.9-27.5-129.4-72-173.9c-5.6-5.6-11.4-10.9-17.5-15.9v5.4H250.9V4.3
				c-6.1,5-11.9,10.3-17.5,15.9c-44.5,44.5-72,106-72,173.9s27.5,129.4,72,173.9c5.6,5.6,11.4,10.9,17.5,15.9v-5.4h312.9v5.4
				c6.1-5,11.9-10.3,17.5-15.9C625.8,323.5,653.3,262,653.3,194.1z"/>
			<path class="st8" d="M649.2,194.1c0-66.8-27.1-127.2-70.8-171c-5.5-5.5-11.2-10.7-17.2-15.6v2.2H253.5V7.5
				c-6,4.9-11.7,10.1-17.2,15.6c-43.8,43.8-70.8,104.2-70.8,171s27.1,127.2,70.8,171c5.5,5.5,11.2,10.7,17.2,15.6v-2.2h307.6v2.2
				c6-4.9,11.7-10.1,17.2-15.6C622.1,321.3,649.2,260.9,649.2,194.1z"/>
			<path class="st9" d="M645,194.1c0-65.6-26.6-125-69.6-168c-5.4-5.4-11-10.5-16.9-15.3c-2.9-2.4-5.9-4.8-9-7.1v6H265.2v-6
				c-3,2.3-6,4.6-9,7.1c-5.9,4.8-11.5,10-16.9,15.3c-43,43-69.6,102.4-69.6,168s26.6,125,69.6,168c5.4,5.4,11,10.5,16.9,15.3
				c2.9,2.4,5.9,4.8,9,7.1v-6h284.4v6c3-2.3,6-4.6,9-7.1c5.9-4.8,11.5-10,16.9-15.3C618.4,319.1,645,259.7,645,194.1z"/>
			<path class="st10" d="M640.8,194.1c0-64.5-26.1-122.8-68.4-165.1c-5.3-5.3-10.8-10.3-16.6-15.1C553,11.6,550,9.2,547,7v2.7H267.7
				V7c-3,2.2-5.9,4.6-8.8,6.9c-5.8,4.8-11.3,9.8-16.6,15.1c-42.3,42.3-68.4,100.6-68.4,165.1s26.1,122.8,68.4,165.1
				c5.3,5.3,10.8,10.3,16.6,15.1c2.9,2.4,5.8,4.7,8.8,6.9v-2.7H547v2.7c3-2.2,5.9-4.6,8.8-6.9c5.8-4.8,11.3-9.8,16.6-15.1
				C614.7,316.9,640.8,258.6,640.8,194.1z"/>
			<path class="st11" d="M636.7,194.1c0-63.3-25.7-120.6-67.2-162.1c-10.4-10.4-21.7-19.8-33.9-28v5.7H279.1V4
				c-12.2,8.2-23.6,17.6-33.9,28C203.7,73.5,178,130.8,178,194.1s25.7,120.6,67.2,162.1c10.4,10.4,21.7,19.8,33.9,28v-5.7h256.4v5.7
				c12.2-8.2,23.6-17.6,33.9-28C611,314.7,636.7,257.4,636.7,194.1z"/>
			<path class="st12" d="M632.5,194.1c0-62.2-25.2-118.5-65.9-159.2c-10.2-10.2-21.3-19.4-33.3-27.5v2.3H281.5V7.4
				c-12,8.1-23.1,17.3-33.3,27.5c-40.7,40.7-65.9,97-65.9,159.2s25.2,118.5,65.9,159.2c10.2,10.2,21.3,19.4,33.3,27.5v-2.3h251.8
				v2.3c12-8.1,23.1-17.3,33.3-27.5C607.3,312.6,632.5,256.3,632.5,194.1z"/>
			<path class="st13" d="M628.3,194.1c0-61-24.7-116.3-64.7-156.2c-10-10-20.9-19-32.7-27c-2.9-2-5.9-3.9-9-5.7v4.6H292.8V5.1
				c-3,1.8-6,3.8-9,5.7c-11.8,7.9-22.7,17-32.7,27c-40,40-64.7,95.2-64.7,156.2s24.7,116.3,64.7,156.2c10,10,20.9,19,32.7,27
				c2.9,2,5.9,3.9,9,5.7v-4.6h229.2v4.6c3-1.8,6-3.8,9-5.7c11.8-7.9,22.7-17,32.7-27C603.6,310.4,628.3,255.1,628.3,194.1z"/>
			<path class="st14" d="M624.2,194.1c0-59.9-24.3-114.1-63.5-153.3c-9.8-9.8-20.6-18.7-32.1-26.5c-5.8-3.9-11.7-7.5-17.9-10.9v6.2
				H304V3.5c-6.1,3.3-12.1,7-17.9,10.9C274.6,22.1,263.9,31,254,40.8c-39.2,39.2-63.5,93.4-63.5,153.3s24.3,114.1,63.5,153.3
				c9.8,9.8,20.6,18.7,32.1,26.5c5.8,3.9,11.7,7.5,17.9,10.9v-6.2h206.7v6.2c6.1-3.3,12.1-7,17.9-10.9c11.5-7.8,22.3-16.7,32.1-26.5
				C599.9,308.2,624.2,254,624.2,194.1z"/>
			<path class="st15" d="M620,194.1c0-58.7-23.8-111.9-62.3-150.4c-9.6-9.6-20.2-18.3-31.5-26c-5.7-3.8-11.5-7.4-17.5-10.7v2.6H306
				V7.1c-6,3.3-11.9,6.8-17.5,10.7c-11.3,7.6-21.8,16.3-31.5,26c-38.5,38.5-62.3,91.6-62.3,150.4S218.5,306,257,344.5
				c9.6,9.6,20.2,18.3,31.5,26c5.7,3.8,11.5,7.4,17.5,10.7v-2.6h202.7v2.6c6-3.3,11.9-6.8,17.5-10.7c11.3-7.6,21.8-16.3,31.5-26
				C596.2,306,620,252.8,620,194.1z"/>
			<path class="st16" d="M615.8,194.1c0-57.6-23.3-109.7-61.1-147.4c-9.4-9.4-19.8-18-30.9-25.5c-5.5-3.7-11.3-7.2-17.2-10.4
				c-3-1.6-6-3.1-9-4.6v3.5H317V6.2c-3,1.5-6,3-9,4.6c-5.9,3.2-11.6,6.7-17.2,10.4c-11.1,7.5-21.4,16-30.9,25.5
				c-37.7,37.7-61.1,89.8-61.1,147.4s23.3,109.7,61.1,147.4c9.4,9.4,19.8,18,30.9,25.5c5.5,3.7,11.3,7.2,17.2,10.4
				c3,1.6,6,3.1,9,4.6v-3.5h180.8v3.5c3-1.5,6-3,9-4.6c5.9-3.2,11.6-6.7,17.2-10.4c11.1-7.5,21.4-16,30.9-25.5
				C592.5,303.8,615.8,251.7,615.8,194.1z"/>
			<path class="st17" d="M611.6,194.1c0-56.4-22.9-107.5-59.8-144.5c-18.5-18.5-40.5-33.4-64.9-43.8v3.8h-159V5.9
				c-24.4,10.3-46.5,25.3-64.9,43.8c-37,37-59.8,88-59.8,144.5s22.9,107.5,59.8,144.5c18.5,18.5,40.5,33.4,64.9,43.8v-3.8h159v3.8
				c24.4-10.3,46.5-25.3,64.9-43.8C588.8,301.6,611.6,250.5,611.6,194.1z"/>
			<path class="st18" d="M607.5,194.1c0-55.3-22.4-105.3-58.6-141.5c-18.1-18.1-39.7-32.8-63.6-42.9c-6-2.5-12.1-4.8-18.4-6.7v6.7
				h-119V3c-6.3,1.9-12.4,4.2-18.4,6.7c-23.9,10.1-45.5,24.8-63.6,42.9c-36.2,36.2-58.6,86.2-58.6,141.5s22.4,105.3,58.6,141.5
				c18.1,18.1,39.7,32.8,63.6,42.9c6,2.5,12.1,4.8,18.4,6.7v-6.7h119v6.7c6.3-1.9,12.4-4.2,18.4-6.7c23.9-10.1,45.5-24.8,63.6-42.9
				C585.1,299.4,607.5,249.4,607.5,194.1z"/>
			<path class="st19" d="M603.3,194.1c0-54.1-21.9-103.1-57.4-138.6c-17.7-17.7-38.8-32.1-62.3-42c-5.9-2.5-11.9-4.7-18-6.6v2.7
				H349.1V7c-6.1,1.9-12.1,4.1-18,6.6c-23.4,9.9-44.6,24.3-62.3,42C233.3,91,211.4,140,211.4,194.1s21.9,103.1,57.4,138.6
				c17.7,17.7,38.8,32.1,62.3,42c5.9,2.5,11.9,4.7,18,6.6v-2.7h116.5v2.7c6.1-1.9,12.1-4.1,18-6.6c23.4-9.9,44.6-24.3,62.3-42
				C581.4,297.2,603.3,248.2,603.3,194.1z"/>
			<path class="st20" d="M599.1,194.1c0-53-21.5-100.9-56.2-135.6c-17.4-17.4-38-31.4-61-41.1c-11.5-4.9-23.5-8.6-36-11.2v3.5h-77.3
				V6.2c-12.5,2.6-24.5,6.3-36,11.2c-22.9,9.7-43.6,23.7-61,41.1c-34.7,34.7-56.2,82.7-56.2,135.6S237,295,271.7,329.7
				c17.4,17.4,38,31.4,61,41.1c11.5,4.9,23.5,8.6,36,11.2v-3.5H446v3.5c12.5-2.6,24.5-6.3,36-11.2c22.9-9.7,43.6-23.7,61-41.1
				C577.7,295,599.1,247.1,599.1,194.1z"/>
			<circle class="st21" cx="407.3" cy="194.1" r="187.6"/>
			<circle class="st22" cx="407.3" cy="194.1" r="183.4"/>
			<circle class="st23" cx="407.3" cy="194.1" r="179.3"/>
			<circle class="st24" cx="407.3" cy="194.1" r="175.1"/>
			<circle class="st25" cx="407.3" cy="194.1" r="170.9"/>
			<circle class="st26" cx="407.3" cy="194.1" r="166.8"/>
			<circle class="st27" cx="407.3" cy="194.1" r="162.6"/>
			<circle class="st28" cx="407.3" cy="194.1" r="158.4"/>
			<circle class="st29" cx="407.3" cy="194.1" r="154.3"/>
			<circle class="st30" cx="407.3" cy="194.1" r="150.1"/>
			<circle class="st31" cx="407.3" cy="194.1" r="145.9"/>
			<circle class="st32" cx="407.3" cy="194.1" r="141.8"/>
			<circle class="st33" cx="407.3" cy="194.1" r="137.6"/>
			<circle class="st34" cx="407.3" cy="194.1" r="133.4"/>
			<circle class="st35" cx="407.3" cy="194.1" r="129.2"/>
			<circle class="st36" cx="407.3" cy="194.1" r="125.1"/>
			<circle class="st37" cx="407.3" cy="194.1" r="120.9"/>
			<circle class="st38" cx="407.3" cy="194.1" r="116.7"/>
			<circle class="st39" cx="407.3" cy="194.1" r="112.6"/>
			<circle class="st40" cx="407.3" cy="194.1" r="108.4"/>
			<circle class="st41" cx="407.3" cy="194.1" r="104.2"/>
			<circle class="st42" cx="407.3" cy="194.1" r="100.1"/>
			<circle class="st43" cx="407.3" cy="194.1" r="95.9"/>
			<circle class="st44" cx="407.3" cy="194.1" r="91.7"/>
			<circle class="st45" cx="407.3" cy="194.1" r="87.6"/>
			<circle class="st46" cx="407.3" cy="194.1" r="83.4"/>
			<circle class="st47" cx="407.3" cy="194.1" r="79.2"/>
			<circle class="st48" cx="407.3" cy="194.1" r="75"/>
			<circle class="st49" cx="407.3" cy="194.1" r="70.9"/>
			<circle class="st50" cx="407.3" cy="194.1" r="66.7"/>
			<circle class="st51" cx="407.3" cy="194.1" r="62.5"/>
			<circle class="st52" cx="407.3" cy="194.1" r="58.4"/>
			<circle class="st53" cx="407.3" cy="194.1" r="54.2"/>
			<circle class="st54" cx="407.3" cy="194.1" r="50"/>
			<circle class="st55" cx="407.3" cy="194.1" r="45.9"/>
			<circle class="st56" cx="407.3" cy="194.1" r="41.7"/>
			<circle class="st57" cx="407.3" cy="194.1" r="37.5"/>
			<circle class="st58" cx="407.3" cy="194.1" r="33.4"/>
			<circle class="st59" cx="407.3" cy="194.1" r="29.2"/>
			<circle class="st60" cx="407.3" cy="194.1" r="25"/>
			<circle class="st61" cx="407.3" cy="194.1" r="20.8"/>
			<circle class="st62" cx="407.3" cy="194.1" r="16.7"/>
			<circle class="st63" cx="407.3" cy="194.1" r="12.5"/>
			<circle class="st64" cx="407.3" cy="194.1" r="8.3"/>
			<circle class="st65" cx="407.3" cy="194.1" r="4.2"/>
		</g>
	</g>
	<g>
		<path class="st66" d="M810.5,289.6c0,42.9-30.6,78-68,78H72.3c-37.4,0-68-35.1-68-78V88.8c0-42.9,30.6-78,68-78h670.2
			c37.4,0,68,35.1,68,78V289.6z"/>
	</g>
	<g>
		<path class="st67" d="M810.5,279.5c0,43-30.6,78.3-68,78.3H72.3c-37.4,0-68-35.2-68-78.3V78.3c0-43,30.6-78.3,68-78.3h670.2
			c37.4,0,68,35.2,68,78.3V279.5z"/>
	</g>
	<g>
		<g>
			<defs>
				<path id="SVGID_3_" d="M810.5,282.4c0,41.5-30.6,75.4-68,75.4H72.3c-37.4,0-68-33.9-68-75.4V86.1c0-41.5,30.6-75.4,68-75.4
					h670.2c37.4,0,68,33.9,68,75.4V282.4z"/>
			</defs>
			<clipPath id="SVGID_4_">
				<use xlink:href="#SVGID_3_"  style="overflow:visible;"/>
			</clipPath>
			<rect x="4.3" y="10.7" class="st68" width="806.2" height="347.1"/>
			<path class="st68" d="M716.1,184.3c0-42.6-8.6-83.2-24.3-120.2c-7.8-18.5-17.4-36-28.5-52.4c-1.4-2.1-2.8-4.1-4.2-6.1v4.2H155.6
				V5.5c-1.4,2-2.8,4.1-4.2,6.1c-11.1,16.4-20.7,34-28.5,52.4c-15.6,36.9-24.3,77.5-24.3,120.2s8.6,83.2,24.3,120.2
				c7.8,18.5,17.4,36,28.5,52.4c1.4,2.1,2.8,4.1,4.2,6.1v-4.2h503.5v4.2c1.4-2,2.8-4.1,4.2-6.1c11.1-16.4,20.7-34,28.5-52.4
				C707.5,267.5,716.1,226.9,716.1,184.3z"/>
			<path class="st69" d="M706.2,184.3c0-41.2-8.4-80.5-23.5-116.3c-7.6-17.9-16.8-34.9-27.5-50.7c-2.7-4-5.5-7.9-8.3-11.7v4.2H168
				V5.5c-2.9,3.8-5.6,7.7-8.3,11.7c-10.7,15.9-20,32.9-27.5,50.7c-15.1,35.7-23.5,75-23.5,116.3s8.4,80.5,23.5,116.3
				c7.6,17.9,16.8,34.9,27.5,50.7c2.7,4,5.5,7.9,8.3,11.7v-4.2h478.8v4.2c2.9-3.8,5.6-7.7,8.3-11.7c10.7-15.9,20-32.9,27.5-50.7
				C697.8,264.8,706.2,225.5,706.2,184.3z"/>
			<path class="st70" d="M696.2,184.3c0-39.9-8.1-77.9-22.7-112.4c-7.3-17.3-16.2-33.7-26.6-49.1c-2.6-3.8-5.3-7.6-8.1-11.3
				c-1.4-1.9-2.8-3.7-4.2-5.5v3.8H180.2V5.9c-1.4,1.8-2.8,3.7-4.2,5.5c-2.8,3.7-5.5,7.5-8.1,11.3c-10.4,15.4-19.3,31.8-26.6,49.1
				c-14.6,34.6-22.7,72.5-22.7,112.4s8.1,77.9,22.7,112.4c7.3,17.3,16.2,33.7,26.6,49.1c2.6,3.8,5.3,7.6,8.1,11.3
				c1.4,1.9,2.8,3.7,4.2,5.5v-3.8h454.4v3.8c1.4-1.8,2.8-3.7,4.2-5.5c2.8-3.7,5.5-7.5,8.1-11.3c10.4-15.4,19.3-31.8,26.6-49.1
				C688.1,262.1,696.2,224.1,696.2,184.3z"/>
			<path class="st71" d="M686.2,184.3c0-38.5-7.8-75.2-21.9-108.5c-7.1-16.7-15.7-32.5-25.7-47.4c-5-7.4-10.4-14.6-16.1-21.5v2.8
				H192.2V6.9c-5.7,6.9-11,14-16.1,21.5c-10,14.8-18.7,30.7-25.7,47.4c-14.1,33.4-21.9,70-21.9,108.5s7.8,75.2,21.9,108.5
				c7.1,16.7,15.7,32.5,25.7,47.4c5,7.4,10.4,14.6,16.1,21.5v-2.8h430.3v2.8c5.7-6.9,11-14,16.1-21.5c10-14.8,18.7-30.7,25.7-47.4
				C678.4,259.4,686.2,222.7,686.2,184.3z"/>
			<path class="st72" d="M676.3,184.3c0-37.1-7.5-72.5-21.1-104.7c-6.8-16.1-15.1-31.4-24.8-45.7c-4.8-7.2-10-14.1-15.5-20.7
				c-2.7-3.3-5.6-6.6-8.5-9.8v6.2H208.4V3.5c-2.9,3.2-5.7,6.4-8.5,9.8c-5.5,6.6-10.6,13.5-15.5,20.7c-9.7,14.3-18,29.6-24.8,45.7
				c-13.6,32.2-21.1,67.5-21.1,104.7s7.5,72.5,21.1,104.7c6.8,16.1,15.1,31.4,24.8,45.7c4.8,7.2,10,14.1,15.5,20.7
				c2.7,3.3,5.6,6.6,8.5,9.8v-6.2h398.1v6.2c2.9-3.2,5.7-6.4,8.5-9.8c5.5-6.6,10.6-13.5,15.5-20.7c9.7-14.3,18-29.6,24.8-45.7
				C668.8,256.7,676.3,221.4,676.3,184.3z"/>
			<path class="st73" d="M666.3,184.3c0-35.7-7.2-69.8-20.3-100.8c-6.6-15.5-14.6-30.2-23.9-44c-4.7-6.9-9.6-13.5-14.9-19.9
				c-2.6-3.2-5.4-6.3-8.1-9.4c-1.4-1.5-2.8-3-4.2-4.5v4.1H220V5.6c-1.4,1.5-2.8,3-4.2,4.5c-2.8,3.1-5.5,6.2-8.1,9.4
				c-5.3,6.4-10.3,13-14.9,19.9c-9.3,13.8-17.3,28.5-23.9,44c-13.1,31-20.3,65-20.3,100.8s7.2,69.8,20.3,100.8
				c6.6,15.5,14.6,30.2,23.9,44c4.7,6.9,9.6,13.5,14.9,19.9c2.6,3.2,5.4,6.3,8.1,9.4c1.4,1.5,2.8,3,4.2,4.5v-4.1h374.9v4.1
				c1.4-1.5,2.8-3,4.2-4.5c2.8-3.1,5.5-6.2,8.1-9.4c5.3-6.4,10.3-13,14.9-19.9c9.3-13.8,17.3-28.5,23.9-44
				C659.1,254.1,666.3,220,666.3,184.3z"/>
			<path class="st74" d="M656.4,184.3c0-68.7-27.9-131-72.9-176v1.5H231.4V8.2c-45.1,45.1-72.9,107.3-72.9,176s27.9,131,72.9,176
				v-1.5h352.1v1.5C628.5,315.2,656.4,253,656.4,184.3z"/>
			<path class="st75" d="M646.4,184.3c0-66-26.8-125.8-70-169c-2.7-2.7-5.5-5.3-8.3-7.9v2.4H246.7V7.3c-2.8,2.6-5.6,5.2-8.3,7.9
				c-43.3,43.3-70,103-70,169s26.8,125.8,70,169c2.7,2.7,5.5,5.3,8.3,7.9v-2.4h321.4v2.4c2.8-2.6,5.6-5.2,8.3-7.9
				C619.7,310,646.4,250.2,646.4,184.3z"/>
			<path class="st76" d="M636.4,184.3c0-63.2-25.6-120.5-67.1-162c-5.2-5.2-10.6-10.1-16.3-14.8v2.2H261.7V7.5
				c-5.7,4.7-11.1,9.6-16.3,14.8c-41.4,41.4-67.1,98.7-67.1,162s25.6,120.5,67.1,162c5.2,5.2,10.6,10.1,16.3,14.8v-2.2h291.4v2.2
				c5.7-4.7,11.1-9.6,16.3-14.8C610.8,304.8,636.4,247.5,636.4,184.3z"/>
			<path class="st77" d="M626.5,184.3c0-60.5-24.5-115.3-64.2-154.9c-5-5-10.1-9.7-15.6-14.1c-2.7-2.2-5.5-4.4-8.3-6.5v1H276.3v-1
				c-2.8,2.1-5.6,4.3-8.3,6.5c-5.4,4.5-10.6,9.2-15.6,14.1c-39.6,39.6-64.2,94.4-64.2,154.9s24.5,115.3,64.2,154.9
				c5,5,10.1,9.7,15.6,14.1c2.7,2.2,5.5,4.4,8.3,6.5v-1h262.2v1c2.8-2.1,5.6-4.3,8.3-6.5c5.4-4.5,10.6-9.2,15.6-14.1
				C602,299.5,626.5,244.7,626.5,184.3z"/>
			<path class="st78" d="M616.5,184.3c0-57.7-23.4-110-61.3-147.9c-9.5-9.5-19.8-18-31-25.5c-2.8-1.9-5.6-3.7-8.5-5.4v4.3H299V5.4
				c-2.9,1.7-5.7,3.6-8.5,5.4c-11.1,7.5-21.5,16.1-31,25.5c-37.8,37.8-61.3,90.1-61.3,147.9s23.4,110,61.3,147.9
				c9.5,9.5,19.8,18,31,25.5c2.8,1.9,5.6,3.7,8.5,5.4v-4.3h216.9v4.3c2.9-1.7,5.7-3.6,8.5-5.4c11.1-7.5,21.5-16.1,31-25.5
				C593.1,294.3,616.5,242,616.5,184.3z"/>
			<path class="st79" d="M606.6,184.3c0-55-22.3-104.8-58.3-140.8c-9-9-18.9-17.2-29.5-24.3c-5.3-3.6-10.8-6.9-16.4-10v0.6H312.5
				V9.1c-5.6,3.1-11.1,6.4-16.4,10c-10.6,7.2-20.5,15.3-29.5,24.3c-36,36-58.3,85.8-58.3,140.8s22.3,104.8,58.3,140.8
				c9,9,18.9,17.2,29.5,24.3c5.3,3.6,10.8,6.9,16.4,10v-0.6h189.9v0.6c5.6-3.1,11.1-6.4,16.4-10c10.6-7.2,20.5-15.3,29.5-24.3
				C584.3,289,606.6,239.2,606.6,184.3z"/>
			<path class="st80" d="M596.6,184.3c0-52.2-21.2-99.6-55.4-133.8c-17.1-17.1-37.5-31-60.1-40.5c-5.7-2.4-11.5-4.5-17.4-6.4v6.2
				H351.1V3.5c-5.9,1.8-11.7,4-17.4,6.4c-22.6,9.6-43,23.4-60.1,40.5c-34.2,34.2-55.4,81.5-55.4,133.8s21.2,99.6,55.4,133.8
				c17.1,17.1,37.5,31,60.1,40.5c5.7,2.4,11.5,4.5,17.4,6.4v-6.2h112.5v6.2c5.9-1.8,11.7-4,17.4-6.4c22.6-9.6,43-23.4,60.1-40.5
				C575.4,283.8,596.6,236.5,596.6,184.3z"/>
			<circle class="st81" cx="407.4" cy="184.3" r="179.3"/>
			<circle class="st82" cx="407.4" cy="184.3" r="169.3"/>
			<circle class="st83" cx="407.4" cy="184.3" r="159.3"/>
			<circle class="st84" cx="407.4" cy="184.3" r="149.4"/>
			<circle class="st85" cx="407.4" cy="184.3" r="139.4"/>
			<circle class="st86" cx="407.4" cy="184.3" r="129.5"/>
			<circle class="st87" cx="407.4" cy="184.3" r="119.5"/>
			<circle class="st88" cx="407.4" cy="184.3" r="109.5"/>
			<circle class="st89" cx="407.4" cy="184.3" r="99.6"/>
			<circle class="st90" cx="407.4" cy="184.3" r="89.6"/>
			<circle class="st91" cx="407.4" cy="184.3" r="79.7"/>
			<circle class="st92" cx="407.4" cy="184.3" r="69.7"/>
			<circle class="st93" cx="407.4" cy="184.3" r="59.8"/>
			<circle class="st94" cx="407.4" cy="184.3" r="49.8"/>
			<circle class="st95" cx="407.4" cy="184.3" r="39.8"/>
			<circle class="st96" cx="407.4" cy="184.3" r="29.9"/>
			<circle class="st97" cx="407.4" cy="184.3" r="19.9"/>
			<circle class="st98" cx="407.4" cy="184.3" r="10"/>
		</g>
	</g>
	<g>
		<g>
			<defs>
				<path id="SVGID_5_" d="M778.9,273.4c0,35.6-28.2,64.8-62.7,64.8H98.5c-34.5,0-62.7-29.2-62.7-64.8V95.1
					c0-35.6,28.2-64.8,62.7-64.8h617.7c34.5,0,62.7,29.2,62.7,64.8L778.9,273.4L778.9,273.4z"/>
			</defs>
			<clipPath id="SVGID_6_">
				<use xlink:href="#SVGID_5_"  style="overflow:visible;"/>
			</clipPath>
			<rect x="35.8" y="30.3" class="st99" width="743.1" height="307.9"/>
			<path class="st99" d="M655.1,184.3c0-34.2-6.9-66.8-19.5-96.4c-6.3-14.8-13.9-28.9-22.8-42.1c-4.5-6.6-9.2-13-14.3-19.1v2.6
				H216.2v-2.6c-5,6.1-9.8,12.5-14.3,19.1C193,58.9,185.4,73,179.1,87.8c-12.5,29.6-19.5,62.2-19.5,96.4s6.9,66.8,19.5,96.4
				c6.3,14.8,13.9,28.9,22.8,42.1c4.5,6.6,9.2,13,14.3,19.1v-2.6h382.3v2.6c5-6.1,9.8-12.5,14.3-19.1c8.9-13.2,16.6-27.3,22.8-42.1
				C648.1,251,655.1,218.5,655.1,184.3z"/>
			<path class="st100" d="M651.3,184.3c0-33.7-6.8-65.8-19.2-95c-6.2-14.6-13.7-28.5-22.5-41.4c-4.4-6.5-9.1-12.8-14-18.8v0.2H219.1
				v-0.2c-5,6-9.7,12.3-14,18.8c-8.8,13-16.3,26.8-22.5,41.4c-12.3,29.2-19.2,61.3-19.2,95s6.8,65.8,19.2,95
				c6.2,14.6,13.7,28.5,22.5,41.4c4.4,6.5,9.1,12.8,14,18.8v-0.2h376.5v0.2c5-6,9.7-12.3,14-18.8c8.8-13,16.3-26.8,22.5-41.4
				C644.5,250,651.3,217.9,651.3,184.3z"/>
			<path class="st101" d="M647.6,184.3c0-33.2-6.7-64.8-18.9-93.5c-6.1-14.4-13.5-28-22.1-40.8c-4.3-6.4-8.9-12.6-13.8-18.5
				c-2.4-3-5-5.9-7.6-8.7v6.6H229.5v-6.6c-2.6,2.8-5.1,5.8-7.6,8.7c-4.9,5.9-9.5,12.1-13.8,18.5c-8.6,12.8-16.1,26.4-22.1,40.8
				c-12.2,28.7-18.9,60.3-18.9,93.5s6.7,64.8,18.9,93.5c6.1,14.4,13.5,28,22.1,40.8c4.3,6.4,8.9,12.6,13.8,18.5c2.4,3,5,5.9,7.6,8.7
				v-6.6h355.6v6.6c2.6-2.8,5.1-5.8,7.6-8.7c4.9-5.9,9.5-12.1,13.8-18.5c8.6-12.8,16.1-26.4,22.1-40.8
				C640.8,249,647.6,217.4,647.6,184.3z"/>
			<path class="st102" d="M643.8,184.3c0-32.6-6.6-63.8-18.6-92c-6-14.1-13.3-27.6-21.8-40.2c-4.2-6.3-8.8-12.4-13.6-18.2
				c-2.4-2.9-4.9-5.8-7.4-8.6v4H232.3v-4c-2.5,2.8-5,5.7-7.4,8.6c-4.8,5.8-9.4,11.9-13.6,18.2c-8.5,12.6-15.8,26-21.8,40.2
				c-12,28.3-18.6,59.4-18.6,92s6.6,63.8,18.6,92c6,14.1,13.3,27.6,21.8,40.2c4.2,6.3,8.8,12.4,13.6,18.2c2.4,2.9,4.9,5.8,7.4,8.6
				v-4h350.1v4c2.5-2.8,5-5.7,7.4-8.6c4.8-5.8,9.4-11.9,13.6-18.2c8.5-12.6,15.8-26,21.8-40.2C637.2,248,643.8,216.9,643.8,184.3z"
				/>
			<path class="st103" d="M640.1,184.3c0-32.1-6.5-62.7-18.3-90.6c-5.9-13.9-13.1-27.1-21.5-39.5c-4.2-6.2-8.7-12.2-13.4-17.9
				c-2.4-2.9-4.8-5.7-7.3-8.4v1.5H235.1v-1.5c-2.5,2.8-4.9,5.6-7.3,8.4c-4.7,5.7-9.2,11.7-13.4,17.9c-8.4,12.4-15.6,25.6-21.5,39.5
				c-11.8,27.8-18.3,58.5-18.3,90.6s6.5,62.7,18.3,90.6c5.9,13.9,13.1,27.1,21.5,39.5c4.2,6.2,8.7,12.2,13.4,17.9
				c2.4,2.9,4.8,5.7,7.3,8.4v-1.5h344.5v1.5c2.5-2.8,4.9-5.6,7.3-8.4c4.7-5.7,9.2-11.7,13.4-17.9c8.4-12.4,15.6-25.6,21.5-39.5
				C633.6,247,640.1,216.4,640.1,184.3z"/>
			<path class="st104" d="M636.3,184.3c0-63.2-25.6-120.5-67.1-161.9v6.9H245.5v-6.9C204,63.8,178.4,121,178.4,184.3
				s25.6,120.5,67.1,161.9v-6.9h323.8v6.9C610.7,304.7,636.3,247.5,636.3,184.3z"/>
			<path class="st105" d="M632.6,184.3c0-62.2-25.2-118.5-66-159.2v4.3H248.1V25c-40.8,40.8-66,97.1-66,159.2s25.2,118.5,66,159.2
				v-4.3h318.5v4.3C607.4,302.7,632.6,246.4,632.6,184.3z"/>
			<path class="st106" d="M628.8,184.3c0-61.2-24.8-116.5-64.9-156.6v1.6H250.8v-1.6c-40.1,40.1-64.9,95.4-64.9,156.6
				s24.8,116.5,64.9,156.6v-1.6h313.2v1.6C604,300.8,628.8,245.4,628.8,184.3z"/>
			<path class="st107" d="M625.1,184.3c0-60.1-24.4-114.5-63.8-153.9c-2.5-2.5-5-4.9-7.6-7.2v6.2H261v-6.2c-2.6,2.3-5.1,4.7-7.6,7.2
				c-39.4,39.4-63.8,93.8-63.8,153.9s24.4,114.5,63.8,153.9c2.5,2.5,5,4.9,7.6,7.2v-6.2h292.8v6.2c2.6-2.3,5.1-4.7,7.6-7.2
				C600.7,298.8,625.1,244.4,625.1,184.3z"/>
			<path class="st108" d="M621.3,184.3c0-59.1-23.9-112.6-62.7-151.3c-2.4-2.4-4.9-4.8-7.4-7.1v3.4H263.5v-3.4
				c-2.5,2.3-5,4.7-7.4,7.1c-38.7,38.7-62.7,92.2-62.7,151.3s23.9,112.6,62.7,151.3c2.4,2.4,4.9,4.8,7.4,7.1v-3.4h287.7v3.4
				c2.5-2.3,5-4.7,7.4-7.1C597.4,296.8,621.3,243.3,621.3,184.3z"/>
			<path class="st109" d="M617.5,184.3c0-58-23.5-110.6-61.6-148.6c-2.4-2.4-4.8-4.7-7.3-7v0.6H266v-0.6c-2.5,2.3-4.9,4.6-7.3,7
				c-38,38-61.6,90.6-61.6,148.6s23.5,110.6,61.6,148.6c2.4,2.4,4.8,4.7,7.3,7v-0.6h282.7v0.6c2.5-2.3,4.9-4.6,7.3-7
				C594,294.8,617.5,242.3,617.5,184.3z"/>
			<path class="st110" d="M613.8,184.3c0-57-23.1-108.6-60.5-146c-4.7-4.7-9.6-9.1-14.7-13.3v4.3H276V25c-5.1,4.2-10,8.7-14.7,13.3
				c-37.4,37.4-60.5,89-60.5,146s23.1,108.6,60.5,146c4.7,4.7,9.6,9.1,14.7,13.3v-4.3h262.6v4.3c5.1-4.2,10-8.7,14.7-13.3
				C590.7,292.9,613.8,241.3,613.8,184.3z"/>
			<path class="st111" d="M610,184.3c0-56-22.7-106.6-59.4-143.3c-4.6-4.6-9.4-9-14.4-13.1v1.5H278.4v-1.5c-5,4.1-9.8,8.5-14.4,13.1
				c-36.7,36.7-59.4,87.4-59.4,143.3s22.7,106.6,59.4,143.3c4.6,4.6,9.4,9,14.4,13.1v-1.5h257.9v1.5c5-4.1,9.8-8.5,14.4-13.1
				C587.3,290.9,610,240.2,610,184.3z"/>
			<path class="st112" d="M606.3,184.3c0-54.9-22.3-104.7-58.3-140.7c-4.5-4.5-9.2-8.8-14.1-12.8c-2.5-2-5-4-7.5-5.9v4.5h-238v-4.5
				c-2.6,1.9-5.1,3.9-7.5,5.9c-4.9,4.1-9.6,8.3-14.1,12.8c-36,36-58.3,85.7-58.3,140.7s22.3,104.7,58.3,140.7
				c4.5,4.5,9.2,8.8,14.1,12.8c2.5,2,5,4,7.5,5.9v-4.5h238v4.5c2.6-1.9,5.1-3.9,7.5-5.9c4.9-4.1,9.6-8.3,14.1-12.8
				C584,288.9,606.3,239.2,606.3,184.3z"/>
			<path class="st113" d="M602.5,184.3c0-53.9-21.8-102.7-57.2-138c-8.8-8.8-18.5-16.8-28.9-23.8v6.9H298.2v-6.9
				c-10.4,7-20.1,15-28.9,23.8c-35.3,35.3-57.2,84.1-57.2,138s21.8,102.7,57.2,138c8.8,8.8,18.5,16.8,28.9,23.8v-6.9h218.3v6.9
				c10.4-7,20.1-15,28.9-23.8C580.7,286.9,602.5,238.1,602.5,184.3z"/>
			<path class="st114" d="M598.8,184.3c0-52.9-21.4-100.7-56.1-135.4c-8.7-8.7-18.1-16.5-28.3-23.4v3.8H300.3v-3.8
				c-10.2,6.9-19.7,14.7-28.3,23.4c-34.6,34.6-56.1,82.5-56.1,135.4S237.3,285,272,319.6c8.7,8.7,18.1,16.5,28.3,23.4v-3.8h214.1
				v3.8c10.2-6.9,19.7-14.7,28.3-23.4C577.3,285,598.8,237.1,598.8,184.3z"/>
			<path class="st115" d="M595,184.3c0-51.8-21-98.7-55-132.7c-8.5-8.5-17.8-16.2-27.8-22.9v0.7H302.4v-0.7
				c-10,6.7-19.3,14.4-27.8,22.9c-34,34-55,80.9-55,132.7s21,98.7,55,132.7c8.5,8.5,17.8,16.2,27.8,22.9v-0.7h209.9v0.7
				c10-6.7,19.3-14.4,27.8-22.9C574,283,595,236.1,595,184.3z"/>
			<path class="st116" d="M591.3,184.3c0-50.8-20.6-96.8-53.9-130.1c-8.3-8.3-17.4-15.8-27.2-22.5c-4.9-3.3-10-6.4-15.2-9.2v6.8
				H319.7v-6.8c-5.2,2.8-10.3,5.9-15.2,9.2c-9.8,6.6-18.9,14.1-27.2,22.5c-33.3,33.3-53.9,79.3-53.9,130.1S244,281,277.3,314.3
				c8.3,8.3,17.4,15.8,27.2,22.5c4.9,3.3,10,6.4,15.2,9.2v-6.8H495v6.8c5.2-2.8,10.3-5.9,15.2-9.2c9.8-6.6,18.9-14.1,27.2-22.5
				C570.7,281,591.3,235,591.3,184.3z"/>
			<path class="st117" d="M587.5,184.3c0-49.8-20.2-94.8-52.8-127.4c-8.2-8.2-17.1-15.5-26.7-22c-4.8-3.2-9.7-6.3-14.9-9v3.5H321.5
				v-3.5c-5.1,2.8-10.1,5.8-14.9,9c-9.6,6.5-18.5,13.8-26.7,22c-32.6,32.6-52.8,77.6-52.8,127.4S247.3,279,280,311.6
				c8.2,8.2,17.1,15.5,26.7,22c4.8,3.2,9.7,6.3,14.9,9v-3.5h171.8v3.5c5.1-2.8,10.1-5.8,14.9-9c9.6-6.5,18.5-13.8,26.7-22
				C567.3,279,587.5,234,587.5,184.3z"/>
			<path class="st118" d="M583.8,184.3c0-48.7-19.7-92.8-51.7-124.7c-8-8-16.7-15.2-26.1-21.5c-4.7-3.2-9.5-6.1-14.5-8.8v0.2H323.3
				v-0.2c-5,2.7-9.9,5.7-14.5,8.8c-9.4,6.3-18.1,13.6-26.1,21.5c-31.9,31.9-51.7,76-51.7,124.7s19.7,92.8,51.7,124.7
				c8,8,16.7,15.2,26.1,21.5c4.7,3.2,9.5,6.1,14.5,8.8v-0.2h168.2v0.2c5-2.7,9.9-5.7,14.5-8.8c9.4-6.3,18.1-13.6,26.1-21.5
				C564,277.1,583.8,233,583.8,184.3z"/>
			<path class="st119" d="M580,184.3c0-47.7-19.3-90.8-50.6-122.1c-15.6-15.6-34.2-28.3-54.9-37v4.1H340.1v-4.1
				c-20.7,8.7-39.3,21.4-54.9,37c-31.2,31.2-50.6,74.4-50.6,122.1s19.3,90.8,50.6,122.1c15.6,15.6,34.2,28.3,54.9,37v-4.1h134.4v4.1
				c20.7-8.7,39.3-21.4,54.9-37C560.7,275.1,580,231.9,580,184.3z"/>
			<path class="st120" d="M576.3,184.3c0-46.6-18.9-88.9-49.5-119.4c-15.3-15.3-33.5-27.7-53.7-36.2v0.7H341.6v-0.7
				c-20.2,8.5-38.4,20.9-53.7,36.2c-30.6,30.6-49.5,72.8-49.5,119.4s18.9,88.9,49.5,119.4c15.3,15.3,33.5,27.7,53.7,36.2v-0.7h131.5
				v0.7c20.2-8.5,38.4-20.9,53.7-36.2C557.3,273.1,576.3,230.9,576.3,184.3z"/>
			<path class="st121" d="M572.5,184.3c0-45.6-18.5-86.9-48.4-116.8c-14.9-14.9-32.7-27-52.5-35.4c-9.9-4.2-20.2-7.4-31-9.6v6.8
				h-66.6v-6.8c-10.8,2.2-21.1,5.4-31,9.6c-19.8,8.4-37.6,20.5-52.5,35.4c-29.9,29.9-48.4,71.2-48.4,116.8s18.5,86.9,48.4,116.8
				c14.9,14.9,32.7,27,52.5,35.4c9.9,4.2,20.2,7.4,31,9.6v-6.8h66.6v6.8c10.8-2.2,21.1-5.4,31-9.6c19.8-8.4,37.6-20.5,52.5-35.4
				C554,271.1,572.5,229.9,572.5,184.3z"/>
			<circle class="st122" cx="407.3" cy="184.3" r="161.4"/>
			<circle class="st123" cx="407.3" cy="184.3" r="157.6"/>
			<circle class="st124" cx="407.3" cy="184.3" r="153.9"/>
			<circle class="st125" cx="407.3" cy="184.3" r="150.1"/>
			<circle class="st126" cx="407.3" cy="184.3" r="146.4"/>
			<circle class="st127" cx="407.3" cy="184.3" r="142.6"/>
			<circle class="st128" cx="407.3" cy="184.3" r="138.9"/>
			<circle class="st129" cx="407.3" cy="184.3" r="135.1"/>
			<circle class="st130" cx="407.3" cy="184.3" r="131.4"/>
			<circle class="st131" cx="407.3" cy="184.3" r="127.6"/>
			<circle class="st132" cx="407.3" cy="184.3" r="123.9"/>
			<circle class="st133" cx="407.3" cy="184.3" r="120.1"/>
			<circle class="st134" cx="407.3" cy="184.3" r="116.4"/>
			<circle class="st135" cx="407.3" cy="184.3" r="112.6"/>
			<circle class="st136" cx="407.3" cy="184.3" r="108.9"/>
			<circle class="st137" cx="407.3" cy="184.3" r="105.1"/>
			<circle class="st138" cx="407.3" cy="184.3" r="101.3"/>
			<circle class="st139" cx="407.3" cy="184.3" r="97.6"/>
			<circle class="st140" cx="407.3" cy="184.3" r="93.8"/>
			<circle class="st141" cx="407.3" cy="184.3" r="90.1"/>
			<circle class="st142" cx="407.3" cy="184.3" r="86.3"/>
			<circle class="st143" cx="407.3" cy="184.3" r="82.6"/>
			<circle class="st144" cx="407.3" cy="184.3" r="78.8"/>
			<circle class="st145" cx="407.3" cy="184.3" r="75.1"/>
			<circle class="st146" cx="407.3" cy="184.3" r="71.3"/>
			<circle class="st147" cx="407.3" cy="184.3" r="67.6"/>
			<circle class="st148" cx="407.3" cy="184.3" r="63.8"/>
			<circle class="st149" cx="407.3" cy="184.3" r="60.1"/>
			<circle class="st150" cx="407.3" cy="184.3" r="56.3"/>
			<circle class="st151" cx="407.3" cy="184.3" r="52.5"/>
			<circle class="st152" cx="407.3" cy="184.3" r="48.8"/>
			<circle class="st153" cx="407.3" cy="184.3" r="45"/>
			<circle class="st154" cx="407.3" cy="184.3" r="41.3"/>
			<circle class="st155" cx="407.3" cy="184.3" r="37.5"/>
			<circle class="st156" cx="407.3" cy="184.3" r="33.8"/>
			<circle class="st157" cx="407.3" cy="184.3" r="30"/>
			<circle class="st158" cx="407.3" cy="184.3" r="26.3"/>
			<circle class="st159" cx="407.3" cy="184.3" r="22.5"/>
			<circle class="st160" cx="407.3" cy="184.3" r="18.8"/>
			<circle class="st161" cx="407.3" cy="184.3" r="15"/>
			<circle class="st162" cx="407.3" cy="184.3" r="11.3"/>
			<circle class="st163" cx="407.3" cy="184.3" r="7.5"/>
			<circle class="st164" cx="407.3" cy="184.3" r="3.8"/>
		</g>
	</g>
	<g>
		<path class="st67" d="M769.2,263.8c0,35-27.5,63.5-61.1,63.5H106.5c-33.6,0-61.1-28.6-61.1-63.5V87.7c0-35,27.5-63.5,61.1-63.5
			h601.6c33.6,0,61.1,28.6,61.1,63.5V263.8z"/>
	</g>
	<g>
		<g>
			<g>
				<defs>
					<path id="SVGID_7_" d="M769.2,266.3c0,33.6-27.5,61.1-61.1,61.1H106.5c-33.6,0-61.1-27.5-61.1-61.1V94.4
						c0-33.6,27.5-61.1,61.1-61.1h601.6c33.6,0,61.1,27.5,61.1,61.1V266.3z"/>
				</defs>
				<clipPath id="SVGID_8_">
					<use xlink:href="#SVGID_7_"  style="overflow:visible;"/>
				</clipPath>
				<g class="st165">
					<rect x="45.5" y="33.4" class="st166" width="723.7" height="294"/>
				</g>
			</g>
			<g>
				<defs>
					<path id="SVGID_9_" d="M769.2,266.3c0,33.6-27.5,61.1-61.1,61.1H106.5c-33.6,0-61.1-27.5-61.1-61.1V94.4
						c0-33.6,27.5-61.1,61.1-61.1h601.6c33.6,0,61.1,27.5,61.1,61.1V266.3z"/>
				</defs>
				<clipPath id="SVGID_10_">
					<use xlink:href="#SVGID_9_"  style="overflow:visible;"/>
				</clipPath>
				<g class="st167">
					<path class="st166" d="M770.2,64.5v72.8v16.3h3.2c-6.4,5.3-13.3,10.4-20.7,15.4c-14.9,9.9-31.8,19.2-50.6,27.7
						c-74.9,33.8-178.5,54.8-292.8,54.8s-217.9-20.9-292.8-54.8C97.8,188.2,80.8,179,65.9,169c-7.4-5-14.4-10.1-20.7-15.4
						c-1.6-1.3-3.2-2.7-4.7-4h4V32.4h725.7L770.2,64.5L770.2,64.5z"/>
				</g>
			</g>
			<g>
				<defs>
					<path id="SVGID_11_" d="M769.2,266.3c0,33.6-27.5,61.1-61.1,61.1H106.5c-33.6,0-61.1-27.5-61.1-61.1V94.4
						c0-33.6,27.5-61.1,61.1-61.1h601.6c33.6,0,61.1,27.5,61.1,61.1V266.3z"/>
				</defs>
				<clipPath id="SVGID_12_">
					<use xlink:href="#SVGID_11_"  style="overflow:visible;"/>
				</clipPath>
				<g class="st168">
					<path class="st169" d="M770.2,64.5v70.4v8h0.3c-2.8,2.6-5.8,5.2-8.8,7.8c-6.2,5.1-12.9,10.1-20.1,14.9
						c-14.4,9.6-30.8,18.6-48.9,26.8c-72.5,32.8-172.7,53-283.4,53s-210.8-20.3-283.4-53C89.6,176,60.3,156.5,40,134.9h4.4V32.4
						h725.7L770.2,64.5L770.2,64.5z"/>
				</g>
			</g>
			<g>
				<defs>
					<path id="SVGID_13_" d="M769.2,266.3c0,33.6-27.5,61.1-61.1,61.1H106.5c-33.6,0-61.1-27.5-61.1-61.1V94.4
						c0-33.6,27.5-61.1,61.1-61.1h601.6c33.6,0,61.1,27.5,61.1,61.1V266.3z"/>
				</defs>
				<clipPath id="SVGID_14_">
					<use xlink:href="#SVGID_13_"  style="overflow:visible;"/>
				</clipPath>
				<g class="st170">
					<path class="st171" d="M770.2,64.5v35.3v24.9h2.9c-2.2,2.7-4.5,5.3-6.9,7.9c-19.6,20.9-48,39.8-83,55.6
						c-70.1,31.7-166.9,51.2-273.9,51.2s-203.8-19.6-273.9-51.2c-35.1-15.8-63.4-34.7-83-55.6c-4.9-5.2-9.3-10.6-13-16.1h5.2V32.3
						h725.7L770.2,64.5L770.2,64.5z"/>
				</g>
			</g>
			<g>
				<defs>
					<path id="SVGID_15_" d="M769.2,266.3c0,33.6-27.5,61.1-61.1,61.1H106.5c-33.6,0-61.1-27.5-61.1-61.1V94.4
						c0-33.6,27.5-61.1,61.1-61.1h601.6c33.6,0,61.1,27.5,61.1,61.1V266.3z"/>
				</defs>
				<clipPath id="SVGID_16_">
					<use xlink:href="#SVGID_15_"  style="overflow:visible;"/>
				</clipPath>
				<g class="st172">
					<path class="st173" d="M770.2,64.5v34h5.5c-5,11-12.3,21.6-21.8,31.7c-18.9,20.2-46.3,38.4-80.2,53.7
						c-67.7,30.6-161.2,49.5-264.5,49.5s-196.8-18.9-264.5-49.5c-33.8-15.3-61.2-33.5-80.2-53.7c-9.5-10.1-16.8-20.7-21.8-31.7h1.6
						V32.3H770v32.2H770.2z"/>
				</g>
			</g>
			<g>
				<defs>
					<path id="SVGID_17_" d="M769.2,266.3c0,33.6-27.5,61.1-61.1,61.1H106.5c-33.6,0-61.1-27.5-61.1-61.1V94.4
						c0-33.6,27.5-61.1,61.1-61.1h601.6c33.6,0,61.1,27.5,61.1,61.1V266.3z"/>
				</defs>
				<clipPath id="SVGID_18_">
					<use xlink:href="#SVGID_17_"  style="overflow:visible;"/>
				</clipPath>
				<g class="st174">
					<path class="st175" d="M770,64.5c0,90-161.5,162.9-360.7,162.9S48.6,154.5,48.6,64.5c0-11.2,2.5-22.2,7.3-32.8v0.7h706.7v-0.7
						C767.4,42.3,770,53.3,770,64.5z"/>
				</g>
			</g>
			<g>
				<defs>
					<path id="SVGID_19_" d="M769.2,266.3c0,33.6-27.5,61.1-61.1,61.1H106.5c-33.6,0-61.1-27.5-61.1-61.1V94.4
						c0-33.6,27.5-61.1,61.1-61.1h601.6c33.6,0,61.1,27.5,61.1,61.1V266.3z"/>
				</defs>
				<clipPath id="SVGID_20_">
					<use xlink:href="#SVGID_19_"  style="overflow:visible;"/>
				</clipPath>
				<g class="st176">
					<path class="st177" d="M756.6,64.5c0,86.6-155.5,156.9-347.3,156.9S62,151.2,62,64.5c0-10.8,2.4-21.4,7.1-31.6
						c0.6-1.3,1.2-2.5,1.8-3.8v3.3h676.8v-3.3c0.6,1.3,1.3,2.5,1.8,3.8C754.2,43.1,756.6,53.7,756.6,64.5z"/>
				</g>
			</g>
			<g>
				<defs>
					<path id="SVGID_21_" d="M769.2,266.3c0,33.6-27.5,61.1-61.1,61.1H106.5c-33.6,0-61.1-27.5-61.1-61.1V94.4
						c0-33.6,27.5-61.1,61.1-61.1h601.6c33.6,0,61.1,27.5,61.1,61.1V266.3z"/>
				</defs>
				<clipPath id="SVGID_22_">
					<use xlink:href="#SVGID_21_"  style="overflow:visible;"/>
				</clipPath>
				<g class="st178">
					<path class="st179" d="M743.3,64.5c0,83.3-149.5,150.8-333.9,150.8S75.5,147.8,75.5,64.5c0-10.4,2.3-20.6,6.8-30.4
						c1.1-2.5,2.4-4.9,3.7-7.3v5.5h646.9v-5.5c1.4,2.4,2.6,4.8,3.7,7.3C740.9,44,743.3,54.1,743.3,64.5z"/>
				</g>
			</g>
			<g>
				<defs>
					<path id="SVGID_23_" d="M769.2,266.3c0,33.6-27.5,61.1-61.1,61.1H106.5c-33.6,0-61.1-27.5-61.1-61.1V94.4
						c0-33.6,27.5-61.1,61.1-61.1h601.6c33.6,0,61.1,27.5,61.1,61.1V266.3z"/>
				</defs>
				<clipPath id="SVGID_24_">
					<use xlink:href="#SVGID_23_"  style="overflow:visible;"/>
				</clipPath>
				<g class="st180">
					<path class="st181" d="M729.9,64.5c0,80-143.5,144.8-320.6,144.8S88.7,144.5,88.7,64.5c0-10,2.2-19.8,6.5-29.2
						c1.1-2.4,2.3-4.7,3.6-7v4h621v-4c1.3,2.3,2.5,4.6,3.6,7C727.7,44.8,729.9,54.5,729.9,64.5z"/>
				</g>
			</g>
			<g>
				<defs>
					<path id="SVGID_25_" d="M769.2,266.3c0,33.6-27.5,61.1-61.1,61.1H106.5c-33.6,0-61.1-27.5-61.1-61.1V94.4
						c0-33.6,27.5-61.1,61.1-61.1h601.6c33.6,0,61.1,27.5,61.1,61.1V266.3z"/>
				</defs>
				<clipPath id="SVGID_26_">
					<use xlink:href="#SVGID_25_"  style="overflow:visible;"/>
				</clipPath>
				<g class="st182">
					<path class="st183" d="M716.5,64.5c0,76.6-137.6,138.8-307.2,138.8S102.1,141.2,102.1,64.5c0-9.6,2.1-18.9,6.2-28
						c1-2.3,2.2-4.5,3.4-6.7v2.5h595.1v-2.5c1.3,2.2,2.4,4.5,3.4,6.7C714.4,45.6,716.5,55,716.5,64.5z"/>
				</g>
			</g>
			<g>
				<defs>
					<path id="SVGID_27_" d="M769.2,266.3c0,33.6-27.5,61.1-61.1,61.1H106.5c-33.6,0-61.1-27.5-61.1-61.1V94.4
						c0-33.6,27.5-61.1,61.1-61.1h601.6c33.6,0,61.1,27.5,61.1,61.1V266.3z"/>
				</defs>
				<clipPath id="SVGID_28_">
					<use xlink:href="#SVGID_27_"  style="overflow:visible;"/>
				</clipPath>
				<g class="st184">
					<path class="st185" d="M703.2,64.5c0,73.3-131.6,132.7-293.9,132.7S115.4,137.8,115.4,64.5c0-9.2,2.1-18.1,6-26.7
						c1-2.2,2.1-4.3,3.3-6.4v1h569.2v-1c1.2,2.1,2.3,4.3,3.3,6.4C701.1,46.4,703.2,55.4,703.2,64.5z"/>
				</g>
			</g>
			<g>
				<defs>
					<path id="SVGID_29_" d="M769.2,266.3c0,33.6-27.5,61.1-61.1,61.1H106.5c-33.6,0-61.1-27.5-61.1-61.1V94.4
						c0-33.6,27.5-61.1,61.1-61.1h601.6c33.6,0,61.1,27.5,61.1,61.1V266.3z"/>
				</defs>
				<clipPath id="SVGID_30_">
					<use xlink:href="#SVGID_29_"  style="overflow:visible;"/>
				</clipPath>
				<g class="st186">
					<path class="st187" d="M689.8,64.5c0,70-125.6,126.7-280.5,126.7S128.8,134.5,128.8,64.5c0-8.7,2-17.3,5.7-25.5
						c1.9-4.1,4.2-8.2,6.9-12.1v5.5h535.8v-5.5c2.7,4,5,8,6.9,12.1C687.9,47.2,689.8,55.8,689.8,64.5z"/>
				</g>
			</g>
			<g>
				<defs>
					<path id="SVGID_31_" d="M769.2,266.3c0,33.6-27.5,61.1-61.1,61.1H106.5c-33.6,0-61.1-27.5-61.1-61.1V94.4
						c0-33.6,27.5-61.1,61.1-61.1h601.6c33.6,0,61.1,27.5,61.1,61.1V266.3z"/>
				</defs>
				<clipPath id="SVGID_32_">
					<use xlink:href="#SVGID_31_"  style="overflow:visible;"/>
				</clipPath>
				<g class="st188">
					<path class="st189" d="M676.5,64.5c0,66.6-119.6,120.7-267.2,120.7s-267.2-54-267.2-120.7c0-8.3,1.9-16.5,5.4-24.3
						c1.8-3.9,4-7.8,6.6-11.6v3.7h510.3v-3.7c2.6,3.8,4.8,7.6,6.6,11.6C674.6,48.1,676.5,56.2,676.5,64.5z"/>
				</g>
			</g>
			<g>
				<defs>
					<path id="SVGID_33_" d="M769.2,266.3c0,33.6-27.5,61.1-61.1,61.1H106.5c-33.6,0-61.1-27.5-61.1-61.1V94.4
						c0-33.6,27.5-61.1,61.1-61.1h601.6c33.6,0,61.1,27.5,61.1,61.1V266.3z"/>
				</defs>
				<clipPath id="SVGID_34_">
					<use xlink:href="#SVGID_33_"  style="overflow:visible;"/>
				</clipPath>
				<g class="st190">
					<path class="st191" d="M663.1,64.5c0,63.3-113.6,114.6-253.8,114.6S155.5,127.8,155.5,64.5c0-7.9,1.8-15.6,5.2-23.1
						c1.7-3.7,3.8-7.4,6.3-11v1.9h484.8v-1.9c2.5,3.6,4.6,7.3,6.3,11C661.3,48.9,663.1,56.6,663.1,64.5z"/>
				</g>
			</g>
			<g>
				<defs>
					<path id="SVGID_35_" d="M769.2,266.3c0,33.6-27.5,61.1-61.1,61.1H106.5c-33.6,0-61.1-27.5-61.1-61.1V94.4
						c0-33.6,27.5-61.1,61.1-61.1h601.6c33.6,0,61.1,27.5,61.1,61.1V266.3z"/>
				</defs>
				<clipPath id="SVGID_36_">
					<use xlink:href="#SVGID_35_"  style="overflow:visible;"/>
				</clipPath>
				<g class="st192">
					<path class="st193" d="M649.7,64.5c0,60-107.7,108.6-240.4,108.6S168.9,124.5,168.9,64.5c0-7.5,1.7-14.8,4.9-21.9
						c1.6-3.5,3.6-7,5.9-10.4v0.1H639v-0.1c2.3,3.4,4.3,6.9,5.9,10.4C648.1,49.7,649.7,57,649.7,64.5z"/>
				</g>
			</g>
			<g>
				<defs>
					<path id="SVGID_37_" d="M769.2,266.3c0,33.6-27.5,61.1-61.1,61.1H106.5c-33.6,0-61.1-27.5-61.1-61.1V94.4
						c0-33.6,27.5-61.1,61.1-61.1h601.6c33.6,0,61.1,27.5,61.1,61.1V266.3z"/>
				</defs>
				<clipPath id="SVGID_38_">
					<use xlink:href="#SVGID_37_"  style="overflow:visible;"/>
				</clipPath>
				<g class="st194">
					<path class="st195" d="M636.4,64.5c0,56.6-101.7,102.6-227.1,102.6S182.2,121.2,182.2,64.5c0-7.1,1.6-14,4.6-20.7
						c1.5-3.3,3.4-6.6,5.6-9.8c1.1-1.6,2.3-3.2,3.6-4.8v3.1h426.6v-3.1c1.3,1.6,2.5,3.2,3.6,4.8c2.2,3.2,4.1,6.5,5.6,9.8
						C634.8,50.5,636.4,57.4,636.4,64.5z"/>
				</g>
			</g>
			<g>
				<defs>
					<path id="SVGID_39_" d="M769.2,266.3c0,33.6-27.5,61.1-61.1,61.1H106.5c-33.6,0-61.1-27.5-61.1-61.1V94.4
						c0-33.6,27.5-61.1,61.1-61.1h601.6c33.6,0,61.1,27.5,61.1,61.1V266.3z"/>
				</defs>
				<clipPath id="SVGID_40_">
					<use xlink:href="#SVGID_39_"  style="overflow:visible;"/>
				</clipPath>
				<g class="st196">
					<path class="st197" d="M623,64.5c0,53.3-95.7,96.5-213.7,96.5s-213.7-43.2-213.7-96.5c0-13.3,6-26,16.8-37.6v5.4h393.9v-5.4
						C617,38.5,623,51.2,623,64.5z"/>
				</g>
			</g>
			<g>
				<defs>
					<path id="SVGID_41_" d="M769.2,266.3c0,33.6-27.5,61.1-61.1,61.1H106.5c-33.6,0-61.1-27.5-61.1-61.1V94.4
						c0-33.6,27.5-61.1,61.1-61.1h601.6c33.6,0,61.1,27.5,61.1,61.1V266.3z"/>
				</defs>
				<clipPath id="SVGID_42_">
					<use xlink:href="#SVGID_41_"  style="overflow:visible;"/>
				</clipPath>
				<g class="st198">
					<path class="st199" d="M609.7,64.5c0,50-89.7,90.5-200.4,90.5s-200.4-40.5-200.4-90.5c0-12.5,5.6-24.4,15.7-35.2v3.1h369.2
						v-3.1C604.1,40.1,609.7,52,609.7,64.5z"/>
				</g>
			</g>
			<g>
				<defs>
					<path id="SVGID_43_" d="M769.2,266.3c0,33.6-27.5,61.1-61.1,61.1H106.5c-33.6,0-61.1-27.5-61.1-61.1V94.4
						c0-33.6,27.5-61.1,61.1-61.1h601.6c33.6,0,61.1,27.5,61.1,61.1V266.3z"/>
				</defs>
				<clipPath id="SVGID_44_">
					<use xlink:href="#SVGID_43_"  style="overflow:visible;"/>
				</clipPath>
				<g class="st200">
					<path class="st201" d="M596.3,64.5c0,46.6-83.7,84.5-187,84.5s-187-37.8-187-84.5c0-11.7,5.2-22.8,14.7-32.9v0.7h344.6v-0.7
						C591.1,41.8,596.3,52.9,596.3,64.5z"/>
				</g>
			</g>
			<g>
				<defs>
					<path id="SVGID_45_" d="M769.2,266.3c0,33.6-27.5,61.1-61.1,61.1H106.5c-33.6,0-61.1-27.5-61.1-61.1V94.4
						c0-33.6,27.5-61.1,61.1-61.1h601.6c33.6,0,61.1,27.5,61.1,61.1V266.3z"/>
				</defs>
				<clipPath id="SVGID_46_">
					<use xlink:href="#SVGID_45_"  style="overflow:visible;"/>
				</clipPath>
				<g class="st202">
					<path class="st203" d="M583,64.5c0,43.3-77.7,78.4-173.7,78.4s-173.7-35.1-173.7-78.4c0-10.8,4.9-21.1,13.6-30.5
						c2.2-2.3,4.6-4.6,7.3-6.9v5.2h305.4v-5.2c2.7,2.2,5.1,4.5,7.3,6.9C578.1,43.4,583,53.7,583,64.5z"/>
				</g>
			</g>
			<g>
				<defs>
					<path id="SVGID_47_" d="M769.2,266.3c0,33.6-27.5,61.1-61.1,61.1H106.5c-33.6,0-61.1-27.5-61.1-61.1V94.4
						c0-33.6,27.5-61.1,61.1-61.1h601.6c33.6,0,61.1,27.5,61.1,61.1V266.3z"/>
				</defs>
				<clipPath id="SVGID_48_">
					<use xlink:href="#SVGID_47_"  style="overflow:visible;"/>
				</clipPath>
				<g class="st204">
					<path class="st205" d="M569.6,64.5c0,40-71.8,72.4-160.3,72.4S249,104.5,249,64.5c0-10,4.5-19.5,12.6-28.2
						c2-2.2,4.3-4.3,6.8-6.3v2.3h281.9V30c2.5,2.1,4.7,4.2,6.8,6.3C565.1,45,569.6,54.5,569.6,64.5z"/>
				</g>
			</g>
			<g>
				<defs>
					<path id="SVGID_49_" d="M769.2,266.3c0,33.6-27.5,61.1-61.1,61.1H106.5c-33.6,0-61.1-27.5-61.1-61.1V94.4
						c0-33.6,27.5-61.1,61.1-61.1h601.6c33.6,0,61.1,27.5,61.1,61.1V266.3z"/>
				</defs>
				<clipPath id="SVGID_50_">
					<use xlink:href="#SVGID_49_"  style="overflow:visible;"/>
				</clipPath>
				<g class="st206">
					<path class="st207" d="M556.2,64.5c0,36.7-65.8,66.4-146.9,66.4c-81.2,0-146.9-29.7-146.9-66.4c0-9.2,4.1-17.9,11.5-25.8
						c3.7-4,8.3-7.7,13.5-11.3v4.9h243.7v-4.9c5.3,3.5,9.8,7.3,13.5,11.3C552.1,46.6,556.2,55.4,556.2,64.5z"/>
				</g>
			</g>
			<g>
				<defs>
					<path id="SVGID_51_" d="M769.2,266.3c0,33.6-27.5,61.1-61.1,61.1H106.5c-33.6,0-61.1-27.5-61.1-61.1V94.4
						c0-33.6,27.5-61.1,61.1-61.1h601.6c33.6,0,61.1,27.5,61.1,61.1V266.3z"/>
				</defs>
				<clipPath id="SVGID_52_">
					<use xlink:href="#SVGID_51_"  style="overflow:visible;"/>
				</clipPath>
				<g class="st208">
					<path class="st209" d="M542.9,64.5c0,33.3-59.8,60.3-133.6,60.3s-133.6-27-133.6-60.3c0-8.3,3.7-16.3,10.5-23.5
						c3.4-3.6,7.5-7,12.3-10.2v1.6H520v-1.6c4.8,3.2,8.9,6.6,12.3,10.2C539.1,48.3,542.9,56.2,542.9,64.5z"/>
				</g>
			</g>
			<g>
				<defs>
					<path id="SVGID_53_" d="M769.2,266.3c0,33.6-27.5,61.1-61.1,61.1H106.5c-33.6,0-61.1-27.5-61.1-61.1V94.4
						c0-33.6,27.5-61.1,61.1-61.1h601.6c33.6,0,61.1,27.5,61.1,61.1V266.3z"/>
				</defs>
				<clipPath id="SVGID_54_">
					<use xlink:href="#SVGID_53_"  style="overflow:visible;"/>
				</clipPath>
				<g class="st210">
					<path class="st211" d="M529.5,64.5c0,30-53.8,54.3-120.2,54.3S289.1,94.5,289.1,64.5c0-15,13.5-28.6,35.2-38.4v6.2h170v-6.2
						C516.1,36,529.5,49.5,529.5,64.5z"/>
				</g>
			</g>
			<g>
				<defs>
					<path id="SVGID_55_" d="M769.2,266.3c0,33.6-27.5,61.1-61.1,61.1H106.5c-33.6,0-61.1-27.5-61.1-61.1V94.4
						c0-33.6,27.5-61.1,61.1-61.1h601.6c33.6,0,61.1,27.5,61.1,61.1V266.3z"/>
				</defs>
				<clipPath id="SVGID_56_">
					<use xlink:href="#SVGID_55_"  style="overflow:visible;"/>
				</clipPath>
				<g class="st212">
					<path class="st213" d="M516.2,64.5c0,26.7-47.8,48.3-106.9,48.3c-59,0-106.9-21.6-106.9-48.3c0-13.3,12-25.4,31.3-34.1v2h151.1
						v-2C504.2,39.1,516.2,51.2,516.2,64.5z"/>
				</g>
			</g>
			<g>
				<defs>
					<path id="SVGID_57_" d="M769.2,266.3c0,33.6-27.5,61.1-61.1,61.1H106.5c-33.6,0-61.1-27.5-61.1-61.1V94.4
						c0-33.6,27.5-61.1,61.1-61.1h601.6c33.6,0,61.1,27.5,61.1,61.1V266.3z"/>
				</defs>
				<clipPath id="SVGID_58_">
					<use xlink:href="#SVGID_57_"  style="overflow:visible;"/>
				</clipPath>
				<g class="st214">
					<path class="st215" d="M502.8,64.5c0,23.3-41.9,42.2-93.5,42.2s-93.5-18.9-93.5-42.2c0-11.7,10.5-22.2,27.4-29.9
						c8.5-3.8,18.5-6.9,29.7-9.1v6.7h72.8v-6.7c11.2,2.1,21.3,5.2,29.7,9.1C492.3,42.3,502.8,52.9,502.8,64.5z"/>
				</g>
			</g>
			<g>
				<defs>
					<path id="SVGID_59_" d="M769.2,266.3c0,33.6-27.5,61.1-61.1,61.1H106.5c-33.6,0-61.1-27.5-61.1-61.1V94.4
						c0-33.6,27.5-61.1,61.1-61.1h601.6c33.6,0,61.1,27.5,61.1,61.1V266.3z"/>
				</defs>
				<clipPath id="SVGID_60_">
					<use xlink:href="#SVGID_59_"  style="overflow:visible;"/>
				</clipPath>
				<g class="st216">
					<ellipse class="st217" cx="409.3" cy="64.5" rx="80.1" ry="36.2"/>
				</g>
			</g>
			<g>
				<defs>
					<path id="SVGID_61_" d="M769.2,266.3c0,33.6-27.5,61.1-61.1,61.1H106.5c-33.6,0-61.1-27.5-61.1-61.1V94.4
						c0-33.6,27.5-61.1,61.1-61.1h601.6c33.6,0,61.1,27.5,61.1,61.1V266.3z"/>
				</defs>
				<clipPath id="SVGID_62_">
					<use xlink:href="#SVGID_61_"  style="overflow:visible;"/>
				</clipPath>
				<g class="st218">
					<ellipse class="st219" cx="409.3" cy="64.5" rx="66.8" ry="30.2"/>
				</g>
			</g>
			<g>
				<defs>
					<path id="SVGID_63_" d="M769.2,266.3c0,33.6-27.5,61.1-61.1,61.1H106.5c-33.6,0-61.1-27.5-61.1-61.1V94.4
						c0-33.6,27.5-61.1,61.1-61.1h601.6c33.6,0,61.1,27.5,61.1,61.1V266.3z"/>
				</defs>
				<clipPath id="SVGID_64_">
					<use xlink:href="#SVGID_63_"  style="overflow:visible;"/>
				</clipPath>
				<g class="st220">
					<ellipse class="st221" cx="409.3" cy="64.5" rx="53.4" ry="24.1"/>
				</g>
			</g>
			<g>
				<defs>
					<path id="SVGID_65_" d="M769.2,266.3c0,33.6-27.5,61.1-61.1,61.1H106.5c-33.6,0-61.1-27.5-61.1-61.1V94.4
						c0-33.6,27.5-61.1,61.1-61.1h601.6c33.6,0,61.1,27.5,61.1,61.1V266.3z"/>
				</defs>
				<clipPath id="SVGID_66_">
					<use xlink:href="#SVGID_65_"  style="overflow:visible;"/>
				</clipPath>
				<g class="st222">
					<ellipse class="st223" cx="409.3" cy="64.5" rx="40.1" ry="18.1"/>
				</g>
			</g>
			<g>
				<defs>
					<path id="SVGID_67_" d="M769.2,266.3c0,33.6-27.5,61.1-61.1,61.1H106.5c-33.6,0-61.1-27.5-61.1-61.1V94.4
						c0-33.6,27.5-61.1,61.1-61.1h601.6c33.6,0,61.1,27.5,61.1,61.1V266.3z"/>
				</defs>
				<clipPath id="SVGID_68_">
					<use xlink:href="#SVGID_67_"  style="overflow:visible;"/>
				</clipPath>
				<g class="st224">
					<ellipse class="st225" cx="409.3" cy="64.5" rx="26.7" ry="12.1"/>
				</g>
			</g>
			<g>
				<defs>
					<path id="SVGID_69_" d="M769.2,266.3c0,33.6-27.5,61.1-61.1,61.1H106.5c-33.6,0-61.1-27.5-61.1-61.1V94.4
						c0-33.6,27.5-61.1,61.1-61.1h601.6c33.6,0,61.1,27.5,61.1,61.1V266.3z"/>
				</defs>
				<clipPath id="SVGID_70_">
					<use xlink:href="#SVGID_69_"  style="overflow:visible;"/>
				</clipPath>
				<g class="st226">
					<ellipse class="st227" cx="409.3" cy="64.5" rx="13.4" ry="6"/>
				</g>
			</g>
		</g>
	</g>
	<g>
		<ellipse class="st66" cx="103.7" cy="69.7" rx="21.3" ry="17.6"/>
	</g>
	<g>
		<ellipse class="st66" cx="712.5" cy="291.1" rx="15.1" ry="13.8"/>
	</g>
	<g>
		<ellipse class="st66" cx="735.1" cy="227" rx="17.6" ry="32.6"/>
	</g>
</g>
</svg>
