<?xml version="1.0" encoding="utf-8"?>
<!-- Generator: Adobe Illustrator 21.1.0, SVG Export Plug-In . SVG Version: 6.00 Build 0)  -->
<svg version="1.1" id="buttons" xmlns="http://www.w3.org/2000/svg" xmlns:xlink="http://www.w3.org/1999/xlink" x="0px" y="0px"
	 viewBox="0 0 1184.7 309.7" style="enable-background:new 0 0 1184.7 309.7;" xml:space="preserve">
<style type="text/css">
	.st0{clip-path:url(#SVGID_2_);fill:#FF5E08;}
	.st1{clip-path:url(#SVGID_2_);fill:#FF5F08;}
	.st2{clip-path:url(#SVGID_2_);fill:#FF6008;}
	.st3{clip-path:url(#SVGID_2_);fill:#FF6108;}
	.st4{clip-path:url(#SVGID_2_);fill:#FF6208;}
	.st5{clip-path:url(#SVGID_2_);fill:#FF6308;}
	.st6{clip-path:url(#SVGID_2_);fill:#FF6408;}
	.st7{clip-path:url(#SVGID_2_);fill:#FF6508;}
	.st8{clip-path:url(#SVGID_2_);fill:#FF6608;}
	.st9{clip-path:url(#SVGID_2_);fill:#FF6708;}
	.st10{clip-path:url(#SVGID_2_);fill:#FF6808;}
	.st11{clip-path:url(#SVGID_2_);fill:#FF6908;}
	.st12{clip-path:url(#SVGID_2_);fill:#FF6A08;}
	.st13{clip-path:url(#SVGID_2_);fill:#FF6B08;}
	.st14{clip-path:url(#SVGID_2_);fill:#FF6C08;}
	.st15{clip-path:url(#SVGID_2_);fill:#FF6D08;}
	.st16{clip-path:url(#SVGID_2_);fill:#FF6E08;}
	.st17{clip-path:url(#SVGID_2_);fill:#FF6F08;}
	.st18{clip-path:url(#SVGID_2_);fill:#FF7008;}
	.st19{clip-path:url(#SVGID_2_);fill:#FF7108;}
	.st20{clip-path:url(#SVGID_2_);fill:#FF7208;}
	.st21{clip-path:url(#SVGID_2_);fill:#FF7308;}
	.st22{clip-path:url(#SVGID_2_);fill:#FF7408;}
	.st23{clip-path:url(#SVGID_2_);fill:#FF7508;}
	.st24{clip-path:url(#SVGID_2_);fill:#FF7608;}
	.st25{clip-path:url(#SVGID_2_);fill:#FF7708;}
	.st26{clip-path:url(#SVGID_2_);fill:#FF7808;}
	.st27{clip-path:url(#SVGID_2_);fill:#FF7908;}
	.st28{clip-path:url(#SVGID_2_);fill:#FF7A08;}
	.st29{clip-path:url(#SVGID_2_);fill:#FF7B08;}
	.st30{clip-path:url(#SVGID_2_);fill:#FF7C08;}
	.st31{clip-path:url(#SVGID_2_);fill:#FF7D08;}
	.st32{clip-path:url(#SVGID_2_);fill:#FF7E08;}
	.st33{clip-path:url(#SVGID_2_);fill:#FF8008;}
	.st34{clip-path:url(#SVGID_2_);fill:#FF8108;}
	.st35{clip-path:url(#SVGID_2_);fill:#FF8208;}
	.st36{clip-path:url(#SVGID_2_);fill:#FF8308;}
	.st37{clip-path:url(#SVGID_2_);fill:#FF8408;}
	.st38{clip-path:url(#SVGID_2_);fill:#FF8508;}
	.st39{clip-path:url(#SVGID_2_);fill:#FF8608;}
	.st40{clip-path:url(#SVGID_2_);fill:#FF8708;}
	.st41{clip-path:url(#SVGID_2_);fill:#FF8808;}
	.st42{clip-path:url(#SVGID_2_);fill:#FF8908;}
	.st43{clip-path:url(#SVGID_2_);fill:#FF8A08;}
	.st44{clip-path:url(#SVGID_2_);fill:#FF8B08;}
	.st45{clip-path:url(#SVGID_2_);fill:#FF8C08;}
	.st46{clip-path:url(#SVGID_2_);fill:#FF8D08;}
	.st47{clip-path:url(#SVGID_2_);fill:#FF8E08;}
	.st48{clip-path:url(#SVGID_2_);fill:#FF8F08;}
	.st49{clip-path:url(#SVGID_2_);fill:#FF9008;}
	.st50{clip-path:url(#SVGID_2_);fill:#FF9108;}
	.st51{clip-path:url(#SVGID_2_);fill:#FF9208;}
	.st52{clip-path:url(#SVGID_2_);fill:#FF9308;}
	.st53{clip-path:url(#SVGID_2_);fill:#FF9408;}
	.st54{clip-path:url(#SVGID_2_);fill:#FF9508;}
	.st55{clip-path:url(#SVGID_2_);fill:#FF9608;}
	.st56{clip-path:url(#SVGID_2_);fill:#FF9708;}
	.st57{clip-path:url(#SVGID_2_);fill:#FF9808;}
	.st58{clip-path:url(#SVGID_2_);fill:#FF9908;}
	.st59{clip-path:url(#SVGID_2_);fill:#FF9A08;}
	.st60{clip-path:url(#SVGID_2_);fill:#FF9B08;}
	.st61{clip-path:url(#SVGID_2_);fill:#FF9C08;}
	.st62{clip-path:url(#SVGID_2_);fill:#FF9D08;}
	.st63{clip-path:url(#SVGID_2_);fill:#FF9E08;}
	.st64{clip-path:url(#SVGID_2_);fill:#FF9F08;}
	.st65{clip-path:url(#SVGID_2_);fill:#FFA008;}
	.st66{fill:#FFF396;}
	.st67{fill:#FFFFFF;}
	.st68{clip-path:url(#SVGID_4_);fill:#FFBC2B;}
	.st69{clip-path:url(#SVGID_4_);fill:#FFBD2C;}
	.st70{clip-path:url(#SVGID_4_);fill:#FFBE2D;}
	.st71{clip-path:url(#SVGID_4_);fill:#FFBF2E;}
	.st72{clip-path:url(#SVGID_4_);fill:#FFC02F;}
	.st73{clip-path:url(#SVGID_4_);fill:#FFC130;}
	.st74{clip-path:url(#SVGID_4_);fill:#FEC231;}
	.st75{clip-path:url(#SVGID_4_);fill:#FEC332;}
	.st76{clip-path:url(#SVGID_4_);fill:#FEC333;}
	.st77{clip-path:url(#SVGID_4_);fill:#FEC434;}
	.st78{clip-path:url(#SVGID_4_);fill:#FEC535;}
	.st79{clip-path:url(#SVGID_4_);fill:#FEC636;}
	.st80{clip-path:url(#SVGID_4_);fill:#FEC737;}
	.st81{clip-path:url(#SVGID_4_);fill:#FEC838;}
	.st82{clip-path:url(#SVGID_4_);fill:#FEC939;}
	.st83{clip-path:url(#SVGID_4_);fill:#FECA3B;}
	.st84{clip-path:url(#SVGID_4_);fill:#FDCB3C;}
	.st85{clip-path:url(#SVGID_4_);fill:#FDCC3D;}
	.st86{clip-path:url(#SVGID_4_);fill:#FDCD3E;}
	.st87{clip-path:url(#SVGID_4_);fill:#FDCE3F;}
	.st88{clip-path:url(#SVGID_4_);fill:#FDCF40;}
	.st89{clip-path:url(#SVGID_4_);fill:#FDD041;}
	.st90{clip-path:url(#SVGID_4_);fill:#FDD142;}
	.st91{clip-path:url(#SVGID_4_);fill:#FDD143;}
	.st92{clip-path:url(#SVGID_4_);fill:#FDD244;}
	.st93{clip-path:url(#SVGID_4_);fill:#FDD345;}
	.st94{clip-path:url(#SVGID_4_);fill:#FCD446;}
	.st95{clip-path:url(#SVGID_4_);fill:#FCD547;}
	.st96{clip-path:url(#SVGID_4_);fill:#FCD648;}
	.st97{clip-path:url(#SVGID_4_);fill:#FCD749;}
	.st98{clip-path:url(#SVGID_4_);fill:#FCD84A;}
	.st99{clip-path:url(#SVGID_7_);fill:#FF5E08;}
	.st100{clip-path:url(#SVGID_7_);fill:#FF5F08;}
	.st101{clip-path:url(#SVGID_7_);fill:#FF6008;}
	.st102{clip-path:url(#SVGID_7_);fill:#FF6108;}
	.st103{clip-path:url(#SVGID_7_);fill:#FF6208;}
	.st104{clip-path:url(#SVGID_7_);fill:#FF6308;}
	.st105{clip-path:url(#SVGID_7_);fill:#FF6408;}
	.st106{clip-path:url(#SVGID_7_);fill:#FF6508;}
	.st107{clip-path:url(#SVGID_7_);fill:#FF6608;}
	.st108{clip-path:url(#SVGID_7_);fill:#FF6708;}
	.st109{clip-path:url(#SVGID_7_);fill:#FF6808;}
	.st110{clip-path:url(#SVGID_7_);fill:#FF6908;}
	.st111{clip-path:url(#SVGID_7_);fill:#FF6A08;}
	.st112{clip-path:url(#SVGID_7_);fill:#FF6B08;}
	.st113{clip-path:url(#SVGID_7_);fill:#FF6C08;}
	.st114{clip-path:url(#SVGID_7_);fill:#FF6D08;}
	.st115{clip-path:url(#SVGID_7_);fill:#FF6E08;}
	.st116{clip-path:url(#SVGID_7_);fill:#FF6F08;}
	.st117{clip-path:url(#SVGID_7_);fill:#FF7008;}
	.st118{clip-path:url(#SVGID_7_);fill:#FF7108;}
	.st119{clip-path:url(#SVGID_7_);fill:#FF7208;}
	.st120{clip-path:url(#SVGID_7_);fill:#FF7308;}
	.st121{clip-path:url(#SVGID_7_);fill:#FF7408;}
	.st122{clip-path:url(#SVGID_7_);fill:#FF7508;}
	.st123{clip-path:url(#SVGID_7_);fill:#FF7608;}
	.st124{clip-path:url(#SVGID_7_);fill:#FF7708;}
	.st125{clip-path:url(#SVGID_7_);fill:#FF7808;}
	.st126{clip-path:url(#SVGID_7_);fill:#FF7908;}
	.st127{clip-path:url(#SVGID_7_);fill:#FF7A08;}
	.st128{clip-path:url(#SVGID_7_);fill:#FF7B08;}
	.st129{clip-path:url(#SVGID_7_);fill:#FF7C08;}
	.st130{clip-path:url(#SVGID_7_);fill:#FF7D08;}
	.st131{clip-path:url(#SVGID_7_);fill:#FF7E08;}
	.st132{clip-path:url(#SVGID_7_);fill:#FF8008;}
	.st133{clip-path:url(#SVGID_7_);fill:#FF8108;}
	.st134{clip-path:url(#SVGID_7_);fill:#FF8208;}
	.st135{clip-path:url(#SVGID_7_);fill:#FF8308;}
	.st136{clip-path:url(#SVGID_7_);fill:#FF8408;}
	.st137{clip-path:url(#SVGID_7_);fill:#FF8508;}
	.st138{clip-path:url(#SVGID_7_);fill:#FF8608;}
	.st139{clip-path:url(#SVGID_7_);fill:#FF8708;}
	.st140{clip-path:url(#SVGID_7_);fill:#FF8808;}
	.st141{clip-path:url(#SVGID_7_);fill:#FF8908;}
	.st142{clip-path:url(#SVGID_7_);fill:#FF8A08;}
	.st143{clip-path:url(#SVGID_7_);fill:#FF8B08;}
	.st144{clip-path:url(#SVGID_7_);fill:#FF8C08;}
	.st145{clip-path:url(#SVGID_7_);fill:#FF8D08;}
	.st146{clip-path:url(#SVGID_7_);fill:#FF8E08;}
	.st147{clip-path:url(#SVGID_7_);fill:#FF8F08;}
	.st148{clip-path:url(#SVGID_7_);fill:#FF9008;}
	.st149{clip-path:url(#SVGID_7_);fill:#FF9108;}
	.st150{clip-path:url(#SVGID_7_);fill:#FF9208;}
	.st151{clip-path:url(#SVGID_7_);fill:#FF9308;}
	.st152{clip-path:url(#SVGID_7_);fill:#FF9408;}
	.st153{clip-path:url(#SVGID_7_);fill:#FF9508;}
	.st154{clip-path:url(#SVGID_7_);fill:#FF9608;}
	.st155{clip-path:url(#SVGID_7_);fill:#FF9708;}
	.st156{clip-path:url(#SVGID_7_);fill:#FF9808;}
	.st157{clip-path:url(#SVGID_7_);fill:#FF9908;}
	.st158{clip-path:url(#SVGID_7_);fill:#FF9A08;}
	.st159{clip-path:url(#SVGID_7_);fill:#FF9B08;}
	.st160{clip-path:url(#SVGID_7_);fill:#FF9C08;}
	.st161{clip-path:url(#SVGID_7_);fill:#FF9D08;}
	.st162{clip-path:url(#SVGID_7_);fill:#FF9E08;}
	.st163{clip-path:url(#SVGID_7_);fill:#FF9F08;}
	.st164{clip-path:url(#SVGID_7_);fill:#FFA008;}
	.st165{clip-path:url(#SVGID_9_);}
	.st166{fill:#FFBC2B;}
	.st167{clip-path:url(#SVGID_11_);}
	.st168{clip-path:url(#SVGID_13_);}
	.st169{fill:#FFBD2C;}
	.st170{clip-path:url(#SVGID_15_);}
	.st171{fill:#FFBE2D;}
	.st172{clip-path:url(#SVGID_17_);}
	.st173{fill:#FFBF2E;}
	.st174{clip-path:url(#SVGID_19_);}
	.st175{fill:#FFC02F;}
	.st176{clip-path:url(#SVGID_21_);}
	.st177{fill:#FFC130;}
	.st178{clip-path:url(#SVGID_23_);}
	.st179{fill:#FEC231;}
	.st180{clip-path:url(#SVGID_25_);}
	.st181{fill:#FEC332;}
	.st182{clip-path:url(#SVGID_27_);}
	.st183{fill:#FEC333;}
	.st184{clip-path:url(#SVGID_29_);}
	.st185{fill:#FEC434;}
	.st186{clip-path:url(#SVGID_31_);}
	.st187{fill:#FEC535;}
	.st188{clip-path:url(#SVGID_33_);}
	.st189{fill:#FEC636;}
	.st190{clip-path:url(#SVGID_35_);}
	.st191{fill:#FEC737;}
	.st192{clip-path:url(#SVGID_37_);}
	.st193{fill:#FEC838;}
	.st194{clip-path:url(#SVGID_39_);}
	.st195{fill:#FEC939;}
	.st196{clip-path:url(#SVGID_41_);}
	.st197{fill:#FECA3B;}
	.st198{clip-path:url(#SVGID_43_);}
	.st199{fill:#FDCB3C;}
	.st200{clip-path:url(#SVGID_45_);}
	.st201{fill:#FDCC3D;}
	.st202{clip-path:url(#SVGID_47_);}
	.st203{fill:#FDCD3E;}
	.st204{clip-path:url(#SVGID_49_);}
	.st205{fill:#FDCE3F;}
	.st206{clip-path:url(#SVGID_51_);}
	.st207{fill:#FDCF40;}
	.st208{clip-path:url(#SVGID_53_);}
	.st209{fill:#FDD041;}
	.st210{clip-path:url(#SVGID_55_);}
	.st211{fill:#FDD142;}
	.st212{clip-path:url(#SVGID_57_);}
	.st213{fill:#FDD143;}
	.st214{clip-path:url(#SVGID_59_);}
	.st215{fill:#FDD244;}
	.st216{clip-path:url(#SVGID_61_);}
	.st217{fill:#FDD345;}
	.st218{clip-path:url(#SVGID_63_);}
	.st219{fill:#FCD446;}
	.st220{clip-path:url(#SVGID_65_);}
	.st221{fill:#FCD547;}
	.st222{clip-path:url(#SVGID_67_);}
	.st223{fill:#FCD648;}
	.st224{clip-path:url(#SVGID_69_);}
	.st225{fill:#FCD749;}
	.st226{clip-path:url(#SVGID_71_);}
	.st227{fill:#FCD84A;}
	.st228{opacity:0.23;}
	.st229{fill:#C17200;}
	.st230{clip-path:url(#SVGID_73_);}
	.st231{clip-path:url(#SVGID_75_);}
	.st232{clip-path:url(#SVGID_77_);}
	.st233{clip-path:url(#SVGID_79_);}
	.st234{clip-path:url(#SVGID_81_);}
	.st235{clip-path:url(#SVGID_83_);}
	.st236{clip-path:url(#SVGID_85_);}
	.st237{clip-path:url(#SVGID_87_);}
	.st238{clip-path:url(#SVGID_89_);}
	.st239{clip-path:url(#SVGID_91_);}
	.st240{clip-path:url(#SVGID_93_);}
	.st241{clip-path:url(#SVGID_95_);}
	.st242{clip-path:url(#SVGID_97_);}
	.st243{clip-path:url(#SVGID_99_);}
	.st244{clip-path:url(#SVGID_101_);}
	.st245{clip-path:url(#SVGID_103_);}
	.st246{clip-path:url(#SVGID_105_);}
	.st247{clip-path:url(#SVGID_107_);}
	.st248{clip-path:url(#SVGID_109_);}
	.st249{clip-path:url(#SVGID_111_);}
	.st250{clip-path:url(#SVGID_113_);}
	.st251{clip-path:url(#SVGID_115_);}
	.st252{clip-path:url(#SVGID_117_);}
	.st253{clip-path:url(#SVGID_119_);}
	.st254{clip-path:url(#SVGID_121_);}
	.st255{clip-path:url(#SVGID_123_);}
	.st256{clip-path:url(#SVGID_125_);}
	.st257{clip-path:url(#SVGID_127_);}
	.st258{clip-path:url(#SVGID_129_);}
	.st259{clip-path:url(#SVGID_131_);}
	.st260{clip-path:url(#SVGID_133_);}
	.st261{clip-path:url(#SVGID_135_);}
</style>
<g>
	<g>
		<g>
			<defs>
				<path id="SVGID_1_" d="M1184.7,229c0,44.4-30.9,80.7-68.7,80.7H68.7C30.9,309.7,0,273.4,0,229V91.5c0-44.4,30.9-80.7,68.7-80.7
					H1116c37.8,0,68.7,36.3,68.7,80.7V229z"/>
			</defs>
			<clipPath id="SVGID_2_">
				<use xlink:href="#SVGID_1_"  style="overflow:visible;"/>
			</clipPath>
			<rect y="10.8" class="st0" width="1184.7" height="298.9"/>
			<path class="st0" d="M968.6,160.3c0-52-10.5-101.5-29.6-146.5c-1.2-2.8-2.4-5.6-3.7-8.4v4.4H249.3V5.4c-1.3,2.8-2.5,5.6-3.7,8.4
				c-19,45-29.6,94.5-29.6,146.5s10.5,101.5,29.6,146.5c1.2,2.8,2.4,5.6,3.7,8.4v-4.4h686.1v4.4c1.3-2.8,2.5-5.6,3.7-8.4
				C958.1,261.7,968.6,212.2,968.6,160.3z"/>
			<path class="st1" d="M962.9,160.3c0-51.2-10.4-99.9-29.1-144.3c-1.2-2.8-2.4-5.5-3.6-8.3v2.1H254.5V7.7c-1.2,2.7-2.4,5.5-3.6,8.3
				c-18.8,44.3-29.1,93.1-29.1,144.3s10.4,99.9,29.1,144.3c1.2,2.8,2.4,5.5,3.6,8.3v-2.1h675.7v2.1c1.2-2.7,2.4-5.5,3.6-8.3
				C952.6,260.2,962.9,211.4,962.9,160.3z"/>
			<path class="st2" d="M957.2,160.3c0-50.4-10.2-98.4-28.7-142c-1.2-2.7-2.3-5.4-3.6-8.1c-0.6-1.3-1.2-2.7-1.9-4v3.7H261.5V6.1
				c-0.6,1.3-1.2,2.7-1.9,4c-1.2,2.7-2.4,5.4-3.6,8.1c-18.5,43.7-28.7,91.7-28.7,142s10.2,98.4,28.7,142c1.2,2.7,2.3,5.4,3.6,8.1
				c0.6,1.3,1.2,2.7,1.9,4v-3.7h661.6v3.7c0.6-1.3,1.2-2.7,1.9-4c1.2-2.7,2.4-5.4,3.6-8.1C947,258.6,957.2,210.6,957.2,160.3z"/>
			<path class="st3" d="M951.5,160.3c0-49.6-10.1-96.8-28.2-139.8c-2.3-5.4-4.7-10.7-7.2-15.9v5.3H268.6V4.5
				c-2.5,5.2-4.9,10.5-7.2,15.9c-18.2,43-28.2,90.2-28.2,139.8s10.1,96.8,28.2,139.8c2.3,5.4,4.7,10.7,7.2,15.9v-5.3h647.5v5.3
				c2.5-5.2,4.9-10.5,7.2-15.9C941.5,257.1,951.5,209.8,951.5,160.3z"/>
			<path class="st4" d="M945.8,160.3c0-48.8-9.9-95.3-27.8-137.6c-2.2-5.3-4.6-10.5-7.1-15.7v2.8H273.7V7
				c-2.5,5.2-4.8,10.4-7.1,15.7c-17.9,42.3-27.8,88.8-27.8,137.6s9.9,95.3,27.8,137.6c2.2,5.3,4.6,10.5,7.1,15.7v-2.8H911v2.8
				c2.5-5.2,4.8-10.4,7.1-15.7C936,255.6,945.8,209.1,945.8,160.3z"/>
			<path class="st5" d="M940.1,160.3c0-48-9.7-93.8-27.3-135.4c-2.2-5.2-4.5-10.3-7-15.4v0.3h-627V9.5c-2.4,5.1-4.8,10.2-7,15.4
				c-17.6,41.6-27.3,87.4-27.3,135.4s9.7,93.8,27.3,135.4c2.2,5.2,4.5,10.3,7,15.4v-0.3h627v0.3c2.4-5.1,4.8-10.2,7-15.4
				C930.4,254,940.1,208.3,940.1,160.3z"/>
			<path class="st6" d="M934.4,160.3c0-47.2-9.6-92.2-26.9-133.2c-2.2-5.1-4.4-10.2-6.9-15.2c-1.2-2.5-2.4-5-3.7-7.4v5.3H287.7V4.5
				c-1.3,2.5-2.5,4.9-3.7,7.4c-2.4,5-4.7,10-6.9,15.2C259.8,68,250.3,113,250.3,160.3s9.6,92.2,26.9,133.2
				c2.2,5.1,4.4,10.2,6.9,15.2c1.2,2.5,2.4,5,3.7,7.4v-5.3H897v5.3c1.3-2.5,2.5-4.9,3.7-7.4c2.4-5,4.7-10,6.9-15.2
				C924.9,252.5,934.4,207.5,934.4,160.3z"/>
			<path class="st7" d="M928.7,160.3c0-46.4-9.4-90.7-26.4-130.9c-2.1-5-4.4-10-6.7-14.9c-1.2-2.5-2.4-4.9-3.6-7.3v2.7H292.8V7.1
				c-1.2,2.4-2.4,4.9-3.6,7.3c-2.4,4.9-4.6,9.9-6.7,14.9c-17,40.2-26.4,84.5-26.4,130.9s9.4,90.7,26.4,130.9c2.1,5,4.4,10,6.7,14.9
				c1.2,2.5,2.4,4.9,3.6,7.3v-2.7h599.2v2.7c1.2-2.4,2.4-4.9,3.6-7.3c2.4-4.9,4.6-9.9,6.7-14.9C919.3,250.9,928.7,206.7,928.7,160.3
				z"/>
			<path class="st8" d="M923,160.3c0-45.7-9.3-89.2-26-128.7c-2.1-4.9-4.3-9.8-6.6-14.6c-1.2-2.4-2.4-4.8-3.6-7.2v0.1h-589V9.7
				c-1.2,2.4-2.4,4.8-3.6,7.2c-2.3,4.8-4.5,9.7-6.6,14.6c-16.7,39.6-26,83.1-26,128.7s9.3,89.2,26,128.7c2.1,4.9,4.3,9.8,6.6,14.6
				c1.2,2.4,2.4,4.8,3.6,7.2v-0.1h589v0.1c1.2-2.4,2.4-4.8,3.6-7.2c2.3-4.8,4.5-9.7,6.6-14.6C913.8,249.4,923,205.9,923,160.3z"/>
			<path class="st9" d="M917.3,160.3c0-44.9-9.1-87.6-25.5-126.5c-4.1-9.7-8.7-19.2-13.7-28.4v4.5H306.6V5.3
				c-5,9.2-9.6,18.7-13.7,28.4c-16.4,38.9-25.5,81.6-25.5,126.5s9.1,87.6,25.5,126.5c4.1,9.7,8.7,19.2,13.7,28.4v-4.5h571.5v4.5
				c5-9.2,9.6-18.7,13.7-28.4C908.2,247.9,917.3,205.1,917.3,160.3z"/>
			<path class="st10" d="M911.6,160.3c0-44.1-8.9-86.1-25.1-124.3c-4-9.5-8.5-18.9-13.4-27.9v1.7H311.6V8.1
				c-4.9,9-9.4,18.4-13.4,27.9c-16.2,38.2-25.1,80.2-25.1,124.3s8.9,86.1,25.1,124.3c4,9.5,8.5,18.9,13.4,27.9v-1.7h561.5v1.7
				c4.9-9,9.4-18.4,13.4-27.9C902.7,246.3,911.6,204.3,911.6,160.3z"/>
			<path class="st11" d="M905.9,160.3c0-43.3-8.8-84.5-24.6-122.1c-4-9.4-8.4-18.5-13.2-27.4c-1.2-2.2-2.4-4.4-3.7-6.6v5.6H320.3
				V4.2c-1.3,2.2-2.5,4.4-3.7,6.6c-4.8,8.9-9.2,18-13.2,27.4c-15.9,37.5-24.6,78.8-24.6,122.1s8.8,84.5,24.6,122.1
				c4,9.4,8.4,18.5,13.2,27.4c1.2,2.2,2.4,4.4,3.7,6.6v-5.6h544.1v5.6c1.3-2.2,2.5-4.4,3.7-6.6c4.8-8.9,9.2-18,13.2-27.4
				C897.2,244.8,905.9,203.5,905.9,160.3z"/>
			<path class="st12" d="M900.2,160.3c0-42.5-8.6-83-24.2-119.8c-3.9-9.2-8.2-18.2-13-26.9c-1.2-2.2-2.4-4.3-3.6-6.5v2.8H325.3V7
				c-1.2,2.1-2.4,4.3-3.6,6.5c-4.7,8.7-9.1,17.7-13,26.9c-15.6,36.8-24.2,77.3-24.2,119.8s8.6,83,24.2,119.8
				c3.9,9.2,8.2,18.2,13,26.9c1.2,2.2,2.4,4.3,3.6,6.5v-2.8h534.2v2.8c1.2-2.1,2.4-4.3,3.6-6.5c4.7-8.7,9.1-17.7,13-26.9
				C891.6,243.3,900.2,202.8,900.2,160.3z"/>
			<path class="st13" d="M894.5,160.3c0-41.7-8.5-81.5-23.7-117.6c-3.8-9-8.1-17.9-12.7-26.4c-2.3-4.3-4.8-8.5-7.3-12.7v6.2H333.9
				V3.6c-2.5,4.2-5,8.4-7.3,12.7c-4.7,8.6-8.9,17.4-12.7,26.4c-15.3,36.2-23.7,75.9-23.7,117.6s8.5,81.5,23.7,117.6
				c3.8,9,8.1,17.9,12.7,26.4c2.3,4.3,4.8,8.5,7.3,12.7v-6.2h516.9v6.2c2.5-4.2,5-8.4,7.3-12.7c4.7-8.6,8.9-17.4,12.7-26.4
				C886.1,241.7,894.5,202,894.5,160.3z"/>
			<path class="st14" d="M888.8,160.3c0-40.9-8.3-79.9-23.3-115.4c-3.8-8.9-7.9-17.5-12.5-25.9c-2.3-4.2-4.7-8.3-7.1-12.4v3.3H338.8
				V6.5c-2.5,4.1-4.9,8.2-7.1,12.4c-4.6,8.4-8.7,17-12.5,25.9c-15,35.5-23.3,74.5-23.3,115.4s8.3,79.9,23.3,115.4
				c3.8,8.9,7.9,17.5,12.5,25.9c2.3,4.2,4.7,8.3,7.1,12.4v-3.3h507.1v3.3c2.5-4.1,4.9-8.2,7.1-12.4c4.6-8.4,8.7-17,12.5-25.9
				C880.5,240.2,888.8,201.2,888.8,160.3z"/>
			<path class="st15" d="M883.1,160.3c0-40.1-8.1-78.4-22.9-113.2c-3.7-8.7-7.8-17.2-12.2-25.4c-2.2-4.1-4.6-8.2-7-12.2v0.3H343.7
				V9.5c-2.4,4-4.8,8.1-7,12.2c-4.5,8.2-8.6,16.7-12.2,25.4c-14.7,34.8-22.9,73-22.9,113.2s8.1,78.4,22.9,113.2
				c3.7,8.7,7.8,17.2,12.2,25.4c2.2,4.1,4.6,8.2,7,12.2v-0.3H841v0.3c2.4-4,4.8-8.1,7-12.2c4.5-8.2,8.6-16.7,12.2-25.4
				C875,238.6,883.1,200.4,883.1,160.3z"/>
			<path class="st16" d="M877.4,160.3c0-39.4-8-76.9-22.4-111c-3.6-8.5-7.6-16.8-12-24.9c-2.2-4-4.5-8-6.9-11.9
				c-1.2-2-2.4-3.9-3.6-5.8v3.2H352.2V6.6c-1.2,1.9-2.4,3.9-3.6,5.8c-2.4,3.9-4.7,7.9-6.9,11.9c-4.4,8.1-8.4,16.4-12,24.9
				c-14.4,34.1-22.4,71.6-22.4,111s8,76.9,22.4,111c3.6,8.5,7.6,16.8,12,24.9c2.2,4,4.5,8,6.9,11.9c1.2,2,2.4,3.9,3.6,5.8v-3.2
				h480.3v3.2c1.2-1.9,2.4-3.9,3.6-5.8c2.4-3.9,4.7-7.9,6.9-11.9c4.4-8.1,8.4-16.4,12-24.9C869.4,237.1,877.4,199.6,877.4,160.3z"/>
			<path class="st17" d="M871.7,160.3c0-38.6-7.8-75.3-22-108.7c-7.1-16.7-15.7-32.6-25.8-47.5v5.7H360.7V4.1
				c-10,14.9-18.7,30.7-25.8,47.5c-14.1,33.4-22,70.2-22,108.7s7.8,75.3,22,108.7c7.1,16.7,15.7,32.6,25.8,47.5v-5.8H824v5.8
				c10-14.9,18.7-30.7,25.8-47.5C863.9,235.6,871.7,198.8,871.7,160.3z"/>
			<path class="st18" d="M866,160.3c0-37.8-7.7-73.8-21.5-106.5c-6.9-16.4-15.4-31.9-25.2-46.5v2.6H365.4V7.2
				c-9.8,14.6-18.3,30.1-25.2,46.5c-13.8,32.7-21.5,68.7-21.5,106.5s7.7,73.8,21.5,106.5c6.9,16.4,15.4,31.9,25.2,46.5v-2.6h453.9
				v2.6c9.8-14.6,18.3-30.1,25.2-46.5C858.4,234,866,198,866,160.3z"/>
			<path class="st19" d="M860.3,160.3c0-37-7.5-72.2-21.1-104.3c-6.8-16-15.1-31.3-24.7-45.5c-1.2-1.8-2.4-3.5-3.7-5.3v4.7H373.8
				V5.1c-1.2,1.8-2.5,3.5-3.7,5.3c-9.6,14.3-17.9,29.5-24.7,45.5c-13.6,32.1-21.1,67.3-21.1,104.3s7.5,72.2,21.1,104.3
				c6.8,16,15.1,31.3,24.7,45.5c1.2,1.8,2.4,3.5,3.7,5.3v-4.7h437.1v4.7c1.2-1.8,2.5-3.5,3.7-5.3c9.6-14.3,17.9-29.5,24.7-45.5
				C852.8,232.5,860.3,197.2,860.3,160.3z"/>
			<path class="st20" d="M854.6,160.3c0-36.2-7.3-70.7-20.6-102.1c-6.6-15.7-14.8-30.6-24.2-44.6c-2.4-3.5-4.8-6.9-7.3-10.3v6.5
				H382.2V3.3c-2.5,3.4-5,6.8-7.3,10.3c-9.4,14-17.5,28.9-24.2,44.6c-13.3,31.4-20.6,65.9-20.6,102.1s7.3,70.7,20.6,102.1
				c6.6,15.7,14.8,30.6,24.2,44.6c2.4,3.5,4.8,6.9,7.3,10.3v-6.5h420.3v6.5c2.5-3.4,5-6.8,7.3-10.3c9.4-14,17.5-28.9,24.2-44.6
				C847.3,231,854.6,196.5,854.6,160.3z"/>
			<path class="st21" d="M848.9,160.3c0-35.4-7.2-69.2-20.2-99.9c-6.5-15.3-14.4-29.9-23.7-43.6c-2.3-3.4-4.7-6.8-7.2-10.1v3.1
				H386.8V6.7c-2.5,3.3-4.8,6.6-7.2,10.1c-9.2,13.6-17.2,28.2-23.7,43.6c-13,30.7-20.2,64.4-20.2,99.9s7.2,69.2,20.2,99.9
				c6.5,15.3,14.4,29.9,23.7,43.6c2.3,3.4,4.7,6.8,7.2,10.1v-3.1h411.2v3.1c2.5-3.3,4.8-6.6,7.2-10.1c9.2-13.6,17.2-28.2,23.7-43.6
				C841.7,229.4,848.9,195.7,848.9,160.3z"/>
			<path class="st22" d="M843.2,160.3c0-34.6-7-67.6-19.7-97.6c-6.3-15-14.1-29.3-23.1-42.6c-2.3-3.3-4.6-6.6-7-9.8
				c-1.2-1.6-2.4-3.2-3.7-4.8v4.4H395V5.4c-1.2,1.6-2.5,3.2-3.7,4.8c-2.4,3.2-4.7,6.5-7,9.8c-9,13.3-16.8,27.6-23.1,42.6
				c-12.7,30-19.7,63-19.7,97.6s7,67.6,19.7,97.6c6.3,15,14.1,29.3,23.1,42.6c2.3,3.3,4.6,6.6,7,9.8c1.2,1.6,2.4,3.2,3.7,4.8v-4.4
				h394.7v4.4c1.2-1.6,2.5-3.2,3.7-4.8c2.4-3.2,4.7-6.5,7-9.8c9-13.3,16.8-27.6,23.1-42.6C836.2,227.9,843.2,194.9,843.2,160.3z"/>
			<path class="st23" d="M837.5,160.3c0-33.9-6.9-66.1-19.3-95.4c-6.2-14.7-13.8-28.6-22.6-41.6c-4.4-6.5-9.1-12.8-14.1-18.9v5.5
				H403.2V4.3c-5,6.1-9.7,12.4-14.1,18.9c-8.8,13-16.4,27-22.6,41.6c-12.4,29.3-19.3,61.6-19.3,95.4s6.9,66.1,19.3,95.4
				c6.2,14.7,13.8,28.6,22.6,41.6c4.4,6.5,9.1,12.8,14.1,18.9v-5.5h378.4v5.5c5-6.1,9.7-12.4,14.1-18.9c8.8-13,16.4-27,22.6-41.6
				C830.7,226.3,837.5,194.1,837.5,160.3z"/>
			<path class="st24" d="M831.8,160.3c0-33.1-6.7-64.6-18.8-93.2c-6.1-14.3-13.5-27.9-22.1-40.7c-4.3-6.4-8.9-12.5-13.8-18.4v1.9
				H407.6V7.9c-4.9,5.9-9.5,12.1-13.8,18.4c-8.6,12.7-16,26.4-22.1,40.7c-12.1,28.6-18.8,60.1-18.8,93.2s6.7,64.6,18.8,93.2
				c6.1,14.3,13.5,27.9,22.1,40.7c4.3,6.4,8.9,12.5,13.8,18.4v-1.9h369.6v1.9c4.9-5.9,9.5-12.1,13.8-18.4
				c8.6-12.7,16-26.4,22.1-40.7C825.1,224.8,831.8,193.3,831.8,160.3z"/>
			<path class="st25" d="M826.1,160.3c0-32.3-6.5-63-18.4-91c-5.9-14-13.2-27.3-21.6-39.7c-4.2-6.2-8.7-12.2-13.5-18
				c-2.4-2.9-4.8-5.7-7.3-8.5v6.7H419.3V3.1c-2.5,2.8-5,5.6-7.3,8.5c-4.8,5.8-9.3,11.8-13.5,18C390.1,42,382.9,55.3,377,69.3
				c-11.8,28-18.4,58.7-18.4,91s6.5,63,18.4,91c5.9,14,13.2,27.3,21.6,39.7c4.2,6.2,8.7,12.2,13.5,18c2.4,2.9,4.8,5.7,7.3,8.5v-6.7
				h346.1v6.7c2.5-2.8,5-5.6,7.3-8.5c4.8-5.8,9.3-11.8,13.5-18c8.4-12.4,15.6-25.7,21.6-39.7C819.6,223.3,826.1,192.5,826.1,160.3z"
				/>
			<path class="st26" d="M820.4,160.3c0-31.5-6.4-61.5-17.9-88.8c-5.8-13.6-12.8-26.6-21-38.7c-4.1-6.1-8.5-11.9-13.1-17.6
				c-2.3-2.8-4.7-5.6-7.2-8.3v2.9H423.5V6.9c-2.5,2.7-4.8,5.5-7.2,8.3c-4.6,5.6-9,11.5-13.1,17.6c-8.2,12.1-15.3,25.1-21,38.7
				c-11.5,27.3-17.9,57.3-17.9,88.8s6.4,61.5,17.9,88.8c5.8,13.6,12.8,26.6,21,38.7c4.1,6.1,8.5,11.9,13.1,17.6
				c2.3,2.8,4.7,5.6,7.2,8.3v-2.9h337.6v2.9c2.5-2.7,4.8-5.5,7.2-8.3c4.6-5.6,9-11.5,13.1-17.6c8.2-12.1,15.3-25.1,21-38.7
				C814,221.7,820.4,191.7,820.4,160.3z"/>
			<path class="st27" d="M814.7,160.3c0-61.4-24.9-117-65.1-157.2v6.8H435.1V3C394.9,43.3,370,98.8,370,160.3s24.9,117,65.1,157.2
				v-6.8h314.5v6.8C789.8,277.2,814.7,221.7,814.7,160.3z"/>
			<path class="st28" d="M809,160.3c0-59.8-24.3-114-63.5-153.2v2.7H439.2V7.1c-39.2,39.2-63.5,93.4-63.5,153.2s24.3,114,63.5,153.2
				v-2.7h306.4v2.7C784.8,274.2,809,220.1,809,160.3z"/>
			<path class="st29" d="M803.3,160.3c0-58.3-23.6-111-61.8-149.2c-2.4-2.4-4.8-4.7-7.3-7v5.7H450.5V4.1c-2.5,2.3-4.9,4.6-7.3,7
				C405,49.3,381.4,102,381.4,160.3s23.6,111,61.8,149.2c2.4,2.4,4.8,4.7,7.3,7v-5.7h283.7v5.7c2.5-2.3,4.9-4.6,7.3-7
				C779.7,271.2,803.3,218.5,803.3,160.3z"/>
			<path class="st30" d="M797.6,160.3c0-56.7-23-108-60.1-145.1c-2.3-2.3-4.7-4.6-7.1-6.8v1.5h-276V8.3c-2.4,2.2-4.8,4.5-7.1,6.8
				c-37.1,37.1-60.1,88.5-60.1,145.1s23,108,60.1,145.1c2.3,2.3,4.7,4.6,7.1,6.8v-1.5h276v1.5c2.4-2.2,4.8-4.5,7.1-6.8
				C774.6,268.2,797.6,216.9,797.6,160.3z"/>
			<path class="st31" d="M791.9,160.3c0-55.1-22.3-105-58.4-141.1c-4.5-4.5-9.2-8.8-14.2-12.9v3.5H465.4V6.3
				c-4.9,4.1-9.7,8.4-14.2,12.9c-36.1,36.1-58.4,86-58.4,141.1s22.3,105,58.4,141.1c4.5,4.5,9.2,8.8,14.2,12.9v-3.5h253.9v3.5
				c4.9-4.1,9.7-8.4,14.2-12.9C769.6,265.2,791.9,215.4,791.9,160.3z"/>
			<path class="st32" d="M786.2,160.3c0-53.5-21.7-102-56.8-137.1c-4.4-4.4-9-8.6-13.8-12.5c-2.4-2-4.8-3.9-7.3-5.8v4.9h-232V4.9
				c-2.5,1.9-4.9,3.8-7.3,5.8c-4.8,4-9.4,8.1-13.8,12.5c-35.1,35.1-56.8,83.5-56.8,137.1s21.7,102,56.8,137.1
				c4.4,4.4,9,8.6,13.8,12.5c2.4,2,4.8,3.9,7.3,5.8v-4.9h232v4.9c2.5-1.9,4.9-3.8,7.3-5.8c4.8-4,9.4-8.1,13.8-12.5
				C764.5,262.2,786.2,213.8,786.2,160.3z"/>
			<path class="st33" d="M780.5,160.3c0-52-21.1-99-55.1-133c-8.5-8.5-17.8-16.2-27.8-23v5.6H487.2V4.2c-10,6.8-19.3,14.5-27.8,23
				c-34,34-55.1,81.1-55.1,133s21.1,99,55.1,133c8.5,8.5,17.8,16.2,27.8,23v-5.6h210.4v5.6c10-6.8,19.3-14.5,27.8-23
				C759.4,259.2,780.5,212.2,780.5,160.3z"/>
			<path class="st34" d="M774.8,160.3c0-50.4-20.4-96-53.4-129c-8.3-8.3-17.3-15.7-27-22.3v0.8h-204V9c-9.7,6.6-18.7,14-27,22.3
				c-33,33-53.4,78.6-53.4,129s20.4,96,53.4,129c8.3,8.3,17.3,15.7,27,22.3v-0.8h204v0.8c9.7-6.6,18.7-14,27-22.3
				C754.4,256.2,774.8,210.6,774.8,160.3z"/>
			<path class="st35" d="M769.1,160.3c0-48.8-19.8-93-51.8-125c-8-8-16.8-15.2-26.2-21.6c-4.7-3.2-9.6-6.1-14.6-8.9v5H508.1v-5
				c-5,2.7-9.9,5.7-14.6,8.9c-9.4,6.4-18.2,13.6-26.2,21.6c-32,32-51.8,76.2-51.8,125s19.8,93,51.8,125c8,8,16.8,15.2,26.2,21.6
				c4.7,3.2,9.6,6.1,14.6,8.9v-5h168.5v5c5-2.7,9.9-5.7,14.6-8.9c9.4-6.4,18.2-13.6,26.2-21.6C749.3,253.2,769.1,209.1,769.1,160.3z
				"/>
			<path class="st36" d="M763.4,160.3c0-47.2-19.1-90-50.1-120.9c-7.7-7.7-16.2-14.7-25.3-20.9c-4.5-3.1-9.3-5.9-14.1-8.6
				c-2.4-1.3-4.9-2.6-7.4-3.8v3.7H518.2V6.1c-2.5,1.2-5,2.5-7.4,3.8c-4.8,2.6-9.6,5.5-14.1,8.6c-9.1,6.1-17.6,13.1-25.3,20.9
				c-31,31-50.1,73.7-50.1,120.9s19.1,90,50.1,120.9c7.7,7.7,16.2,14.7,25.3,20.9c4.5,3.1,9.3,5.9,14.1,8.6c2.4,1.3,4.9,2.6,7.4,3.8
				v-3.7h148.3v3.7c2.5-1.2,5-2.5,7.4-3.8c4.8-2.6,9.6-5.5,14.1-8.6c9.1-6.1,17.6-13.1,25.3-20.9
				C744.2,250.2,763.4,207.5,763.4,160.3z"/>
			<path class="st37" d="M757.7,160.3c0-45.7-18.5-87-48.4-116.9c-15-15-32.8-27.1-52.6-35.4v1.9H528V7.9
				c-19.8,8.4-37.6,20.5-52.6,35.4C445.5,73.3,427,114.6,427,160.3s18.5,87,48.4,116.9c15,15,32.8,27.1,52.6,35.4v-1.9h128.7v1.9
				c19.8-8.4,37.6-20.5,52.6-35.4C739.2,247.2,757.7,205.9,757.7,160.3z"/>
			<path class="st38" d="M752,160.3c0-44.1-17.9-84-46.8-112.9c-14.4-14.4-31.6-26.1-50.7-34.2c-9.5-4-19.6-7.2-30-9.3v5.9h-64.3
				V3.9c-10.4,2.1-20.4,5.3-30,9.3c-19.1,8.1-36.3,19.8-50.7,34.2c-28.9,28.9-46.8,68.8-46.8,112.9s17.9,84,46.8,112.9
				c14.4,14.4,31.6,26.1,50.7,34.2c9.5,4,19.6,7.2,30,9.3v-5.9h64.3v5.9c10.4-2.1,20.4-5.3,30-9.3c19.1-8.1,36.3-19.8,50.7-34.2
				C734.1,244.2,752,204.3,752,160.3z"/>
			<circle class="st39" cx="592.3" cy="160.3" r="153.9"/>
			<circle class="st40" cx="592.3" cy="160.3" r="148.2"/>
			<circle class="st41" cx="592.3" cy="160.3" r="142.5"/>
			<circle class="st42" cx="592.3" cy="160.3" r="136.8"/>
			<circle class="st43" cx="592.3" cy="160.3" r="131.1"/>
			<circle class="st44" cx="592.3" cy="160.3" r="125.4"/>
			<circle class="st45" cx="592.3" cy="160.3" r="119.7"/>
			<circle class="st46" cx="592.3" cy="160.3" r="114"/>
			<circle class="st47" cx="592.3" cy="160.3" r="108.3"/>
			<circle class="st48" cx="592.3" cy="160.3" r="102.6"/>
			<circle class="st49" cx="592.3" cy="160.3" r="96.9"/>
			<circle class="st50" cx="592.3" cy="160.3" r="91.2"/>
			<circle class="st51" cx="592.3" cy="160.3" r="85.5"/>
			<circle class="st52" cx="592.3" cy="160.3" r="79.8"/>
			<circle class="st53" cx="592.3" cy="160.3" r="74.1"/>
			<circle class="st54" cx="592.3" cy="160.3" r="68.4"/>
			<circle class="st55" cx="592.3" cy="160.3" r="62.7"/>
			<circle class="st56" cx="592.3" cy="160.3" r="57"/>
			<circle class="st57" cx="592.3" cy="160.3" r="51.3"/>
			<circle class="st58" cx="592.3" cy="160.3" r="45.6"/>
			<circle class="st59" cx="592.3" cy="160.3" r="39.9"/>
			<circle class="st60" cx="592.3" cy="160.3" r="34.2"/>
			<circle class="st61" cx="592.3" cy="160.3" r="28.5"/>
			<circle class="st62" cx="592.3" cy="160.3" r="22.8"/>
			<circle class="st63" cx="592.3" cy="160.3" r="17.1"/>
			<circle class="st64" cx="592.3" cy="160.3" r="11.4"/>
			<circle class="st65" cx="592.3" cy="160.3" r="5.7"/>
		</g>
	</g>
	<g>
		<path class="st66" d="M1180.5,221.8c0,42.9-30.6,78-68,78H72.2c-37.4,0-68-35.1-68-78v-133c0-42.9,30.6-78,68-78h1040.3
			c37.4,0,68,35.1,68,78V221.8z"/>
	</g>
	<g>
		<path class="st67" d="M1180.5,211.7c0,43-30.6,78.3-68,78.3H72.2c-37.4,0-68-35.2-68-78.3V78.3c0-43,30.6-78.3,68-78.3h1040.3
			c37.4,0,68,35.2,68,78.3V211.7z"/>
	</g>
	<g>
		<g>
			<defs>
				<path id="SVGID_3_" d="M1180.5,214.6c0,41.5-30.6,75.4-68,75.4H72.2c-37.4,0-68-33.9-68-75.4V86.2c0-41.5,30.6-75.4,68-75.4
					h1040.3c37.4,0,68,33.9,68,75.4V214.6z"/>
			</defs>
			<clipPath id="SVGID_4_">
				<use xlink:href="#SVGID_3_"  style="overflow:visible;"/>
			</clipPath>
			<rect x="4.2" y="10.8" class="st68" width="1176.3" height="279.2"/>
			<path class="st68" d="M1017.6,150.4c0-29.4-3-58-8.6-85.7c-2.8-13.8-6.3-27.4-10.5-40.8c-2.1-6.7-4.3-13.2-6.7-19.8v5.6H192.9
				V4.2c-2.4,6.5-4.6,13.1-6.7,19.8c-4.1,13.3-7.6,26.9-10.5,40.8c-5.7,27.7-8.6,56.3-8.6,85.7s3,58,8.6,85.7
				c2.8,13.8,6.3,27.4,10.5,40.8c2.1,6.7,4.3,13.2,6.7,19.8V291h798.8v5.6c2.4-6.5,4.6-13.1,6.7-19.8c4.1-13.3,7.6-26.9,10.5-40.8
				C1014.6,208.4,1017.6,179.8,1017.6,150.4z"/>
			<path class="st69" d="M1003.8,150.4c0-28.4-2.9-56.1-8.4-82.9c-2.7-13.4-6.1-26.6-10.1-39.4c-2-6.4-4.2-12.8-6.5-19.1v0.9H205.8
				V8.9c-2.3,6.3-4.5,12.7-6.5,19.1c-4,12.9-7.4,26-10.1,39.4c-5.5,26.8-8.4,54.5-8.4,82.9s2.9,56.1,8.4,82.9
				c2.7,13.4,6.1,26.6,10.1,39.4c2,6.4,4.2,12.8,6.5,19.1V291h773.1v0.9c2.3-6.3,4.5-12.7,6.5-19.1c4-12.9,7.4-26,10.1-39.4
				C1001,206.5,1003.8,178.8,1003.8,150.4z"/>
			<path class="st70" d="M990.1,150.4c0-27.5-2.8-54.3-8.1-80.2c-2.6-12.9-5.9-25.7-9.8-38.1c-1.9-6.2-4-12.4-6.3-18.5
				c-1.1-3-2.3-6.1-3.5-9.1v5.3H222.2V4.5c-1.2,3-2.3,6-3.5,9.1c-2.2,6.1-4.3,12.3-6.3,18.5c-3.9,12.5-7.2,25.2-9.8,38.1
				c-5.3,25.9-8.1,52.7-8.1,80.2s2.8,54.3,8.1,80.2c2.6,12.9,5.9,25.7,9.8,38.1c1.9,6.2,4,12.4,6.3,18.5c1.1,3,2.3,6.1,3.5,9.1V291
				h740.4v5.3c1.2-3,2.3-6,3.5-9.1c2.2-6.1,4.3-12.3,6.3-18.5c3.9-12.5,7.2-25.2,9.8-38.1C987.4,204.7,990.1,177.9,990.1,150.4z"/>
			<path class="st71" d="M976.4,150.4c0-26.5-2.7-52.4-7.8-77.4c-2.6-12.5-5.7-24.8-9.5-36.8c-1.9-6-3.9-12-6-17.8
				c-1.1-2.9-2.2-5.9-3.3-8.8v0.2H234.9V9.6c-1.1,2.9-2.3,5.8-3.3,8.8c-2.2,5.9-4.2,11.8-6,17.8c-3.7,12-6.9,24.3-9.5,36.8
				c-5.1,25-7.8,50.9-7.8,77.4s2.7,52.4,7.8,77.4c2.6,12.5,5.7,24.8,9.5,36.8c1.9,6,3.9,12,6,17.8c1.1,2.9,2.2,5.9,3.3,8.8V291
				h714.9v0.2c1.1-2.9,2.3-5.8,3.3-8.8c2.2-5.9,4.2-11.8,6-17.8c3.7-12,6.9-24.3,9.5-36.8C973.7,202.8,976.4,176.9,976.4,150.4z"/>
			<path class="st72" d="M962.7,150.4c0-51.1-10.4-99.8-29.1-144.2v3.6H251.1V6.2c-18.7,44.3-29.1,93-29.1,144.2
				s10.4,99.8,29.1,144.2V291h682.5v3.6C952.3,250.2,962.7,201.5,962.7,150.4z"/>
			<path class="st73" d="M949,150.4c0-49.2-10-96.2-28-138.8c-1.1-2.7-2.3-5.3-3.5-7.9v6.2H267.2V3.6c-1.2,2.6-2.3,5.3-3.5,7.9
				c-18,42.7-28,89.6-28,138.8s10,96.2,28,138.8c1.1,2.7,2.3,5.3,3.5,7.9V291h650.3v6.2c1.2-2.6,2.3-5.3,3.5-7.9
				C939,246.6,949,199.6,949,150.4z"/>
			<path class="st74" d="M935.3,150.4c0-47.3-9.6-92.5-26.9-133.5c-1.1-2.6-2.2-5.1-3.3-7.6v0.5H279.7V9.3c-1.1,2.5-2.3,5.1-3.3,7.6
				c-17.4,41-26.9,86.1-26.9,133.5s9.6,92.5,26.9,133.5c1.1,2.6,2.2,5.1,3.3,7.6V291H905v0.5c1.1-2.5,2.3-5.1,3.3-7.6
				C925.7,242.9,935.3,197.7,935.3,150.4z"/>
			<path class="st75" d="M921.5,150.4c0-45.5-9.2-88.8-25.9-128.1c-2.1-4.9-4.3-9.8-6.6-14.6v2.1H295.6V7.7
				c-2.3,4.8-4.5,9.7-6.6,14.6c-16.7,39.4-25.9,82.7-25.9,128.1s9.2,88.8,25.9,128.1c2.1,4.9,4.3,9.8,6.6,14.6V291h593.5v2.1
				c2.3-4.8,4.5-9.7,6.6-14.6C912.3,239.2,921.5,195.9,921.5,150.4z"/>
			<path class="st76" d="M907.8,150.4c0-43.6-8.8-85.1-24.8-122.8c-2-4.7-4.1-9.4-6.3-14c-1.1-2.3-2.2-4.6-3.4-6.8v3H311.4v-3
				c-1.2,2.3-2.3,4.6-3.4,6.8c-2.2,4.6-4.3,9.3-6.3,14c-16,37.7-24.8,79.2-24.8,122.8s8.8,85.1,24.8,122.8c2,4.7,4.1,9.4,6.3,14
				c1.1,2.3,2.2,4.6,3.4,6.8v-3h561.9v3c1.2-2.3,2.3-4.6,3.4-6.8c2.2-4.6,4.3-9.3,6.3-14C899,235.5,907.8,194,907.8,150.4z"/>
			<path class="st77" d="M894.1,150.4c0-41.7-8.4-81.4-23.7-117.5c-3.8-9-8.1-17.8-12.7-26.4v3.2H327V6.6
				c-4.6,8.6-8.9,17.4-12.7,26.4C299,69,290.6,108.7,290.6,150.4s8.4,81.4,23.7,117.5c3.8,9,8.1,17.8,12.7,26.4V291h530.7v3.2
				c4.6-8.6,8.9-17.4,12.7-26.4C885.7,231.8,894.1,192.1,894.1,150.4z"/>
			<path class="st78" d="M880.4,150.4c0-39.8-8.1-77.7-22.6-112.1c-3.6-8.6-7.7-17-12.1-25.2c-1.1-2-2.2-4.1-3.4-6.1v2.8H342.5V7
				c-1.2,2-2.3,4-3.4,6.1c-4.4,8.2-8.5,16.6-12.1,25.2c-14.6,34.5-22.6,72.4-22.6,112.1s8.1,77.7,22.6,112.1
				c3.6,8.6,7.7,17,12.1,25.2c1.1,2,2.2,4.1,3.4,6.1V291h499.8v2.8c1.2-2,2.3-4,3.4-6.1c4.4-8.2,8.5-16.6,12.1-25.2
				C872.3,228.1,880.4,190.2,880.4,150.4z"/>
			<path class="st79" d="M866.7,150.4c0-37.9-7.7-74-21.6-106.8c-3.5-8.2-7.3-16.2-11.6-24c-2.1-3.9-4.3-7.7-6.6-11.5v1.7H357.7V8.1
				c-2.3,3.8-4.5,7.6-6.6,11.5c-4.2,7.8-8.1,15.8-11.6,24C325.7,76.4,318,112.5,318,150.4s7.7,74,21.6,106.8
				c3.5,8.2,7.3,16.2,11.6,24c2.1,3.9,4.3,7.7,6.6,11.5V291H827v1.7c2.3-3.8,4.5-7.6,6.6-11.5c4.2-7.8,8.1-15.8,11.6-24
				C859,224.4,866.7,188.3,866.7,150.4z"/>
			<path class="st80" d="M853,150.4c0-36-7.3-70.3-20.5-101.4c-6.6-15.6-14.7-30.4-24-44.3v5.1H376.2V4.7
				c-9.4,13.9-17.4,28.7-24,44.3c-13.2,31.2-20.5,65.5-20.5,101.4s7.3,70.3,20.5,101.4c6.6,15.6,14.7,30.4,24,44.3V291h432.2v5.1
				c9.4-13.9,17.4-28.7,24-44.3C845.7,220.7,853,186.4,853,150.4z"/>
			<path class="st81" d="M839.2,150.4c0-34.1-6.9-66.6-19.4-96.1c-6.2-14.8-13.9-28.8-22.8-41.9c-1.1-1.6-2.2-3.3-3.4-4.9v2.3H391
				V7.5c-1.1,1.6-2.3,3.2-3.4,4.9c-8.9,13.1-16.5,27.2-22.8,41.9c-12.5,29.5-19.4,62-19.4,96.1s6.9,66.6,19.4,96.1
				c6.2,14.8,13.9,28.8,22.8,41.9c1.1,1.6,2.2,3.3,3.4,4.9V291h402.7v2.3c1.1-1.6,2.3-3.2,3.4-4.9c8.9-13.1,16.5-27.2,22.8-41.9
				C832.3,217,839.2,184.5,839.2,150.4z"/>
			<path class="st82" d="M825.5,150.4c0-32.2-6.5-62.9-18.3-90.8c-5.9-13.9-13.1-27.2-21.5-39.6c-2.1-3.1-4.3-6.1-6.5-9.1
				c-1.1-1.5-2.3-3-3.4-4.4v3.4H408.9V6.4c-1.2,1.5-2.3,3-3.4,4.4c-2.2,3-4.4,6-6.5,9.1c-8.4,12.4-15.6,25.7-21.5,39.6
				c-11.8,27.9-18.3,58.6-18.3,90.8s6.5,62.9,18.3,90.8c5.9,13.9,13.1,27.2,21.5,39.6c2.1,3.1,4.3,6.1,6.5,9.1
				c1.1,1.5,2.3,3,3.4,4.4V291h366.9v3.4c1.2-1.5,2.3-3,3.4-4.4c2.2-3,4.4-6,6.5-9.1c8.4-12.4,15.6-25.7,21.5-39.6
				C819,213.3,825.5,182.6,825.5,150.4z"/>
			<path class="st83" d="M811.8,150.4c0-30.3-6.1-59.2-17.2-85.4c-5.6-13.1-12.3-25.6-20.2-37.3c-3.9-5.8-8.2-11.5-12.6-16.9
				c-2.2-2.7-4.5-5.4-6.9-8v7H429.9v-7c-2.4,2.6-4.7,5.3-6.9,8c-4.5,5.4-8.7,11.1-12.6,16.9c-7.9,11.7-14.7,24.2-20.2,37.3
				c-11.1,26.3-17.2,55.1-17.2,85.4s6.1,59.2,17.2,85.4c5.6,13.1,12.3,25.6,20.2,37.3c3.9,5.8,8.2,11.5,12.6,16.9
				c2.2,2.7,4.5,5.4,6.9,8v-7h324.9v7c2.4-2.6,4.7-5.3,6.9-8c4.5-5.4,8.7-11.1,12.6-16.9c7.9-11.7,14.7-24.2,20.2-37.3
				C805.7,209.6,811.8,180.7,811.8,150.4z"/>
			<path class="st84" d="M798.1,150.4c0-56.8-23-108.3-60.3-145.5v4.9h-291V4.9c-37.2,37.2-60.3,88.7-60.3,145.5
				s23,108.3,60.3,145.5V291h291v4.9C775.1,258.7,798.1,207.2,798.1,150.4z"/>
			<path class="st85" d="M784.4,150.4c0-53-21.5-101-56.2-135.8c-2.2-2.2-4.4-4.3-6.7-6.4v1.5H463.2V8.3c-2.3,2.1-4.5,4.2-6.7,6.4
				c-34.8,34.8-56.2,82.8-56.2,135.8s21.5,101,56.2,135.8c2.2,2.2,4.4,4.3,6.7,6.4V291h258.2v1.5c2.3-2.1,4.5-4.2,6.7-6.4
				C762.9,251.4,784.4,203.4,784.4,150.4z"/>
			<path class="st86" d="M770.7,150.4c0-49.2-20-93.8-52.2-126.1c-4-4-8.3-7.9-12.7-11.5c-2.2-1.8-4.4-3.6-6.7-5.3v2.3H485.7V7.5
				c-2.3,1.7-4.5,3.5-6.7,5.3c-4.4,3.6-8.6,7.5-12.7,11.5C434,56.6,414,101.2,414,150.4s20,93.8,52.2,126.1c4,4,8.3,7.9,12.7,11.5
				c2.2,1.8,4.4,3.6,6.7,5.3V291H699v2.3c2.3-1.7,4.5-3.5,6.7-5.3c4.4-3.6,8.6-7.5,12.7-11.5C750.7,244.2,770.7,199.6,770.7,150.4z"
				/>
			<path class="st87" d="M756.9,150.4c0-45.5-18.4-86.6-48.2-116.4c-7.4-7.4-15.6-14.2-24.4-20.1c-4.4-3-8.9-5.7-13.6-8.2v4.1H513.9
				V5.7c-4.7,2.5-9.2,5.3-13.6,8.2c-8.8,5.9-16.9,12.7-24.4,20.1c-29.8,29.8-48.2,70.9-48.2,116.4S446.2,237,476,266.8
				c7.4,7.4,15.6,14.2,24.4,20.1c4.4,3,8.9,5.7,13.6,8.2V291h156.9v4.1c4.7-2.5,9.2-5.3,13.6-8.2c8.8-5.9,16.9-12.7,24.4-20.1
				C738.5,237,756.9,195.9,756.9,150.4z"/>
			<path class="st88" d="M743.2,150.4c0-41.7-16.9-79.4-44.2-106.7c-13.7-13.7-29.9-24.7-48-32.3c-4.5-1.9-9.1-3.6-13.9-5.1v3.5
				h-89.7V6.3c-4.7,1.5-9.3,3.2-13.9,5.1c-18.1,7.6-34.3,18.7-48,32.3c-27.3,27.3-44.2,65-44.2,106.7s16.9,79.4,44.2,106.7
				c13.7,13.7,29.9,24.7,48,32.3c4.5,1.9,9.1,3.6,13.9,5.1V291h89.7v3.5c4.7-1.5,9.3-3.2,13.9-5.1c18.1-7.6,34.3-18.7,48-32.3
				C726.3,229.8,743.2,192.1,743.2,150.4z"/>
			<circle class="st89" cx="592.3" cy="150.4" r="137.2"/>
			<circle class="st90" cx="592.3" cy="150.4" r="123.4"/>
			<circle class="st91" cx="592.3" cy="150.4" r="109.7"/>
			<circle class="st92" cx="592.3" cy="150.4" r="96"/>
			<circle class="st93" cx="592.3" cy="150.4" r="82.3"/>
			<circle class="st94" cx="592.3" cy="150.4" r="68.6"/>
			<circle class="st95" cx="592.3" cy="150.4" r="54.9"/>
			<circle class="st96" cx="592.3" cy="150.4" r="41.1"/>
			<circle class="st97" cx="592.3" cy="150.4" r="27.4"/>
			<circle class="st98" cx="592.3" cy="150.4" r="13.7"/>
		</g>
	</g>
	<g>
		<g>
			<defs>
				<path id="SVGID_5_" d="M1148.9,205.5c0,35.6-28.2,64.8-62.7,64.8H98.5c-34.5,0-62.7-29.2-62.7-64.8V95.2
					c0-35.6,28.2-64.8,62.7-64.8h987.7c34.5,0,62.7,29.2,62.7,64.8V205.5z"/>
			</defs>
			<clipPath id="SVGID_7_">
				<use xlink:href="#SVGID_5_"  style="overflow:visible;"/>
			</clipPath>
			<rect x="35.8" y="30.4" class="st99" width="1113.1" height="239.9"/>
			<path class="st99" d="M943,150.4c0-24.2-2.5-47.8-7.1-70.7c-2.3-11.4-5.2-22.6-8.6-33.6c-1.7-5.5-3.5-10.9-5.5-16.3
				c-0.5-1.3-1-2.7-1.5-4v3.6H264.4v-3.6c-0.5,1.3-1,2.7-1.5,4c-2,5.4-3.8,10.8-5.5,16.3c-3.4,11-6.3,22.2-8.6,33.6
				c-4.7,22.8-7.1,46.5-7.1,70.7s2.5,47.8,7.1,70.7c2.3,11.4,5.2,22.6,8.6,33.6c1.7,5.5,3.5,10.9,5.5,16.3c0.5,1.3,1,2.7,1.5,4v-3.6
				h655.8v3.6c0.5-1.3,1-2.7,1.5-4c2-5.4,3.8-10.8,5.5-16.3c3.4-11,6.3-22.2,8.6-33.6C940.6,198.2,943,174.6,943,150.4z"/>
			<path class="st100" d="M937.7,150.4c0-23.8-2.4-47.1-7-69.6c-2.3-11.2-5.1-22.3-8.5-33.1c-1.7-5.4-3.5-10.8-5.4-16
				c-1-2.6-2-5.3-3-7.9v5.7H270.9v-5.7c-1,2.6-2,5.2-3,7.9c-1.9,5.3-3.7,10.6-5.4,16c-3.4,10.8-6.2,21.9-8.5,33.1
				c-4.6,22.5-7,45.8-7,69.6s2.4,47.1,7,69.6c2.3,11.2,5.1,22.3,8.5,33.1c1.7,5.4,3.5,10.8,5.4,16c1,2.6,2,5.3,3,7.9v-5.7h642.8v5.7
				c1-2.6,2-5.2,3-7.9c1.9-5.3,3.7-10.6,5.4-16c3.4-10.8,6.2-21.9,8.5-33.1C935.3,197.5,937.7,174.2,937.7,150.4z"/>
			<path class="st101" d="M932.4,150.4c0-23.5-2.4-46.4-6.9-68.5c-2.3-11.1-5.1-21.9-8.4-32.6c-1.7-5.3-3.4-10.6-5.3-15.8
				c-1-2.6-1.9-5.2-3-7.8v3.7H275.9v-3.7c-1,2.6-2,5.2-3,7.8c-1.9,5.2-3.7,10.5-5.3,15.8c-3.3,10.6-6.1,21.5-8.4,32.6
				c-4.5,22.1-6.9,45.1-6.9,68.5s2.4,46.4,6.9,68.5c2.3,11.1,5.1,21.9,8.4,32.6c1.7,5.3,3.4,10.6,5.3,15.8c1,2.6,1.9,5.2,3,7.8v-3.7
				h632.9v3.7c1-2.6,2-5.2,3-7.8c1.9-5.2,3.7-10.5,5.3-15.8c3.3-10.6,6.1-21.5,8.4-32.6C930,196.7,932.4,173.8,932.4,150.4z"/>
			<path class="st102" d="M927.1,150.4c0-23.1-2.3-45.7-6.8-67.5c-2.2-10.9-5-21.6-8.2-32.1c-1.6-5.2-3.4-10.4-5.3-15.6
				c-0.9-2.6-1.9-5.1-2.9-7.6v1.8H280.8v-1.8c-1,2.5-2,5.1-2.9,7.6c-1.9,5.1-3.6,10.3-5.3,15.6c-3.3,10.5-6,21.2-8.2,32.1
				c-4.5,21.8-6.8,44.4-6.8,67.5s2.3,45.7,6.8,67.5c2.2,10.9,5,21.6,8.2,32.1c1.6,5.2,3.4,10.4,5.3,15.6c0.9,2.6,1.9,5.1,2.9,7.6
				v-1.8h623.1v1.8c1-2.5,2-5.1,2.9-7.6c1.9-5.1,3.6-10.3,5.3-15.6c3.3-10.5,6-21.2,8.2-32.1C924.8,196,927.1,173.5,927.1,150.4z"/>
			<path class="st103" d="M921.8,150.4c0-22.7-2.3-44.9-6.7-66.4c-2.2-10.7-4.9-21.3-8.1-31.6c-1.6-5.2-3.3-10.3-5.2-15.3
				c-0.9-2.5-1.9-5-2.9-7.5c-0.5-1.2-1-2.5-1.5-3.7v3.6H287.3v-3.6c-0.5,1.2-1,2.5-1.5,3.7c-1,2.5-1.9,5-2.9,7.5
				c-1.8,5-3.6,10.1-5.2,15.3c-3.2,10.3-5.9,20.8-8.1,31.6c-4.4,21.4-6.7,43.6-6.7,66.4s2.3,44.9,6.7,66.4
				c2.2,10.7,4.9,21.3,8.1,31.6c1.6,5.2,3.3,10.3,5.2,15.3c0.9,2.5,1.9,5,2.9,7.5c0.5,1.2,1,2.5,1.5,3.7v-3.6h610.2v3.6
				c0.5-1.2,1-2.5,1.5-3.7c1-2.5,1.9-5,2.9-7.5c1.8-5,3.6-10.1,5.2-15.3c3.2-10.3,5.9-20.8,8.1-31.6
				C919.5,195.3,921.8,173.1,921.8,150.4z"/>
			<path class="st104" d="M916.5,150.4c0-44.8-9.1-87.4-25.5-126.2v5.2H293.7v-5.2c-16.4,38.8-25.5,81.4-25.5,126.2
				s9.1,87.4,25.5,126.2v-5.2H891v5.2C907.4,237.7,916.5,195.1,916.5,150.4z"/>
			<path class="st105" d="M911.2,150.4c0-44-8.9-86-25.1-124.1v3.1H298.6v-3.1c-16.1,38.1-25.1,80.1-25.1,124.1s8.9,86,25.1,124.1
				v-3.1h587.5v3.1C902.2,236.3,911.2,194.4,911.2,150.4z"/>
			<path class="st106" d="M905.8,150.4c0-43.3-8.8-84.5-24.6-122v1.1H303.5v-1.1c-15.9,37.5-24.6,78.7-24.6,122s8.8,84.5,24.6,122
				v-1.1h577.7v1.1C897.1,234.9,905.8,193.6,905.8,150.4z"/>
			<path class="st107" d="M900.5,150.4c0-42.6-8.6-83.1-24.2-120c-1-2.3-2-4.6-3-6.9v5.9H311.4v-5.9c-1,2.3-2,4.6-3,6.9
				c-15.6,36.9-24.2,77.4-24.2,120s8.6,83.1,24.2,120c1,2.3,2,4.6,3,6.9v-5.9h561.9v5.9c1-2.3,2-4.6,3-6.9
				C891.9,233.4,900.5,192.9,900.5,150.4z"/>
			<path class="st108" d="M895.2,150.4c0-41.8-8.5-81.7-23.8-117.9c-1-2.3-1.9-4.5-3-6.8v3.7H316.2v-3.7c-1,2.2-2,4.5-3,6.8
				c-15.3,36.2-23.8,76.1-23.8,117.9s8.5,81.7,23.8,117.9c1,2.3,1.9,4.5,3,6.8v-3.7h552.2v3.7c1-2.2,2-4.5,3-6.8
				C886.7,232,895.2,192.2,895.2,150.4z"/>
			<path class="st109" d="M889.9,150.4c0-41.1-8.3-80.2-23.4-115.8c-0.9-2.2-1.9-4.4-2.9-6.6v1.5H321.1v-1.5c-1,2.2-2,4.4-2.9,6.6
				c-15.1,35.6-23.4,74.7-23.4,115.8s8.3,80.2,23.4,115.8c0.9,2.2,1.9,4.4,2.9,6.6v-1.5h542.5v1.5c1-2.2,2-4.4,2.9-6.6
				C881.6,230.6,889.9,191.4,889.9,150.4z"/>
			<path class="st110" d="M884.6,150.4c0-40.3-8.2-78.8-23-113.8c-1.8-4.4-3.8-8.7-5.9-12.9v5.7H328.9v-5.7c-2.1,4.3-4,8.6-5.9,12.9
				c-14.8,35-23,73.4-23,113.8s8.2,78.8,23,113.8c1.8,4.4,3.8,8.7,5.9,12.9v-5.7h526.8v5.7c2.1-4.3,4-8.6,5.9-12.9
				C876.4,229.1,884.6,190.7,884.6,150.4z"/>
			<path class="st111" d="M879.3,150.4c0-39.6-8-77.4-22.5-111.7c-1.8-4.3-3.7-8.5-5.7-12.7v3.4H333.7V26c-2,4.2-3.9,8.4-5.7,12.7
				c-14.5,34.3-22.5,72.1-22.5,111.7s8,77.4,22.5,111.7c1.8,4.3,3.7,8.5,5.7,12.7v-3.4H851v3.4c2-4.2,3.9-8.4,5.7-12.7
				C871.2,227.7,879.3,190,879.3,150.4z"/>
			<path class="st112" d="M874,150.4c0-38.9-7.9-75.9-22.1-109.6c-1.8-4.2-3.7-8.4-5.6-12.5v1.1H338.5v-1.1c-2,4.1-3.9,8.3-5.6,12.5
				c-14.3,33.7-22.1,70.7-22.1,109.6s7.9,75.9,22.1,109.6c1.8,4.2,3.7,8.4,5.6,12.5v-1.1h507.7v1.1c2-4.1,3.9-8.3,5.6-12.5
				C866.1,226.3,874,189.2,874,150.4z"/>
			<path class="st113" d="M868.6,150.4c0-38.1-7.7-74.5-21.7-107.5c-1.7-4.1-3.6-8.2-5.5-12.2c-1-2-2-4-3-6v4.8H346.3v-4.8
				c-1,2-2,4-3,6c-1.9,4-3.8,8.1-5.5,12.2c-14,33.1-21.7,69.4-21.7,107.5s7.7,74.5,21.7,107.5c1.7,4.1,3.6,8.2,5.5,12.2c1,2,2,4,3,6
				v-4.8h492.1v4.8c1-2,2-4,3-6c1.9-4,3.8-8.1,5.5-12.2C860.9,224.8,868.6,188.5,868.6,150.4z"/>
			<path class="st114" d="M863.3,150.4c0-37.4-7.6-73.1-21.3-105.5c-1.7-4.1-3.5-8.1-5.4-12c-1-2-1.9-3.9-2.9-5.9v2.4H351V27
				c-1,1.9-2,3.9-2.9,5.9c-1.9,3.9-3.7,8-5.4,12c-13.7,32.4-21.3,68.1-21.3,105.5s7.6,73.1,21.3,105.5c1.7,4.1,3.5,8.1,5.4,12
				c1,2,1.9,3.9,2.9,5.9v-2.4h482.7v2.4c1-1.9,2-3.9,2.9-5.9c1.9-3.9,3.7-8,5.4-12C855.8,223.4,863.3,187.8,863.3,150.4z"/>
			<path class="st115" d="M858,150.4c0-36.7-7.4-71.6-20.9-103.4C833.8,39,830,31.2,826,23.7v5.7H358.7v-5.7
				c-4.1,7.5-7.8,15.3-11.2,23.2c-13.4,31.8-20.9,66.7-20.9,103.4s7.4,71.6,20.9,103.4c3.4,7.9,7.1,15.7,11.2,23.2v-5.7H826v5.7
				c4.1-7.5,7.8-15.3,11.2-23.2C850.6,222,858,187,858,150.4z"/>
			<path class="st116" d="M852.7,150.4c0-35.9-7.3-70.2-20.5-101.3c-3.3-7.8-7-15.4-11-22.8v3.2H363.4v-3.2c-4,7.4-7.7,15-11,22.8
				C339.3,80.2,332,114.4,332,150.4s7.3,70.2,20.5,101.3c3.3,7.8,7,15.4,11,22.8v-3.2h457.9v3.2c4-7.4,7.7-15,11-22.8
				C845.4,220.5,852.7,186.3,852.7,150.4z"/>
			<path class="st117" d="M847.4,150.4c0-35.2-7.1-68.8-20-99.3c-3.2-7.6-6.8-15.1-10.7-22.3v0.6H368.1v-0.6
				c-3.9,7.2-7.5,14.7-10.7,22.3c-12.9,30.5-20,64.1-20,99.3s7.1,68.8,20,99.3c3.2,7.6,6.8,15.1,10.7,22.3v-0.6h448.5v0.6
				c3.9-7.2,7.5-14.7,10.7-22.3C840.3,219.1,847.4,185.6,847.4,150.4z"/>
			<path class="st118" d="M842.1,150.4c0-34.5-7-67.3-19.6-97.2c-3.2-7.5-6.7-14.8-10.5-21.8c-1-1.8-1.9-3.5-2.9-5.3v3.4H375.7V26
				c-1,1.7-2,3.5-2.9,5.3c-3.8,7.1-7.4,14.4-10.5,21.8c-12.6,29.9-19.6,62.7-19.6,97.2s7,67.3,19.6,97.2c3.2,7.5,6.7,14.8,10.5,21.8
				c1,1.8,1.9,3.5,2.9,5.3v-3.4H809v3.4c1-1.7,2-3.5,2.9-5.3c3.8-7.1,7.4-14.4,10.5-21.8C835.1,217.7,842.1,184.8,842.1,150.4z"/>
			<path class="st119" d="M836.8,150.4c0-33.7-6.8-65.9-19.2-95.1c-3.1-7.3-6.5-14.4-10.3-21.4c-1.9-3.5-3.8-6.9-5.9-10.2v5.8H383.3
				v-5.8c-2,3.4-4,6.8-5.9,10.2c-3.8,6.9-7.2,14.1-10.3,21.4c-12.4,29.2-19.2,61.4-19.2,95.1s6.8,65.9,19.2,95.1
				c3.1,7.3,6.5,14.4,10.3,21.4c1.9,3.5,3.8,6.9,5.9,10.2v-5.8h418.1v5.8c2-3.4,4-6.8,5.9-10.2c3.8-6.9,7.2-14.1,10.3-21.4
				C829.9,216.2,836.8,184.1,836.8,150.4z"/>
			<path class="st120" d="M831.5,150.4c0-33-6.7-64.5-18.8-93.1c-3-7.2-6.4-14.1-10.1-20.9c-1.8-3.4-3.8-6.7-5.8-10v3h-409v-3
				c-2,3.3-3.9,6.6-5.8,10c-3.7,6.8-7,13.7-10.1,20.9c-12.1,28.6-18.8,60.1-18.8,93.1s6.7,64.5,18.8,93.1c3,7.2,6.4,14.1,10.1,20.9
				c1.8,3.4,3.8,6.7,5.8,10v-3h409v3c2-3.3,3.9-6.6,5.8-10c3.7-6.8,7-13.7,10.1-20.9C824.8,214.8,831.5,183.4,831.5,150.4z"/>
			<path class="st121" d="M826.1,150.4c0-32.3-6.5-63-18.4-91c-3-7-6.2-13.8-9.8-20.4c-1.8-3.3-3.7-6.6-5.6-9.8v0.3H392.4v-0.3
				c-2,3.2-3.8,6.5-5.6,9.8c-3.6,6.6-6.9,13.4-9.8,20.4c-11.8,28-18.4,58.7-18.4,91s6.5,63,18.4,91c3,7,6.2,13.8,9.8,20.4
				c1.8,3.3,3.7,6.6,5.6,9.8v-0.3h399.9v0.3c2-3.2,3.8-6.5,5.6-9.8c3.6-6.6,6.9-13.4,9.8-20.4C819.6,213.4,826.1,182.6,826.1,150.4z
				"/>
			<path class="st122" d="M820.8,150.4c0-31.5-6.4-61.6-18-88.9c-5.8-13.7-12.9-26.7-21.1-38.8v6.8H402.9v-6.8
				c-8.2,12.2-15.3,25.1-21.1,38.8c-11.6,27.3-18,57.4-18,88.9s6.4,61.6,18,88.9c5.8,13.7,12.9,26.7,21.1,38.8v-6.8h378.9v6.8
				c8.2-12.2,15.3-25.1,21.1-38.8C814.4,211.9,820.8,181.9,820.8,150.4z"/>
			<path class="st123" d="M815.5,150.4c0-30.8-6.2-60.2-17.5-86.9c-5.6-13.3-12.6-26-20.6-37.9v3.8H407.3v-3.8
				c-8,11.9-14.9,24.6-20.6,37.9c-11.3,26.7-17.5,56.1-17.5,86.9s6.2,60.2,17.5,86.9c5.6,13.3,12.6,26,20.6,37.9v-3.8h370.1v3.8
				c8-11.9,14.9-24.6,20.6-37.9C809.3,210.5,815.5,181.2,815.5,150.4z"/>
			<path class="st124" d="M810.2,150.4c0-30.1-6.1-58.7-17.1-84.8c-5.5-13-12.3-25.4-20.1-37v0.9H411.7v-0.9
				c-7.8,11.6-14.6,24-20.1,37c-11,26.1-17.1,54.7-17.1,84.8s6.1,58.7,17.1,84.8c5.5,13,12.3,25.4,20.1,37v-0.9H773v0.9
				c7.8-11.6,14.6-24,20.1-37C804.1,209.1,810.2,180.4,810.2,150.4z"/>
			<path class="st125" d="M804.9,150.4c0-29.3-5.9-57.3-16.7-82.7c-5.4-12.7-12-24.8-19.6-36.1c-1.9-2.8-3.9-5.6-5.9-8.3v6.2H422
				v-6.2c-2,2.7-4,5.5-5.9,8.3c-7.6,11.3-14.2,23.4-19.6,36.1c-10.8,25.4-16.7,53.4-16.7,82.7s5.9,57.3,16.7,82.7
				c5.4,12.7,12,24.8,19.6,36.1c1.9,2.8,3.9,5.6,5.9,8.3v-6.2h340.6v6.2c2-2.7,4-5.5,5.9-8.3c7.6-11.3,14.2-23.4,19.6-36.1
				C798.9,207.7,804.9,179.7,804.9,150.4z"/>
			<path class="st126" d="M799.6,150.4c0-28.6-5.8-55.9-16.3-80.7c-5.2-12.4-11.7-24.2-19.1-35.2c-1.9-2.8-3.8-5.5-5.8-8.1v3H426.3
				v-3c-2,2.7-3.9,5.4-5.8,8.1c-7.4,11-13.9,22.8-19.1,35.2c-10.5,24.8-16.3,52-16.3,80.7s5.8,55.9,16.3,80.7
				c5.2,12.4,11.7,24.2,19.1,35.2c1.9,2.8,3.8,5.5,5.8,8.1v-3h332.1v3c2-2.7,3.9-5.4,5.8-8.1c7.4-11,13.9-22.8,19.1-35.2
				C793.8,206.2,799.6,179,799.6,150.4z"/>
			<path class="st127" d="M794.3,150.4c0-27.9-5.6-54.4-15.9-78.6c-5.1-12.1-11.4-23.6-18.6-34.3c-1.8-2.7-3.7-5.3-5.6-7.9
				c-1-1.3-2-2.6-3-3.9v3.7H433.5v-3.7c-1,1.3-2,2.6-3,3.9c-1.9,2.6-3.8,5.2-5.6,7.9c-7.3,10.7-13.5,22.2-18.6,34.3
				c-10.2,24.2-15.9,50.7-15.9,78.6s5.6,54.4,15.9,78.6c5.1,12.1,11.4,23.6,18.6,34.3c1.8,2.7,3.7,5.3,5.6,7.9c1,1.3,2,2.6,3,3.9
				v-3.7h317.7v3.7c1-1.3,2-2.6,3-3.9c1.9-2.6,3.8-5.2,5.6-7.9c7.3-10.7,13.5-22.2,18.6-34.3C788.6,204.8,794.3,178.2,794.3,150.4z"
				/>
			<path class="st128" d="M788.9,150.4c0-27.1-5.5-53-15.4-76.5c-5-11.8-11.1-22.9-18.1-33.4c-3.5-5.2-7.3-10.3-11.3-15.1v4.1H440.6
				v-4.1c-4,4.9-7.8,9.9-11.3,15.1c-7.1,10.5-13.2,21.6-18.1,33.4c-9.9,23.5-15.4,49.4-15.4,76.5s5.5,53,15.4,76.5
				c5,11.8,11.1,22.9,18.1,33.4c3.5,5.2,7.3,10.3,11.3,15.1v-4.1h303.4v4.1c4-4.9,7.8-9.9,11.3-15.1c7.1-10.5,13.2-21.6,18.1-33.4
				C783.4,203.4,788.9,177.5,788.9,150.4z"/>
			<path class="st129" d="M783.6,150.4c0-26.4-5.4-51.6-15-74.5c-4.8-11.4-10.8-22.3-17.6-32.5c-3.4-5.1-7.1-10-11-14.7v0.7H444.7
				v-0.7c-3.9,4.7-7.6,9.6-11,14.7c-6.9,10.2-12.8,21-17.6,32.5c-9.7,22.9-15,48-15,74.5s5.4,51.6,15,74.5
				c4.8,11.4,10.8,22.3,17.6,32.5c3.4,5.1,7.1,10,11,14.7v-0.7H740v0.7c3.9-4.7,7.6-9.6,11-14.7c6.9-10.2,12.8-21,17.6-32.5
				C778.3,201.9,783.6,176.8,783.6,150.4z"/>
			<path class="st130" d="M778.3,150.4c0-25.7-5.2-50.1-14.6-72.4c-4.7-11.1-10.5-21.7-17.1-31.6c-3.3-4.9-6.9-9.7-10.7-14.3
				c-1.9-2.3-3.8-4.5-5.8-6.7v4.1H454.7v-4.1c-2,2.2-4,4.5-5.8,6.7c-3.8,4.6-7.4,9.4-10.7,14.3c-6.7,9.9-12.4,20.5-17.1,31.6
				c-9.4,22.2-14.6,46.7-14.6,72.4s5.2,50.1,14.6,72.4c4.7,11.1,10.5,21.7,17.1,31.6c3.3,4.9,6.9,9.7,10.7,14.3
				c1.9,2.3,3.8,4.5,5.8,6.7v-4.1H730v4.1c2-2.2,4-4.5,5.8-6.7c3.8-4.6,7.4-9.4,10.7-14.3c6.7-9.9,12.4-20.5,17.1-31.6
				C773.1,200.5,778.3,176,778.3,150.4z"/>
			<path class="st131" d="M773,150.4c0-49.9-20.2-95.1-52.9-127.7v6.8H464.6v-6.8c-32.7,32.7-52.9,77.9-52.9,127.7
				s20.2,95.1,52.9,127.7v-6.8h255.5v6.8C752.8,245.4,773,200.2,773,150.4z"/>
			<path class="st132" d="M767.7,150.4c0-48.4-19.6-92.3-51.4-124v3h-248v-3c-31.7,31.7-51.4,75.6-51.4,124s19.6,92.3,51.4,124v-3
				h248v3C748.1,242.6,767.7,198.8,767.7,150.4z"/>
			<path class="st133" d="M762.4,150.4c0-47-19-89.5-49.8-120.2c-1.9-1.9-3.9-3.8-5.9-5.6v4.9H478v-4.9c-2,1.8-4,3.7-5.9,5.6
				c-30.8,30.8-49.8,73.3-49.8,120.2s19,89.5,49.8,120.2c1.9,1.9,3.9,3.8,5.9,5.6v-4.9h228.6v4.9c2-1.8,4-3.7,5.9-5.6
				C743.3,239.8,762.4,197.3,762.4,150.4z"/>
			<path class="st134" d="M757.1,150.4c0-45.5-18.4-86.7-48.2-116.5c-3.7-3.7-7.6-7.3-11.7-10.6v6.2H487.6v-6.2
				c-4.1,3.4-8,6.9-11.7,10.6c-29.8,29.8-48.2,71-48.2,116.5s18.4,86.7,48.2,116.5c3.7,3.7,7.6,7.3,11.7,10.6v-6.2h209.5v6.2
				c4.1-3.4,8-6.9,11.7-10.6C738.6,237,757.1,195.8,757.1,150.4z"/>
			<path class="st135" d="M751.8,150.4c0-44-17.8-83.9-46.7-112.7c-3.6-3.6-7.4-7-11.3-10.3v2.1H491v-2.1
				c-3.9,3.2-7.7,6.7-11.3,10.3c-28.8,28.8-46.7,68.7-46.7,112.7s17.8,83.9,46.7,112.7c3.6,3.6,7.4,7,11.3,10.3v-2.1h202.8v2.1
				c3.9-3.2,7.7-6.7,11.3-10.3C733.9,234.2,751.8,194.4,751.8,150.4z"/>
			<path class="st136" d="M746.4,150.4c0-42.6-17.2-81.1-45.1-109c-7-7-14.6-13.3-22.8-18.8v6.8H506.2v-6.8
				c-8.2,5.5-15.8,11.8-22.8,18.8c-27.9,27.9-45.1,66.4-45.1,109s17.2,81.1,45.1,109c7,7,14.6,13.3,22.8,18.8v-6.8h172.3v6.8
				c8.2-5.5,15.8-11.8,22.8-18.8C729.2,231.4,746.4,192.9,746.4,150.4z"/>
			<path class="st137" d="M741.1,150.4c0-41.1-16.7-78.3-43.6-105.2c-6.7-6.7-14.1-12.8-22-18.2v2.4H509.2V27
				c-7.9,5.3-15.3,11.4-22,18.2c-26.9,26.9-43.6,64.1-43.6,105.2s16.7,78.3,43.6,105.2c6.7,6.7,14.1,12.8,22,18.2v-2.4h166.4v2.4
				c7.9-5.3,15.3-11.4,22-18.2C724.5,228.6,741.1,191.4,741.1,150.4z"/>
			<path class="st138" d="M735.8,150.4c0-39.6-16.1-75.5-42-101.4c-6.5-6.5-13.6-12.4-21.2-17.5c-3.8-2.6-7.8-5-11.8-7.2v5.2H524
				v-5.2c-4.1,2.2-8,4.6-11.8,7.2c-7.6,5.2-14.7,11-21.2,17.5c-26,26-42,61.8-42,101.4s16.1,75.5,42,101.4
				c6.5,6.5,13.6,12.4,21.2,17.5c3.8,2.6,7.8,5,11.8,7.2v-5.2h136.8v5.2c4.1-2.2,8-4.6,11.8-7.2c7.6-5.2,14.7-11,21.2-17.5
				C719.8,225.8,735.8,190,735.8,150.4z"/>
			<path class="st139" d="M730.5,150.4c0-38.1-15.5-72.7-40.5-97.7c-12.5-12.5-27.4-22.6-43.9-29.6v6.3H538.6v-6.3
				c-16.5,7-31.4,17.1-43.9,29.6c-25,25-40.5,59.5-40.5,97.7s15.5,72.7,40.5,97.7c12.5,12.5,27.4,22.6,43.9,29.6v-6.3h107.5v6.3
				c16.5-7,31.4-17.1,43.9-29.6C715,223,730.5,188.5,730.5,150.4z"/>
			<path class="st140" d="M725.2,150.4c0-36.7-14.9-69.9-38.9-93.9c-12-12-26.3-21.7-42.2-28.5v1.4H540.6V28
				c-15.9,6.7-30.2,16.4-42.2,28.5c-24,24-38.9,57.2-38.9,93.9s14.9,69.9,38.9,93.9c12,12,26.3,21.7,42.2,28.5v-1.4h103.4v1.4
				c15.9-6.7,30.2-16.4,42.2-28.5C710.3,220.2,725.2,187,725.2,150.4z"/>
			<circle class="st141" cx="592.3" cy="150.4" r="127.5"/>
			<circle class="st142" cx="592.3" cy="150.4" r="122.2"/>
			<circle class="st143" cx="592.3" cy="150.4" r="116.9"/>
			<circle class="st144" cx="592.3" cy="150.4" r="111.6"/>
			<circle class="st145" cx="592.3" cy="150.4" r="106.3"/>
			<circle class="st146" cx="592.3" cy="150.4" r="101"/>
			<circle class="st147" cx="592.3" cy="150.4" r="95.6"/>
			<circle class="st148" cx="592.3" cy="150.4" r="90.3"/>
			<circle class="st149" cx="592.3" cy="150.4" r="85"/>
			<circle class="st150" cx="592.3" cy="150.4" r="79.7"/>
			<circle class="st151" cx="592.3" cy="150.4" r="74.4"/>
			<circle class="st152" cx="592.3" cy="150.4" r="69.1"/>
			<circle class="st153" cx="592.3" cy="150.4" r="63.8"/>
			<circle class="st154" cx="592.3" cy="150.4" r="58.4"/>
			<circle class="st155" cx="592.3" cy="150.4" r="53.1"/>
			<circle class="st156" cx="592.3" cy="150.4" r="47.8"/>
			<circle class="st157" cx="592.3" cy="150.4" r="42.5"/>
			<circle class="st158" cx="592.3" cy="150.4" r="37.2"/>
			<circle class="st159" cx="592.3" cy="150.4" r="31.9"/>
			<circle class="st160" cx="592.3" cy="150.4" r="26.6"/>
			<circle class="st161" cx="592.3" cy="150.4" r="21.3"/>
			<circle class="st162" cx="592.3" cy="150.4" r="15.9"/>
			<circle class="st163" cx="592.3" cy="150.4" r="10.6"/>
			<circle class="st164" cx="592.3" cy="150.4" r="5.3"/>
		</g>
	</g>
	<g>
		<path class="st67" d="M1139.2,196c0,35-27.5,63.5-61.1,63.5H106.5c-33.6,0-61.1-28.6-61.1-63.5V87.7c0-35,27.5-63.5,61.1-63.5
			h971.6c33.6,0,61.1,28.6,61.1,63.5V196z"/>
	</g>
	<g>
		<g>
			<g>
				<defs>
					<path id="SVGID_8_" d="M1139.2,198.5c0,33.6-27.5,61.1-61.1,61.1H106.5c-33.6,0-61.1-27.5-61.1-61.1v-104
						c0-33.6,27.5-61.1,61.1-61.1h971.6c33.6,0,61.1,27.5,61.1,61.1V198.5z"/>
				</defs>
				<clipPath id="SVGID_9_">
					<use xlink:href="#SVGID_8_"  style="overflow:visible;"/>
				</clipPath>
				<g class="st165">
					<rect x="45.5" y="33.4" class="st166" width="1093.7" height="226.2"/>
				</g>
			</g>
			<g>
				<defs>
					<path id="SVGID_10_" d="M1139.2,198.5c0,33.6-27.5,61.1-61.1,61.1H106.5c-33.6,0-61.1-27.5-61.1-61.1v-104
						c0-33.6,27.5-61.1,61.1-61.1h971.6c33.6,0,61.1,27.5,61.1,61.1V198.5z"/>
				</defs>
				<clipPath id="SVGID_11_">
					<use xlink:href="#SVGID_10_"  style="overflow:visible;"/>
				</clipPath>
				<g class="st167">
					<path class="st166" d="M1140.2,57.4v34.9v16.6h5.4c-3.7,5.4-8,10.7-12.9,15.9c-19.4,20.7-47.5,39.4-82.2,55.1
						c-69.4,31.3-345.3,50.7-451.2,50.7c-105.9,0-391.8-19.4-461.2-50.7c-34.7-15.7-62.8-34.3-82.2-55.1
						c-4.9-5.2-9.2-10.5-12.9-15.9h1.5V32.4h1095.7L1140.2,57.4L1140.2,57.4z"/>
				</g>
			</g>
			<g>
				<defs>
					<path id="SVGID_12_" d="M1139.2,198.5c0,33.6-27.5,61.1-61.1,61.1H106.5c-33.6,0-61.1-27.5-61.1-61.1v-104
						c0-33.6,27.5-61.1,61.1-61.1h971.6c33.6,0,61.1,27.5,61.1,61.1V198.5z"/>
				</defs>
				<clipPath id="SVGID_13_">
					<use xlink:href="#SVGID_12_"  style="overflow:visible;"/>
				</clipPath>
				<g class="st168">
					<path class="st169" d="M1140.2,57.4v33.8h2.7c-4.9,10.9-12.2,21.4-21.6,31.5c-18.8,20.1-46,38.1-79.6,53.3
						c-67.2,30.3-340,49.1-442.5,49.1C394.2,225.1,38,150,38,57.5h6.4v-25h1095.7v24.9H1140.2z"/>
				</g>
			</g>
			<g>
				<defs>
					<path id="SVGID_14_" d="M1139.2,198.5c0,33.6-27.5,61.1-61.1,61.1H106.5c-33.6,0-61.1-27.5-61.1-61.1v-104
						c0-33.6,27.5-61.1,61.1-61.1h971.6c33.6,0,61.1,27.5,61.1,61.1V198.5z"/>
				</defs>
				<clipPath id="SVGID_15_">
					<use xlink:href="#SVGID_14_"  style="overflow:visible;"/>
				</clipPath>
				<g class="st170">
					<path class="st171" d="M1138.1,57.4c0,89.5-340.7,162.1-538.8,162.1S50.5,146.9,50.5,57.4c0-5.6,0.6-11.1,1.9-16.6
						c0.6-2.7,1.4-5.4,2.3-8.1c0.5-1.3,0.9-2.7,1.5-4v3.7h1076.5v-3.7c0.5,1.3,1,2.7,1.5,4c0.9,2.7,1.7,5.4,2.3,8.1
						C1137.5,46.2,1138.1,51.8,1138.1,57.4z"/>
				</g>
			</g>
			<g>
				<defs>
					<path id="SVGID_16_" d="M1139.2,198.5c0,33.6-27.5,61.1-61.1,61.1H106.5c-33.6,0-61.1-27.5-61.1-61.1v-104
						c0-33.6,27.5-61.1,61.1-61.1h971.6c33.6,0,61.1,27.5,61.1,61.1V198.5z"/>
				</defs>
				<clipPath id="SVGID_17_">
					<use xlink:href="#SVGID_16_"  style="overflow:visible;"/>
				</clipPath>
				<g class="st172">
					<path class="st173" d="M1125.7,57.4c0,86.4-335.1,156.5-526.5,156.5S62.7,143.8,62.7,57.4c0-10.8,2.4-21.3,7-31.5v6.6h1048.8
						v-6.6C1123.3,36,1125.7,46.6,1125.7,57.4z"/>
				</g>
			</g>
			<g>
				<defs>
					<path id="SVGID_18_" d="M1139.2,198.5c0,33.6-27.5,61.1-61.1,61.1H106.5c-33.6,0-61.1-27.5-61.1-61.1v-104
						c0-33.6,27.5-61.1,61.1-61.1h971.6c33.6,0,61.1,27.5,61.1,61.1V198.5z"/>
				</defs>
				<clipPath id="SVGID_19_">
					<use xlink:href="#SVGID_18_"  style="overflow:visible;"/>
				</clipPath>
				<g class="st174">
					<path class="st175" d="M1113.4,57.4c0,83.3-329.6,150.9-514.1,150.9S75.2,140.7,75.2,57.4C75.2,47,77.5,36.8,82,27v5.4h1024.6
						V27C1111,36.8,1113.4,47,1113.4,57.4z"/>
				</g>
			</g>
			<g>
				<defs>
					<path id="SVGID_20_" d="M1139.2,198.5c0,33.6-27.5,61.1-61.1,61.1H106.5c-33.6,0-61.1-27.5-61.1-61.1v-104
						c0-33.6,27.5-61.1,61.1-61.1h971.6c33.6,0,61.1,27.5,61.1,61.1V198.5z"/>
				</defs>
				<clipPath id="SVGID_21_">
					<use xlink:href="#SVGID_20_"  style="overflow:visible;"/>
				</clipPath>
				<g class="st176">
					<path class="st177" d="M1101,57.4c0,80.2-324,145.3-501.7,145.3S87.6,137.7,87.6,57.4c0-10,2.3-19.8,6.5-29.3v4.3h1000.3v-4.3
						C1098.7,37.5,1101,47.3,1101,57.4z"/>
				</g>
			</g>
			<g>
				<defs>
					<path id="SVGID_22_" d="M1139.2,198.5c0,33.6-27.5,61.1-61.1,61.1H106.5c-33.6,0-61.1-27.5-61.1-61.1v-104
						c0-33.6,27.5-61.1,61.1-61.1h971.6c33.6,0,61.1,27.5,61.1,61.1V198.5z"/>
				</defs>
				<clipPath id="SVGID_23_">
					<use xlink:href="#SVGID_22_"  style="overflow:visible;"/>
				</clipPath>
				<g class="st178">
					<path class="st179" d="M1088.6,57.4c0,77.2-318.5,139.7-489.3,139.7S100,134.6,100,57.4c0-9.6,2.2-19.1,6.3-28.2v3.2h976.1
						v-3.2C1086.4,38.3,1088.6,47.7,1088.6,57.4z"/>
				</g>
			</g>
			<g>
				<defs>
					<path id="SVGID_24_" d="M1139.2,198.5c0,33.6-27.5,61.1-61.1,61.1H106.5c-33.6,0-61.1-27.5-61.1-61.1v-104
						c0-33.6,27.5-61.1,61.1-61.1h971.6c33.6,0,61.1,27.5,61.1,61.1V198.5z"/>
				</defs>
				<clipPath id="SVGID_25_">
					<use xlink:href="#SVGID_24_"  style="overflow:visible;"/>
				</clipPath>
				<g class="st180">
					<path class="st181" d="M1076.2,57.4c0,74.1-313,134.1-477,134.1s-487-60-487-134.1c0-9.3,2.1-18.3,6-27v2.1h951.9v-2.1
						C1074.2,39.1,1076.2,48.1,1076.2,57.4z"/>
				</g>
			</g>
			<g>
				<defs>
					<path id="SVGID_26_" d="M1139.2,198.5c0,33.6-27.5,61.1-61.1,61.1H106.5c-33.6,0-61.1-27.5-61.1-61.1v-104
						c0-33.6,27.5-61.1,61.1-61.1h971.6c33.6,0,61.1,27.5,61.1,61.1V198.5z"/>
				</defs>
				<clipPath id="SVGID_27_">
					<use xlink:href="#SVGID_26_"  style="overflow:visible;"/>
				</clipPath>
				<g class="st182">
					<path class="st183" d="M1063.9,57.4c0,71-307.4,128.5-464.6,128.5S124.7,128.4,124.7,57.4c0-8.9,2-17.5,5.8-25.9v0.9h927.6
						v-0.9C1061.9,39.8,1063.9,48.5,1063.9,57.4z"/>
				</g>
			</g>
			<g>
				<defs>
					<path id="SVGID_28_" d="M1139.2,198.5c0,33.6-27.5,61.1-61.1,61.1H106.5c-33.6,0-61.1-27.5-61.1-61.1v-104
						c0-33.6,27.5-61.1,61.1-61.1h971.6c33.6,0,61.1,27.5,61.1,61.1V198.5z"/>
				</defs>
				<clipPath id="SVGID_29_">
					<use xlink:href="#SVGID_28_"  style="overflow:visible;"/>
				</clipPath>
				<g class="st184">
					<path class="st185" d="M1051.5,57.4c0,67.9-301.9,122.9-452.2,122.9s-462.2-55-462.2-122.9c0-8.5,1.9-16.8,5.5-24.8
						c0.9-2,1.9-4,3-5.9v5.8h897.3v-5.8c1.1,2,2.1,3.9,3,5.9C1049.6,40.6,1051.5,48.9,1051.5,57.4z"/>
				</g>
			</g>
			<g>
				<defs>
					<path id="SVGID_30_" d="M1139.2,198.5c0,33.6-27.5,61.1-61.1,61.1H106.5c-33.6,0-61.1-27.5-61.1-61.1v-104
						c0-33.6,27.5-61.1,61.1-61.1h971.6c33.6,0,61.1,27.5,61.1,61.1V198.5z"/>
				</defs>
				<clipPath id="SVGID_31_">
					<use xlink:href="#SVGID_30_"  style="overflow:visible;"/>
				</clipPath>
				<g class="st186">
					<path class="st187" d="M1039.1,57.4c0,64.8-296.3,117.4-439.8,117.4S149.4,122.2,149.4,57.4c0-8.1,1.8-16,5.3-23.7
						c0.9-1.9,1.8-3.8,2.9-5.7v4.4h873.3V28c1.1,1.9,2,3.8,2.9,5.7C1037.3,41.4,1039.1,49.3,1039.1,57.4z"/>
				</g>
			</g>
			<g>
				<defs>
					<path id="SVGID_32_" d="M1139.2,198.5c0,33.6-27.5,61.1-61.1,61.1H106.5c-33.6,0-61.1-27.5-61.1-61.1v-104
						c0-33.6,27.5-61.1,61.1-61.1h971.6c33.6,0,61.1,27.5,61.1,61.1V198.5z"/>
				</defs>
				<clipPath id="SVGID_33_">
					<use xlink:href="#SVGID_32_"  style="overflow:visible;"/>
				</clipPath>
				<g class="st188">
					<path class="st189" d="M1026.7,57.4c0,61.7-290.8,111.8-427.5,111.8s-437.5-50-437.5-111.8c0-7.7,1.7-15.2,5-22.5
						c0.8-1.8,1.7-3.6,2.8-5.4v3h849.4v-3c1,1.8,1.9,3.6,2.8,5.4C1025,42.1,1026.7,49.7,1026.7,57.4z"/>
				</g>
			</g>
			<g>
				<defs>
					<path id="SVGID_34_" d="M1139.2,198.5c0,33.6-27.5,61.1-61.1,61.1H106.5c-33.6,0-61.1-27.5-61.1-61.1v-104
						c0-33.6,27.5-61.1,61.1-61.1h971.6c33.6,0,61.1,27.5,61.1,61.1V198.5z"/>
				</defs>
				<clipPath id="SVGID_35_">
					<use xlink:href="#SVGID_34_"  style="overflow:visible;"/>
				</clipPath>
				<g class="st190">
					<path class="st191" d="M1014.4,57.4c0,58.6-285.3,106.2-415.1,106.2S174.2,116.1,174.2,57.4c0-7.3,1.6-14.5,4.8-21.4
						c1.6-3.5,3.5-6.9,5.8-10.2v6.6h819.1v-6.6c2.3,3.3,4.2,6.7,5.8,10.2C1012.7,42.9,1014.4,50,1014.4,57.4z"/>
				</g>
			</g>
			<g>
				<defs>
					<path id="SVGID_36_" d="M1139.2,198.5c0,33.6-27.5,61.1-61.1,61.1H106.5c-33.6,0-61.1-27.5-61.1-61.1v-104
						c0-33.6,27.5-61.1,61.1-61.1h971.6c33.6,0,61.1,27.5,61.1,61.1V198.5z"/>
				</defs>
				<clipPath id="SVGID_37_">
					<use xlink:href="#SVGID_36_"  style="overflow:visible;"/>
				</clipPath>
				<g class="st192">
					<path class="st193" d="M1002,57.4C1002,113,722.3,158,599.3,158S186.6,113,186.6,57.4c0-6.9,1.6-13.7,4.5-20.3
						c1.5-3.3,3.3-6.5,5.5-9.6v4.9H992v-4.9c2.2,3.1,4,6.4,5.5,9.6C1000.4,43.6,1002,50.4,1002,57.4z"/>
				</g>
			</g>
			<g>
				<defs>
					<path id="SVGID_38_" d="M1139.2,198.5c0,33.6-27.5,61.1-61.1,61.1H106.5c-33.6,0-61.1-27.5-61.1-61.1v-104
						c0-33.6,27.5-61.1,61.1-61.1h971.6c33.6,0,61.1,27.5,61.1,61.1V198.5z"/>
				</defs>
				<clipPath id="SVGID_39_">
					<use xlink:href="#SVGID_38_"  style="overflow:visible;"/>
				</clipPath>
				<g class="st194">
					<path class="st195" d="M989.6,57.4c0,52.5-274.2,95-390.4,95c-116.2,0-400.4-42.5-400.4-95c0-6.6,1.5-13,4.3-19.1
						c1.4-3.1,3.1-6.1,5.2-9.1v3.3h771.8v-3.3c2,3,3.8,6,5.2,9.1C988.2,44.4,989.6,50.8,989.6,57.4z"/>
				</g>
			</g>
			<g>
				<defs>
					<path id="SVGID_40_" d="M1139.2,198.5c0,33.6-27.5,61.1-61.1,61.1H106.5c-33.6,0-61.1-27.5-61.1-61.1v-104
						c0-33.6,27.5-61.1,61.1-61.1h971.6c33.6,0,61.1,27.5,61.1,61.1V198.5z"/>
				</defs>
				<clipPath id="SVGID_41_">
					<use xlink:href="#SVGID_40_"  style="overflow:visible;"/>
				</clipPath>
				<g class="st196">
					<path class="st197" d="M977.3,57.4c0,49.4-268.6,89.4-378,89.4c-109.3,0-388-40-388-89.4c0-6.2,1.4-12.2,4-18
						c1.3-2.9,3-5.8,4.9-8.6v1.6h748.2v-1.6c1.9,2.8,3.6,5.7,4.9,8.6C975.9,45.2,977.3,51.2,977.3,57.4z"/>
				</g>
			</g>
			<g>
				<defs>
					<path id="SVGID_42_" d="M1139.2,198.5c0,33.6-27.5,61.1-61.1,61.1H106.5c-33.6,0-61.1-27.5-61.1-61.1v-104
						c0-33.6,27.5-61.1,61.1-61.1h971.6c33.6,0,61.1,27.5,61.1,61.1V198.5z"/>
				</defs>
				<clipPath id="SVGID_43_">
					<use xlink:href="#SVGID_42_"  style="overflow:visible;"/>
				</clipPath>
				<g class="st198">
					<path class="st199" d="M964.9,57.4c0,46.3-263.1,83.8-365.6,83.8s-375.6-37.5-375.6-83.8c0-5.8,1.3-11.4,3.8-16.9
						c1.2-2.7,2.8-5.4,4.6-8c0.9-1.3,1.9-2.6,2.9-3.9v3.8h718.7v-3.8c1,1.3,2,2.6,2.9,3.9c1.8,2.6,3.3,5.3,4.6,8
						C963.6,45.9,964.9,51.6,964.9,57.4z"/>
				</g>
			</g>
			<g>
				<defs>
					<path id="SVGID_44_" d="M1139.2,198.5c0,33.6-27.5,61.1-61.1,61.1H106.5c-33.6,0-61.1-27.5-61.1-61.1v-104
						c0-33.6,27.5-61.1,61.1-61.1h971.6c33.6,0,61.1,27.5,61.1,61.1V198.5z"/>
				</defs>
				<clipPath id="SVGID_45_">
					<use xlink:href="#SVGID_44_"  style="overflow:visible;"/>
				</clipPath>
				<g class="st200">
					<path class="st201" d="M952.5,57.4c0,43.2-257.6,78.2-353.2,78.2c-95.7,0-363.2-35-363.2-78.2c0-10.8,4.8-21.1,13.6-30.5v5.5
						h689.2v-5.5C947.7,36.3,952.5,46.6,952.5,57.4z"/>
				</g>
			</g>
			<g>
				<defs>
					<path id="SVGID_46_" d="M1139.2,198.5c0,33.6-27.5,61.1-61.1,61.1H106.5c-33.6,0-61.1-27.5-61.1-61.1v-104
						c0-33.6,27.5-61.1,61.1-61.1h971.6c33.6,0,61.1,27.5,61.1,61.1V198.5z"/>
				</defs>
				<clipPath id="SVGID_47_">
					<use xlink:href="#SVGID_46_"  style="overflow:visible;"/>
				</clipPath>
				<g class="st202">
					<path class="st203" d="M940.1,57.4c0,40.1-252,72.6-340.9,72.6S248.3,97.5,248.3,57.4c0-10,4.5-19.6,12.6-28.3v3.3h666.4v-3.3
						C935.6,37.8,940.1,47.3,940.1,57.4z"/>
				</g>
			</g>
			<g>
				<defs>
					<path id="SVGID_48_" d="M1139.2,198.5c0,33.6-27.5,61.1-61.1,61.1H106.5c-33.6,0-61.1-27.5-61.1-61.1v-104
						c0-33.6,27.5-61.1,61.1-61.1h971.6c33.6,0,61.1,27.5,61.1,61.1V198.5z"/>
				</defs>
				<clipPath id="SVGID_49_">
					<use xlink:href="#SVGID_48_"  style="overflow:visible;"/>
				</clipPath>
				<g class="st204">
					<path class="st205" d="M927.8,57.4c0,37-246.5,67.1-328.5,67.1s-338.5-30-338.5-67.1c0-9.3,4.2-18.1,11.7-26.1v1.1h643.6v-1.1
						C923.6,39.3,927.8,48.1,927.8,57.4z"/>
				</g>
			</g>
			<g>
				<defs>
					<path id="SVGID_50_" d="M1139.2,198.5c0,33.6-27.5,61.1-61.1,61.1H106.5c-33.6,0-61.1-27.5-61.1-61.1v-104
						c0-33.6,27.5-61.1,61.1-61.1h971.6c33.6,0,61.1,27.5,61.1,61.1V198.5z"/>
				</defs>
				<clipPath id="SVGID_51_">
					<use xlink:href="#SVGID_50_"  style="overflow:visible;"/>
				</clipPath>
				<g class="st206">
					<path class="st207" d="M915.4,57.4c0,33.9-240.9,61.5-316.1,61.5S273.2,91.4,273.2,57.4c0-8.5,3.8-16.6,10.7-23.9
						c1.7-1.8,3.6-3.6,5.7-5.4v4.3H899v-4.3c2.1,1.7,4,3.5,5.7,5.4C911.6,40.8,915.4,48.9,915.4,57.4z"/>
				</g>
			</g>
			<g>
				<defs>
					<path id="SVGID_52_" d="M1139.2,198.5c0,33.6-27.5,61.1-61.1,61.1H106.5c-33.6,0-61.1-27.5-61.1-61.1v-104
						c0-33.6,27.5-61.1,61.1-61.1h971.6c33.6,0,61.1,27.5,61.1,61.1V198.5z"/>
				</defs>
				<clipPath id="SVGID_53_">
					<use xlink:href="#SVGID_52_"  style="overflow:visible;"/>
				</clipPath>
				<g class="st208">
					<path class="st209" d="M903,57.4c0,30.9-235.4,55.9-303.7,55.9s-313.7-25-313.7-55.9c0-7.7,3.5-15.1,9.7-21.8
						c3.1-3.3,7-6.5,11.4-9.5v6.3h575.2v-6.3c4.4,3,8.3,6.1,11.4,9.5C899.6,42.3,903,49.7,903,57.4z"/>
				</g>
			</g>
			<g>
				<defs>
					<path id="SVGID_54_" d="M1139.2,198.5c0,33.6-27.5,61.1-61.1,61.1H106.5c-33.6,0-61.1-27.5-61.1-61.1v-104
						c0-33.6,27.5-61.1,61.1-61.1h971.6c33.6,0,61.1,27.5,61.1,61.1V198.5z"/>
				</defs>
				<clipPath id="SVGID_55_">
					<use xlink:href="#SVGID_54_"  style="overflow:visible;"/>
				</clipPath>
				<g class="st210">
					<path class="st211" d="M890.6,57.4c0,27.8-229.9,50.3-291.4,50.3S297.8,85.2,297.8,57.4c0-6.9,3.1-13.6,8.8-19.6
						c2.8-3,6.3-5.9,10.3-8.5v3.1h554.7v-3.1c4,2.7,7.4,5.5,10.3,8.5C887.5,43.8,890.6,50.4,890.6,57.4z"/>
				</g>
			</g>
			<g>
				<defs>
					<path id="SVGID_56_" d="M1139.2,198.5c0,33.6-27.5,61.1-61.1,61.1H106.5c-33.6,0-61.1-27.5-61.1-61.1v-104
						c0-33.6,27.5-61.1,61.1-61.1h971.6c33.6,0,61.1,27.5,61.1,61.1V198.5z"/>
				</defs>
				<clipPath id="SVGID_57_">
					<use xlink:href="#SVGID_56_"  style="overflow:visible;"/>
				</clipPath>
				<g class="st212">
					<path class="st213" d="M878.3,57.4c0,24.7-224.3,44.7-279,44.7s-289-20-289-44.7c0-12.3,11.1-23.5,29-31.6v6.6h510v-6.6
						C867.2,33.8,878.3,45,878.3,57.4z"/>
				</g>
			</g>
			<g>
				<defs>
					<path id="SVGID_58_" d="M1139.2,198.5c0,33.6-27.5,61.1-61.1,61.1H106.5c-33.6,0-61.1-27.5-61.1-61.1v-104
						c0-33.6,27.5-61.1,61.1-61.1h971.6c33.6,0,61.1,27.5,61.1,61.1V198.5z"/>
				</defs>
				<clipPath id="SVGID_59_">
					<use xlink:href="#SVGID_58_"  style="overflow:visible;"/>
				</clipPath>
				<g class="st214">
					<path class="st215" d="M865.9,57.4c0,21.6-218.8,39.1-266.6,39.1S322.7,79,322.7,57.4c0-10.8,199.7-20.6,215.4-27.7v2.7h302.5
						v-2.7C856.2,36.8,865.9,46.6,865.9,57.4z"/>
				</g>
			</g>
			<g>
				<defs>
					<path id="SVGID_60_" d="M1139.2,198.5c0,33.6-27.5,61.1-61.1,61.1H106.5c-33.6,0-61.1-27.5-61.1-61.1v-104
						c0-33.6,27.5-61.1,61.1-61.1h971.6c33.6,0,61.1,27.5,61.1,61.1V198.5z"/>
				</defs>
				<clipPath id="SVGID_61_">
					<use xlink:href="#SVGID_60_"  style="overflow:visible;"/>
				</clipPath>
				<g class="st216">
					<path class="st217" d="M853.5,57.4c0,18.5-213.2,33.5-254.3,33.5s-264.3-15-264.3-33.5c0-9.3,198.3-17.6,211.8-23.7
						c6.7-3,14.7-5.5,23.6-7.2v5.9h237.8v-5.9c8.9,1.7,16.9,4.2,23.6,7.2C845.2,39.7,853.5,48.1,853.5,57.4z"/>
				</g>
			</g>
			<g>
				<defs>
					<path id="SVGID_62_" d="M1139.2,198.5c0,33.6-27.5,61.1-61.1,61.1H106.5c-33.6,0-61.1-27.5-61.1-61.1v-104
						c0-33.6,27.5-61.1,61.1-61.1h971.6c33.6,0,61.1,27.5,61.1,61.1V198.5z"/>
				</defs>
				<clipPath id="SVGID_63_">
					<use xlink:href="#SVGID_62_"  style="overflow:visible;"/>
				</clipPath>
				<g class="st218">
					<path class="st219" d="M841.1,57.4c0,15.4-207.7,27.9-241.9,27.9s-61.9-12.5-61.9-27.9s27.7-27.9,61.9-27.9
						S841.1,41.9,841.1,57.4z"/>
				</g>
			</g>
			<g>
				<defs>
					<path id="SVGID_64_" d="M1139.2,198.5c0,33.6-27.5,61.1-61.1,61.1H106.5c-33.6,0-61.1-27.5-61.1-61.1v-104
						c0-33.6,27.5-61.1,61.1-61.1h971.6c33.6,0,61.1,27.5,61.1,61.1V198.5z"/>
				</defs>
				<clipPath id="SVGID_65_">
					<use xlink:href="#SVGID_64_"  style="overflow:visible;"/>
				</clipPath>
				<g class="st220">
					<path class="st221" d="M828.8,57.4c0,12.3-202.2,22.4-229.5,22.4s-49.5-10-49.5-22.4c0-12.3,22.2-22.4,49.5-22.4
						C626.6,35,828.8,45,828.8,57.4z"/>
				</g>
			</g>
			<g>
				<defs>
					<path id="SVGID_66_" d="M1139.2,198.5c0,33.6-27.5,61.1-61.1,61.1H106.5c-33.6,0-61.1-27.5-61.1-61.1v-104
						c0-33.6,27.5-61.1,61.1-61.1h971.6c33.6,0,61.1,27.5,61.1,61.1V198.5z"/>
				</defs>
				<clipPath id="SVGID_67_">
					<use xlink:href="#SVGID_66_"  style="overflow:visible;"/>
				</clipPath>
				<g class="st222">
					<path class="st223" d="M816.4,57.4c0,9.3-196.6,16.8-217.1,16.8s-37.1-7.5-37.1-16.8s16.6-16.8,37.1-16.8
						C619.8,40.6,816.4,48.1,816.4,57.4z"/>
				</g>
			</g>
			<g>
				<defs>
					<path id="SVGID_68_" d="M1139.2,198.5c0,33.6-27.5,61.1-61.1,61.1H106.5c-33.6,0-61.1-27.5-61.1-61.1v-104
						c0-33.6,27.5-61.1,61.1-61.1h971.6c33.6,0,61.1,27.5,61.1,61.1V198.5z"/>
				</defs>
				<clipPath id="SVGID_69_">
					<use xlink:href="#SVGID_68_"  style="overflow:visible;"/>
				</clipPath>
				<g class="st224">
					<ellipse class="st225" cx="599.3" cy="57.4" rx="24.7" ry="11.2"/>
				</g>
			</g>
			<g>
				<defs>
					<path id="SVGID_70_" d="M1139.2,198.5c0,33.6-27.5,61.1-61.1,61.1H106.5c-33.6,0-61.1-27.5-61.1-61.1v-104
						c0-33.6,27.5-61.1,61.1-61.1h971.6c33.6,0,61.1,27.5,61.1,61.1V198.5z"/>
				</defs>
				<clipPath id="SVGID_71_">
					<use xlink:href="#SVGID_70_"  style="overflow:visible;"/>
				</clipPath>
				<g class="st226">
					<ellipse class="st227" cx="599.3" cy="57.4" rx="12.4" ry="5.6"/>
				</g>
			</g>
		</g>
	</g>
	<g>
		<ellipse class="st66" cx="103.7" cy="69.7" rx="21.3" ry="17.6"/>
	</g>
	<g>
		<ellipse class="st66" cx="1082.5" cy="223.2" rx="15.1" ry="13.8"/>
	</g>
	<g>
		<ellipse class="st66" cx="1105.1" cy="159.2" rx="17.6" ry="32.6"/>
	</g>
	<g class="st228">
		<g>
			<g>
				<g id="SVGID_6_">
					<path class="st229" d="M1139.2,198.5c0,33.6-27.5,61.1-61.1,61.1H106.5c-33.6,0-61.1-27.5-61.1-61.1v-104
						c0-33.6,27.5-61.1,61.1-61.1h971.6c33.6,0,61.1,27.5,61.1,61.1V198.5z"/>
				</g>
			</g>
			<g>
				<defs>
					<path id="SVGID_72_" d="M1139.2,198.5c0,33.6-27.5,61.1-61.1,61.1H106.5c-33.6,0-61.1-27.5-61.1-61.1v-104
						c0-33.6,27.5-61.1,61.1-61.1h971.6c33.6,0,61.1,27.5,61.1,61.1V198.5z"/>
				</defs>
				<clipPath id="SVGID_73_">
					<use xlink:href="#SVGID_72_"  style="overflow:visible;"/>
				</clipPath>
				<g class="st230">
					<rect x="45.5" y="33.4" class="st229" width="1093.7" height="226.2"/>
				</g>
			</g>
			<g>
				<defs>
					<path id="SVGID_74_" d="M1139.2,198.5c0,33.6-27.5,61.1-61.1,61.1H106.5c-33.6,0-61.1-27.5-61.1-61.1v-104
						c0-33.6,27.5-61.1,61.1-61.1h971.6c33.6,0,61.1,27.5,61.1,61.1V198.5z"/>
				</defs>
				<clipPath id="SVGID_75_">
					<use xlink:href="#SVGID_74_"  style="overflow:visible;"/>
				</clipPath>
				<g class="st231">
					<path class="st229" d="M1140.2,57.4v34.9v16.6h5.4c-3.7,5.4-8,10.7-12.9,15.9c-19.4,20.7-47.5,39.4-82.2,55.1
						c-69.4,31.3-345.3,50.7-451.2,50.7c-105.9,0-391.8-19.4-461.2-50.7c-34.7-15.7-62.8-34.3-82.2-55.1
						c-4.9-5.2-9.2-10.5-12.9-15.9h1.5V32.4h1095.7L1140.2,57.4L1140.2,57.4z"/>
				</g>
			</g>
			<g>
				<defs>
					<path id="SVGID_76_" d="M1139.2,198.5c0,33.6-27.5,61.1-61.1,61.1H106.5c-33.6,0-61.1-27.5-61.1-61.1v-104
						c0-33.6,27.5-61.1,61.1-61.1h971.6c33.6,0,61.1,27.5,61.1,61.1V198.5z"/>
				</defs>
				<clipPath id="SVGID_77_">
					<use xlink:href="#SVGID_76_"  style="overflow:visible;"/>
				</clipPath>
				<g class="st232">
					<path class="st229" d="M1140.2,57.4v33.8h2.7c-4.9,10.9-12.2,21.4-21.6,31.5c-18.8,20.1-46,38.1-79.6,53.3
						c-67.2,30.3-340,49.1-442.5,49.1C394.2,225.1,38,150,38,57.5h6.4v-25h1095.7v24.9H1140.2z"/>
				</g>
			</g>
			<g>
				<defs>
					<path id="SVGID_78_" d="M1139.2,198.5c0,33.6-27.5,61.1-61.1,61.1H106.5c-33.6,0-61.1-27.5-61.1-61.1v-104
						c0-33.6,27.5-61.1,61.1-61.1h971.6c33.6,0,61.1,27.5,61.1,61.1V198.5z"/>
				</defs>
				<clipPath id="SVGID_79_">
					<use xlink:href="#SVGID_78_"  style="overflow:visible;"/>
				</clipPath>
				<g class="st233">
					<path class="st229" d="M1138.1,57.4c0,89.5-340.7,162.1-538.8,162.1S50.5,146.9,50.5,57.4c0-5.6,0.6-11.1,1.9-16.6
						c0.6-2.7,1.4-5.4,2.3-8.1c0.5-1.3,0.9-2.7,1.5-4v3.7h1076.5v-3.7c0.5,1.3,1,2.7,1.5,4c0.9,2.7,1.7,5.4,2.3,8.1
						C1137.5,46.2,1138.1,51.8,1138.1,57.4z"/>
				</g>
			</g>
			<g>
				<defs>
					<path id="SVGID_80_" d="M1139.2,198.5c0,33.6-27.5,61.1-61.1,61.1H106.5c-33.6,0-61.1-27.5-61.1-61.1v-104
						c0-33.6,27.5-61.1,61.1-61.1h971.6c33.6,0,61.1,27.5,61.1,61.1V198.5z"/>
				</defs>
				<clipPath id="SVGID_81_">
					<use xlink:href="#SVGID_80_"  style="overflow:visible;"/>
				</clipPath>
				<g class="st234">
					<path class="st229" d="M1125.7,57.4c0,86.4-335.1,156.5-526.5,156.5S62.7,143.8,62.7,57.4c0-10.8,2.4-21.3,7-31.5v6.6h1048.8
						v-6.6C1123.3,36,1125.7,46.6,1125.7,57.4z"/>
				</g>
			</g>
			<g>
				<defs>
					<path id="SVGID_82_" d="M1139.2,198.5c0,33.6-27.5,61.1-61.1,61.1H106.5c-33.6,0-61.1-27.5-61.1-61.1v-104
						c0-33.6,27.5-61.1,61.1-61.1h971.6c33.6,0,61.1,27.5,61.1,61.1V198.5z"/>
				</defs>
				<clipPath id="SVGID_83_">
					<use xlink:href="#SVGID_82_"  style="overflow:visible;"/>
				</clipPath>
				<g class="st235">
					<path class="st229" d="M1113.4,57.4c0,83.3-329.6,150.9-514.1,150.9S75.2,140.7,75.2,57.4C75.2,47,77.5,36.8,82,27v5.4h1024.6
						V27C1111,36.8,1113.4,47,1113.4,57.4z"/>
				</g>
			</g>
			<g>
				<defs>
					<path id="SVGID_84_" d="M1139.2,198.5c0,33.6-27.5,61.1-61.1,61.1H106.5c-33.6,0-61.1-27.5-61.1-61.1v-104
						c0-33.6,27.5-61.1,61.1-61.1h971.6c33.6,0,61.1,27.5,61.1,61.1V198.5z"/>
				</defs>
				<clipPath id="SVGID_85_">
					<use xlink:href="#SVGID_84_"  style="overflow:visible;"/>
				</clipPath>
				<g class="st236">
					<path class="st229" d="M1101,57.4c0,80.2-324,145.3-501.7,145.3S87.6,137.7,87.6,57.4c0-10,2.3-19.8,6.5-29.3v4.3h1000.3v-4.3
						C1098.7,37.5,1101,47.3,1101,57.4z"/>
				</g>
			</g>
			<g>
				<defs>
					<path id="SVGID_86_" d="M1139.2,198.5c0,33.6-27.5,61.1-61.1,61.1H106.5c-33.6,0-61.1-27.5-61.1-61.1v-104
						c0-33.6,27.5-61.1,61.1-61.1h971.6c33.6,0,61.1,27.5,61.1,61.1V198.5z"/>
				</defs>
				<clipPath id="SVGID_87_">
					<use xlink:href="#SVGID_86_"  style="overflow:visible;"/>
				</clipPath>
				<g class="st237">
					<path class="st229" d="M1088.6,57.4c0,77.2-318.5,139.7-489.3,139.7S100,134.6,100,57.4c0-9.6,2.2-19.1,6.3-28.2v3.2h976.1
						v-3.2C1086.4,38.3,1088.6,47.7,1088.6,57.4z"/>
				</g>
			</g>
			<g>
				<defs>
					<path id="SVGID_88_" d="M1139.2,198.5c0,33.6-27.5,61.1-61.1,61.1H106.5c-33.6,0-61.1-27.5-61.1-61.1v-104
						c0-33.6,27.5-61.1,61.1-61.1h971.6c33.6,0,61.1,27.5,61.1,61.1V198.5z"/>
				</defs>
				<clipPath id="SVGID_89_">
					<use xlink:href="#SVGID_88_"  style="overflow:visible;"/>
				</clipPath>
				<g class="st238">
					<path class="st229" d="M1076.2,57.4c0,74.1-313,134.1-477,134.1s-487-60-487-134.1c0-9.3,2.1-18.3,6-27v2.1h951.9v-2.1
						C1074.2,39.1,1076.2,48.1,1076.2,57.4z"/>
				</g>
			</g>
			<g>
				<defs>
					<path id="SVGID_90_" d="M1139.2,198.5c0,33.6-27.5,61.1-61.1,61.1H106.5c-33.6,0-61.1-27.5-61.1-61.1v-104
						c0-33.6,27.5-61.1,61.1-61.1h971.6c33.6,0,61.1,27.5,61.1,61.1V198.5z"/>
				</defs>
				<clipPath id="SVGID_91_">
					<use xlink:href="#SVGID_90_"  style="overflow:visible;"/>
				</clipPath>
				<g class="st239">
					<path class="st229" d="M1063.9,57.4c0,71-307.4,128.5-464.6,128.5S124.7,128.4,124.7,57.4c0-8.9,2-17.5,5.8-25.9v0.9h927.6
						v-0.9C1061.9,39.8,1063.9,48.5,1063.9,57.4z"/>
				</g>
			</g>
			<g>
				<defs>
					<path id="SVGID_92_" d="M1139.2,198.5c0,33.6-27.5,61.1-61.1,61.1H106.5c-33.6,0-61.1-27.5-61.1-61.1v-104
						c0-33.6,27.5-61.1,61.1-61.1h971.6c33.6,0,61.1,27.5,61.1,61.1V198.5z"/>
				</defs>
				<clipPath id="SVGID_93_">
					<use xlink:href="#SVGID_92_"  style="overflow:visible;"/>
				</clipPath>
				<g class="st240">
					<path class="st229" d="M1051.5,57.4c0,67.9-301.9,122.9-452.2,122.9s-462.2-55-462.2-122.9c0-8.5,1.9-16.8,5.5-24.8
						c0.9-2,1.9-4,3-5.9v5.8h897.3v-5.8c1.1,2,2.1,3.9,3,5.9C1049.6,40.6,1051.5,48.9,1051.5,57.4z"/>
				</g>
			</g>
			<g>
				<defs>
					<path id="SVGID_94_" d="M1139.2,198.5c0,33.6-27.5,61.1-61.1,61.1H106.5c-33.6,0-61.1-27.5-61.1-61.1v-104
						c0-33.6,27.5-61.1,61.1-61.1h971.6c33.6,0,61.1,27.5,61.1,61.1V198.5z"/>
				</defs>
				<clipPath id="SVGID_95_">
					<use xlink:href="#SVGID_94_"  style="overflow:visible;"/>
				</clipPath>
				<g class="st241">
					<path class="st229" d="M1039.1,57.4c0,64.8-296.3,117.4-439.8,117.4S149.4,122.2,149.4,57.4c0-8.1,1.8-16,5.3-23.7
						c0.9-1.9,1.8-3.8,2.9-5.7v4.4h873.3V28c1.1,1.9,2,3.8,2.9,5.7C1037.3,41.4,1039.1,49.3,1039.1,57.4z"/>
				</g>
			</g>
			<g>
				<defs>
					<path id="SVGID_96_" d="M1139.2,198.5c0,33.6-27.5,61.1-61.1,61.1H106.5c-33.6,0-61.1-27.5-61.1-61.1v-104
						c0-33.6,27.5-61.1,61.1-61.1h971.6c33.6,0,61.1,27.5,61.1,61.1V198.5z"/>
				</defs>
				<clipPath id="SVGID_97_">
					<use xlink:href="#SVGID_96_"  style="overflow:visible;"/>
				</clipPath>
				<g class="st242">
					<path class="st229" d="M1026.7,57.4c0,61.7-290.8,111.8-427.5,111.8s-437.5-50-437.5-111.8c0-7.7,1.7-15.2,5-22.5
						c0.8-1.8,1.7-3.6,2.8-5.4v3h849.4v-3c1,1.8,1.9,3.6,2.8,5.4C1025,42.1,1026.7,49.7,1026.7,57.4z"/>
				</g>
			</g>
			<g>
				<defs>
					<path id="SVGID_98_" d="M1139.2,198.5c0,33.6-27.5,61.1-61.1,61.1H106.5c-33.6,0-61.1-27.5-61.1-61.1v-104
						c0-33.6,27.5-61.1,61.1-61.1h971.6c33.6,0,61.1,27.5,61.1,61.1V198.5z"/>
				</defs>
				<clipPath id="SVGID_99_">
					<use xlink:href="#SVGID_98_"  style="overflow:visible;"/>
				</clipPath>
				<g class="st243">
					<path class="st229" d="M1014.4,57.4c0,58.6-285.3,106.2-415.1,106.2S174.2,116.1,174.2,57.4c0-7.3,1.6-14.5,4.8-21.4
						c1.6-3.5,3.5-6.9,5.8-10.2v6.6h819.1v-6.6c2.3,3.3,4.2,6.7,5.8,10.2C1012.7,42.9,1014.4,50,1014.4,57.4z"/>
				</g>
			</g>
			<g>
				<defs>
					<path id="SVGID_100_" d="M1139.2,198.5c0,33.6-27.5,61.1-61.1,61.1H106.5c-33.6,0-61.1-27.5-61.1-61.1v-104
						c0-33.6,27.5-61.1,61.1-61.1h971.6c33.6,0,61.1,27.5,61.1,61.1V198.5z"/>
				</defs>
				<clipPath id="SVGID_101_">
					<use xlink:href="#SVGID_100_"  style="overflow:visible;"/>
				</clipPath>
				<g class="st244">
					<path class="st229" d="M1002,57.4C1002,113,722.3,158,599.3,158S186.6,113,186.6,57.4c0-6.9,1.6-13.7,4.5-20.3
						c1.5-3.3,3.3-6.5,5.5-9.6v4.9H992v-4.9c2.2,3.1,4,6.4,5.5,9.6C1000.4,43.6,1002,50.4,1002,57.4z"/>
				</g>
			</g>
			<g>
				<defs>
					<path id="SVGID_102_" d="M1139.2,198.5c0,33.6-27.5,61.1-61.1,61.1H106.5c-33.6,0-61.1-27.5-61.1-61.1v-104
						c0-33.6,27.5-61.1,61.1-61.1h971.6c33.6,0,61.1,27.5,61.1,61.1V198.5z"/>
				</defs>
				<clipPath id="SVGID_103_">
					<use xlink:href="#SVGID_102_"  style="overflow:visible;"/>
				</clipPath>
				<g class="st245">
					<path class="st229" d="M989.6,57.4c0,52.5-274.2,95-390.4,95c-116.2,0-400.4-42.5-400.4-95c0-6.6,1.5-13,4.3-19.1
						c1.4-3.1,3.1-6.1,5.2-9.1v3.3h771.8v-3.3c2,3,3.8,6,5.2,9.1C988.2,44.4,989.6,50.8,989.6,57.4z"/>
				</g>
			</g>
			<g>
				<defs>
					<path id="SVGID_104_" d="M1139.2,198.5c0,33.6-27.5,61.1-61.1,61.1H106.5c-33.6,0-61.1-27.5-61.1-61.1v-104
						c0-33.6,27.5-61.1,61.1-61.1h971.6c33.6,0,61.1,27.5,61.1,61.1V198.5z"/>
				</defs>
				<clipPath id="SVGID_105_">
					<use xlink:href="#SVGID_104_"  style="overflow:visible;"/>
				</clipPath>
				<g class="st246">
					<path class="st229" d="M977.3,57.4c0,49.4-268.6,89.4-378,89.4c-109.3,0-388-40-388-89.4c0-6.2,1.4-12.2,4-18
						c1.3-2.9,3-5.8,4.9-8.6v1.6h748.2v-1.6c1.9,2.8,3.6,5.7,4.9,8.6C975.9,45.2,977.3,51.2,977.3,57.4z"/>
				</g>
			</g>
			<g>
				<defs>
					<path id="SVGID_106_" d="M1139.2,198.5c0,33.6-27.5,61.1-61.1,61.1H106.5c-33.6,0-61.1-27.5-61.1-61.1v-104
						c0-33.6,27.5-61.1,61.1-61.1h971.6c33.6,0,61.1,27.5,61.1,61.1V198.5z"/>
				</defs>
				<clipPath id="SVGID_107_">
					<use xlink:href="#SVGID_106_"  style="overflow:visible;"/>
				</clipPath>
				<g class="st247">
					<path class="st229" d="M964.9,57.4c0,46.3-263.1,83.8-365.6,83.8s-375.6-37.5-375.6-83.8c0-5.8,1.3-11.4,3.8-16.9
						c1.2-2.7,2.8-5.4,4.6-8c0.9-1.3,1.9-2.6,2.9-3.9v3.8h718.7v-3.8c1,1.3,2,2.6,2.9,3.9c1.8,2.6,3.3,5.3,4.6,8
						C963.6,45.9,964.9,51.6,964.9,57.4z"/>
				</g>
			</g>
			<g>
				<defs>
					<path id="SVGID_108_" d="M1139.2,198.5c0,33.6-27.5,61.1-61.1,61.1H106.5c-33.6,0-61.1-27.5-61.1-61.1v-104
						c0-33.6,27.5-61.1,61.1-61.1h971.6c33.6,0,61.1,27.5,61.1,61.1V198.5z"/>
				</defs>
				<clipPath id="SVGID_109_">
					<use xlink:href="#SVGID_108_"  style="overflow:visible;"/>
				</clipPath>
				<g class="st248">
					<path class="st229" d="M952.5,57.4c0,43.2-257.6,78.2-353.2,78.2c-95.7,0-363.2-35-363.2-78.2c0-10.8,4.8-21.1,13.6-30.5v5.5
						h689.2v-5.5C947.7,36.3,952.5,46.6,952.5,57.4z"/>
				</g>
			</g>
			<g>
				<defs>
					<path id="SVGID_110_" d="M1139.2,198.5c0,33.6-27.5,61.1-61.1,61.1H106.5c-33.6,0-61.1-27.5-61.1-61.1v-104
						c0-33.6,27.5-61.1,61.1-61.1h971.6c33.6,0,61.1,27.5,61.1,61.1V198.5z"/>
				</defs>
				<clipPath id="SVGID_111_">
					<use xlink:href="#SVGID_110_"  style="overflow:visible;"/>
				</clipPath>
				<g class="st249">
					<path class="st229" d="M940.1,57.4c0,40.1-252,72.6-340.9,72.6S248.3,97.5,248.3,57.4c0-10,4.5-19.6,12.6-28.3v3.3h666.4v-3.3
						C935.6,37.8,940.1,47.3,940.1,57.4z"/>
				</g>
			</g>
			<g>
				<defs>
					<path id="SVGID_112_" d="M1139.2,198.5c0,33.6-27.5,61.1-61.1,61.1H106.5c-33.6,0-61.1-27.5-61.1-61.1v-104
						c0-33.6,27.5-61.1,61.1-61.1h971.6c33.6,0,61.1,27.5,61.1,61.1V198.5z"/>
				</defs>
				<clipPath id="SVGID_113_">
					<use xlink:href="#SVGID_112_"  style="overflow:visible;"/>
				</clipPath>
				<g class="st250">
					<path class="st229" d="M927.8,57.4c0,37-246.5,67.1-328.5,67.1s-338.5-30-338.5-67.1c0-9.3,4.2-18.1,11.7-26.1v1.1h643.6v-1.1
						C923.6,39.3,927.8,48.1,927.8,57.4z"/>
				</g>
			</g>
			<g>
				<defs>
					<path id="SVGID_114_" d="M1139.2,198.5c0,33.6-27.5,61.1-61.1,61.1H106.5c-33.6,0-61.1-27.5-61.1-61.1v-104
						c0-33.6,27.5-61.1,61.1-61.1h971.6c33.6,0,61.1,27.5,61.1,61.1V198.5z"/>
				</defs>
				<clipPath id="SVGID_115_">
					<use xlink:href="#SVGID_114_"  style="overflow:visible;"/>
				</clipPath>
				<g class="st251">
					<path class="st229" d="M915.4,57.4c0,33.9-240.9,61.5-316.1,61.5S273.2,91.4,273.2,57.4c0-8.5,3.8-16.6,10.7-23.9
						c1.7-1.8,3.6-3.6,5.7-5.4v4.3H899v-4.3c2.1,1.7,4,3.5,5.7,5.4C911.6,40.8,915.4,48.9,915.4,57.4z"/>
				</g>
			</g>
			<g>
				<defs>
					<path id="SVGID_116_" d="M1139.2,198.5c0,33.6-27.5,61.1-61.1,61.1H106.5c-33.6,0-61.1-27.5-61.1-61.1v-104
						c0-33.6,27.5-61.1,61.1-61.1h971.6c33.6,0,61.1,27.5,61.1,61.1V198.5z"/>
				</defs>
				<clipPath id="SVGID_117_">
					<use xlink:href="#SVGID_116_"  style="overflow:visible;"/>
				</clipPath>
				<g class="st252">
					<path class="st229" d="M903,57.4c0,30.9-235.4,55.9-303.7,55.9s-313.7-25-313.7-55.9c0-7.7,3.5-15.1,9.7-21.8
						c3.1-3.3,7-6.5,11.4-9.5v6.3h575.2v-6.3c4.4,3,8.3,6.1,11.4,9.5C899.6,42.3,903,49.7,903,57.4z"/>
				</g>
			</g>
			<g>
				<defs>
					<path id="SVGID_118_" d="M1139.2,198.5c0,33.6-27.5,61.1-61.1,61.1H106.5c-33.6,0-61.1-27.5-61.1-61.1v-104
						c0-33.6,27.5-61.1,61.1-61.1h971.6c33.6,0,61.1,27.5,61.1,61.1V198.5z"/>
				</defs>
				<clipPath id="SVGID_119_">
					<use xlink:href="#SVGID_118_"  style="overflow:visible;"/>
				</clipPath>
				<g class="st253">
					<path class="st229" d="M890.6,57.4c0,27.8-229.9,50.3-291.4,50.3S297.8,85.2,297.8,57.4c0-6.9,3.1-13.6,8.8-19.6
						c2.8-3,6.3-5.9,10.3-8.5v3.1h554.7v-3.1c4,2.7,7.4,5.5,10.3,8.5C887.5,43.8,890.6,50.4,890.6,57.4z"/>
				</g>
			</g>
			<g>
				<defs>
					<path id="SVGID_120_" d="M1139.2,198.5c0,33.6-27.5,61.1-61.1,61.1H106.5c-33.6,0-61.1-27.5-61.1-61.1v-104
						c0-33.6,27.5-61.1,61.1-61.1h971.6c33.6,0,61.1,27.5,61.1,61.1V198.5z"/>
				</defs>
				<clipPath id="SVGID_121_">
					<use xlink:href="#SVGID_120_"  style="overflow:visible;"/>
				</clipPath>
				<g class="st254">
					<path class="st229" d="M878.3,57.4c0,24.7-224.3,44.7-279,44.7s-289-20-289-44.7c0-12.3,11.1-23.5,29-31.6v6.6h510v-6.6
						C867.2,33.8,878.3,45,878.3,57.4z"/>
				</g>
			</g>
			<g>
				<defs>
					<path id="SVGID_122_" d="M1139.2,198.5c0,33.6-27.5,61.1-61.1,61.1H106.5c-33.6,0-61.1-27.5-61.1-61.1v-104
						c0-33.6,27.5-61.1,61.1-61.1h971.6c33.6,0,61.1,27.5,61.1,61.1V198.5z"/>
				</defs>
				<clipPath id="SVGID_123_">
					<use xlink:href="#SVGID_122_"  style="overflow:visible;"/>
				</clipPath>
				<g class="st255">
					<path class="st229" d="M865.9,57.4c0,21.6-218.8,39.1-266.6,39.1S322.7,79,322.7,57.4c0-10.8,199.7-20.6,215.4-27.7v2.7h302.5
						v-2.7C856.2,36.8,865.9,46.6,865.9,57.4z"/>
				</g>
			</g>
			<g>
				<defs>
					<path id="SVGID_124_" d="M1139.2,198.5c0,33.6-27.5,61.1-61.1,61.1H106.5c-33.6,0-61.1-27.5-61.1-61.1v-104
						c0-33.6,27.5-61.1,61.1-61.1h971.6c33.6,0,61.1,27.5,61.1,61.1V198.5z"/>
				</defs>
				<clipPath id="SVGID_125_">
					<use xlink:href="#SVGID_124_"  style="overflow:visible;"/>
				</clipPath>
				<g class="st256">
					<path class="st229" d="M853.5,57.4c0,18.5-213.2,33.5-254.3,33.5s-264.3-15-264.3-33.5c0-9.3,198.3-17.6,211.8-23.7
						c6.7-3,14.7-5.5,23.6-7.2v5.9h237.8v-5.9c8.9,1.7,16.9,4.2,23.6,7.2C845.2,39.7,853.5,48.1,853.5,57.4z"/>
				</g>
			</g>
			<g>
				<defs>
					<path id="SVGID_126_" d="M1139.2,198.5c0,33.6-27.5,61.1-61.1,61.1H106.5c-33.6,0-61.1-27.5-61.1-61.1v-104
						c0-33.6,27.5-61.1,61.1-61.1h971.6c33.6,0,61.1,27.5,61.1,61.1V198.5z"/>
				</defs>
				<clipPath id="SVGID_127_">
					<use xlink:href="#SVGID_126_"  style="overflow:visible;"/>
				</clipPath>
				<g class="st257">
					<path class="st229" d="M841.1,57.4c0,15.4-207.7,27.9-241.9,27.9s-61.9-12.5-61.9-27.9s27.7-27.9,61.9-27.9
						S841.1,41.9,841.1,57.4z"/>
				</g>
			</g>
			<g>
				<defs>
					<path id="SVGID_128_" d="M1139.2,198.5c0,33.6-27.5,61.1-61.1,61.1H106.5c-33.6,0-61.1-27.5-61.1-61.1v-104
						c0-33.6,27.5-61.1,61.1-61.1h971.6c33.6,0,61.1,27.5,61.1,61.1V198.5z"/>
				</defs>
				<clipPath id="SVGID_129_">
					<use xlink:href="#SVGID_128_"  style="overflow:visible;"/>
				</clipPath>
				<g class="st258">
					<path class="st229" d="M828.8,57.4c0,12.3-202.2,22.4-229.5,22.4s-49.5-10-49.5-22.4c0-12.3,22.2-22.4,49.5-22.4
						C626.6,35,828.8,45,828.8,57.4z"/>
				</g>
			</g>
			<g>
				<defs>
					<path id="SVGID_130_" d="M1139.2,198.5c0,33.6-27.5,61.1-61.1,61.1H106.5c-33.6,0-61.1-27.5-61.1-61.1v-104
						c0-33.6,27.5-61.1,61.1-61.1h971.6c33.6,0,61.1,27.5,61.1,61.1V198.5z"/>
				</defs>
				<clipPath id="SVGID_131_">
					<use xlink:href="#SVGID_130_"  style="overflow:visible;"/>
				</clipPath>
				<g class="st259">
					<path class="st229" d="M816.4,57.4c0,9.3-196.6,16.8-217.1,16.8s-37.1-7.5-37.1-16.8s16.6-16.8,37.1-16.8
						C619.8,40.6,816.4,48.1,816.4,57.4z"/>
				</g>
			</g>
			<g>
				<defs>
					<path id="SVGID_132_" d="M1139.2,198.5c0,33.6-27.5,61.1-61.1,61.1H106.5c-33.6,0-61.1-27.5-61.1-61.1v-104
						c0-33.6,27.5-61.1,61.1-61.1h971.6c33.6,0,61.1,27.5,61.1,61.1V198.5z"/>
				</defs>
				<clipPath id="SVGID_133_">
					<use xlink:href="#SVGID_132_"  style="overflow:visible;"/>
				</clipPath>
				<g class="st260">
					<ellipse class="st229" cx="599.3" cy="57.4" rx="24.7" ry="11.2"/>
				</g>
			</g>
			<g>
				<defs>
					<path id="SVGID_134_" d="M1139.2,198.5c0,33.6-27.5,61.1-61.1,61.1H106.5c-33.6,0-61.1-27.5-61.1-61.1v-104
						c0-33.6,27.5-61.1,61.1-61.1h971.6c33.6,0,61.1,27.5,61.1,61.1V198.5z"/>
				</defs>
				<clipPath id="SVGID_135_">
					<use xlink:href="#SVGID_134_"  style="overflow:visible;"/>
				</clipPath>
				<g class="st261">
					<ellipse class="st229" cx="599.3" cy="57.4" rx="12.4" ry="5.6"/>
				</g>
			</g>
		</g>
	</g>
</g>
</svg>
