<?xml version="1.0" encoding="utf-8"?>
<!-- Generator: Adobe Illustrator 21.1.0, SVG Export Plug-In . SVG Version: 6.00 Build 0)  -->
<svg version="1.1" id="buttons" xmlns="http://www.w3.org/2000/svg" xmlns:xlink="http://www.w3.org/1999/xlink" x="0px" y="0px"
	 viewBox="0 0 656.4 377.5" style="enable-background:new 0 0 656.4 377.5;" xml:space="preserve">
<style type="text/css">
	.st0{clip-path:url(#SVGID_2_);fill:#FF5E08;}
	.st1{clip-path:url(#SVGID_2_);fill:#FF5F08;}
	.st2{clip-path:url(#SVGID_2_);fill:#FF6008;}
	.st3{clip-path:url(#SVGID_2_);fill:#FF6108;}
	.st4{clip-path:url(#SVGID_2_);fill:#FF6208;}
	.st5{clip-path:url(#SVGID_2_);fill:#FF6308;}
	.st6{clip-path:url(#SVGID_2_);fill:#FF6408;}
	.st7{clip-path:url(#SVGID_2_);fill:#FF6508;}
	.st8{clip-path:url(#SVGID_2_);fill:#FF6608;}
	.st9{clip-path:url(#SVGID_2_);fill:#FF6708;}
	.st10{clip-path:url(#SVGID_2_);fill:#FF6808;}
	.st11{clip-path:url(#SVGID_2_);fill:#FF6908;}
	.st12{clip-path:url(#SVGID_2_);fill:#FF6A08;}
	.st13{clip-path:url(#SVGID_2_);fill:#FF6B08;}
	.st14{clip-path:url(#SVGID_2_);fill:#FF6C08;}
	.st15{clip-path:url(#SVGID_2_);fill:#FF6D08;}
	.st16{clip-path:url(#SVGID_2_);fill:#FF6E08;}
	.st17{clip-path:url(#SVGID_2_);fill:#FF6F08;}
	.st18{clip-path:url(#SVGID_2_);fill:#FF7008;}
	.st19{clip-path:url(#SVGID_2_);fill:#FF7108;}
	.st20{clip-path:url(#SVGID_2_);fill:#FF7208;}
	.st21{clip-path:url(#SVGID_2_);fill:#FF7308;}
	.st22{clip-path:url(#SVGID_2_);fill:#FF7408;}
	.st23{clip-path:url(#SVGID_2_);fill:#FF7508;}
	.st24{clip-path:url(#SVGID_2_);fill:#FF7608;}
	.st25{clip-path:url(#SVGID_2_);fill:#FF7708;}
	.st26{clip-path:url(#SVGID_2_);fill:#FF7808;}
	.st27{clip-path:url(#SVGID_2_);fill:#FF7908;}
	.st28{clip-path:url(#SVGID_2_);fill:#FF7A08;}
	.st29{clip-path:url(#SVGID_2_);fill:#FF7B08;}
	.st30{clip-path:url(#SVGID_2_);fill:#FF7C08;}
	.st31{clip-path:url(#SVGID_2_);fill:#FF7D08;}
	.st32{clip-path:url(#SVGID_2_);fill:#FF7E08;}
	.st33{clip-path:url(#SVGID_2_);fill:#FF8008;}
	.st34{clip-path:url(#SVGID_2_);fill:#FF8108;}
	.st35{clip-path:url(#SVGID_2_);fill:#FF8208;}
	.st36{clip-path:url(#SVGID_2_);fill:#FF8308;}
	.st37{clip-path:url(#SVGID_2_);fill:#FF8408;}
	.st38{clip-path:url(#SVGID_2_);fill:#FF8508;}
	.st39{clip-path:url(#SVGID_2_);fill:#FF8608;}
	.st40{clip-path:url(#SVGID_2_);fill:#FF8708;}
	.st41{clip-path:url(#SVGID_2_);fill:#FF8808;}
	.st42{clip-path:url(#SVGID_2_);fill:#FF8908;}
	.st43{clip-path:url(#SVGID_2_);fill:#FF8A08;}
	.st44{clip-path:url(#SVGID_2_);fill:#FF8B08;}
	.st45{clip-path:url(#SVGID_2_);fill:#FF8C08;}
	.st46{clip-path:url(#SVGID_2_);fill:#FF8D08;}
	.st47{clip-path:url(#SVGID_2_);fill:#FF8E08;}
	.st48{clip-path:url(#SVGID_2_);fill:#FF8F08;}
	.st49{clip-path:url(#SVGID_2_);fill:#FF9008;}
	.st50{clip-path:url(#SVGID_2_);fill:#FF9108;}
	.st51{clip-path:url(#SVGID_2_);fill:#FF9208;}
	.st52{clip-path:url(#SVGID_2_);fill:#FF9308;}
	.st53{clip-path:url(#SVGID_2_);fill:#FF9408;}
	.st54{clip-path:url(#SVGID_2_);fill:#FF9508;}
	.st55{clip-path:url(#SVGID_2_);fill:#FF9608;}
	.st56{clip-path:url(#SVGID_2_);fill:#FF9708;}
	.st57{clip-path:url(#SVGID_2_);fill:#FF9808;}
	.st58{clip-path:url(#SVGID_2_);fill:#FF9908;}
	.st59{clip-path:url(#SVGID_2_);fill:#FF9A08;}
	.st60{clip-path:url(#SVGID_2_);fill:#FF9B08;}
	.st61{clip-path:url(#SVGID_2_);fill:#FF9C08;}
	.st62{clip-path:url(#SVGID_2_);fill:#FF9D08;}
	.st63{clip-path:url(#SVGID_2_);fill:#FF9E08;}
	.st64{clip-path:url(#SVGID_2_);fill:#FF9F08;}
	.st65{clip-path:url(#SVGID_2_);fill:#FFA008;}
	.st66{fill:#FFF396;}
	.st67{fill:#FFFFFF;}
	.st68{clip-path:url(#SVGID_4_);fill:#FFBC2B;}
	.st69{clip-path:url(#SVGID_4_);fill:#FFBD2C;}
	.st70{clip-path:url(#SVGID_4_);fill:#FFBE2D;}
	.st71{clip-path:url(#SVGID_4_);fill:#FFBF2E;}
	.st72{clip-path:url(#SVGID_4_);fill:#FFC02F;}
	.st73{clip-path:url(#SVGID_4_);fill:#FFC130;}
	.st74{clip-path:url(#SVGID_4_);fill:#FEC231;}
	.st75{clip-path:url(#SVGID_4_);fill:#FEC332;}
	.st76{clip-path:url(#SVGID_4_);fill:#FEC333;}
	.st77{clip-path:url(#SVGID_4_);fill:#FEC434;}
	.st78{clip-path:url(#SVGID_4_);fill:#FEC535;}
	.st79{clip-path:url(#SVGID_4_);fill:#FEC636;}
	.st80{clip-path:url(#SVGID_4_);fill:#FEC737;}
	.st81{clip-path:url(#SVGID_4_);fill:#FEC838;}
	.st82{clip-path:url(#SVGID_4_);fill:#FEC939;}
	.st83{clip-path:url(#SVGID_4_);fill:#FECA3B;}
	.st84{clip-path:url(#SVGID_4_);fill:#FDCB3C;}
	.st85{clip-path:url(#SVGID_4_);fill:#FDCC3D;}
	.st86{clip-path:url(#SVGID_4_);fill:#FDCD3E;}
	.st87{clip-path:url(#SVGID_4_);fill:#FDCE3F;}
	.st88{clip-path:url(#SVGID_4_);fill:#FDCF40;}
	.st89{clip-path:url(#SVGID_4_);fill:#FDD041;}
	.st90{clip-path:url(#SVGID_4_);fill:#FDD142;}
	.st91{clip-path:url(#SVGID_4_);fill:#FDD143;}
	.st92{clip-path:url(#SVGID_4_);fill:#FDD244;}
	.st93{clip-path:url(#SVGID_4_);fill:#FDD345;}
	.st94{clip-path:url(#SVGID_4_);fill:#FCD446;}
	.st95{clip-path:url(#SVGID_4_);fill:#FCD547;}
	.st96{clip-path:url(#SVGID_4_);fill:#FCD648;}
	.st97{clip-path:url(#SVGID_4_);fill:#FCD749;}
	.st98{clip-path:url(#SVGID_4_);fill:#FCD84A;}
	.st99{clip-path:url(#SVGID_7_);fill:#FF5E08;}
	.st100{clip-path:url(#SVGID_7_);fill:#FF5F08;}
	.st101{clip-path:url(#SVGID_7_);fill:#FF6008;}
	.st102{clip-path:url(#SVGID_7_);fill:#FF6108;}
	.st103{clip-path:url(#SVGID_7_);fill:#FF6208;}
	.st104{clip-path:url(#SVGID_7_);fill:#FF6308;}
	.st105{clip-path:url(#SVGID_7_);fill:#FF6408;}
	.st106{clip-path:url(#SVGID_7_);fill:#FF6508;}
	.st107{clip-path:url(#SVGID_7_);fill:#FF6608;}
	.st108{clip-path:url(#SVGID_7_);fill:#FF6708;}
	.st109{clip-path:url(#SVGID_7_);fill:#FF6808;}
	.st110{clip-path:url(#SVGID_7_);fill:#FF6908;}
	.st111{clip-path:url(#SVGID_7_);fill:#FF6A08;}
	.st112{clip-path:url(#SVGID_7_);fill:#FF6B08;}
	.st113{clip-path:url(#SVGID_7_);fill:#FF6C08;}
	.st114{clip-path:url(#SVGID_7_);fill:#FF6D08;}
	.st115{clip-path:url(#SVGID_7_);fill:#FF6E08;}
	.st116{clip-path:url(#SVGID_7_);fill:#FF6F08;}
	.st117{clip-path:url(#SVGID_7_);fill:#FF7008;}
	.st118{clip-path:url(#SVGID_7_);fill:#FF7108;}
	.st119{clip-path:url(#SVGID_7_);fill:#FF7208;}
	.st120{clip-path:url(#SVGID_7_);fill:#FF7308;}
	.st121{clip-path:url(#SVGID_7_);fill:#FF7408;}
	.st122{clip-path:url(#SVGID_7_);fill:#FF7508;}
	.st123{clip-path:url(#SVGID_7_);fill:#FF7608;}
	.st124{clip-path:url(#SVGID_7_);fill:#FF7708;}
	.st125{clip-path:url(#SVGID_7_);fill:#FF7808;}
	.st126{clip-path:url(#SVGID_7_);fill:#FF7908;}
	.st127{clip-path:url(#SVGID_7_);fill:#FF7A08;}
	.st128{clip-path:url(#SVGID_7_);fill:#FF7B08;}
	.st129{clip-path:url(#SVGID_7_);fill:#FF7C08;}
	.st130{clip-path:url(#SVGID_7_);fill:#FF7D08;}
	.st131{clip-path:url(#SVGID_7_);fill:#FF7E08;}
	.st132{clip-path:url(#SVGID_7_);fill:#FF8008;}
	.st133{clip-path:url(#SVGID_7_);fill:#FF8108;}
	.st134{clip-path:url(#SVGID_7_);fill:#FF8208;}
	.st135{clip-path:url(#SVGID_7_);fill:#FF8308;}
	.st136{clip-path:url(#SVGID_7_);fill:#FF8408;}
	.st137{clip-path:url(#SVGID_7_);fill:#FF8508;}
	.st138{clip-path:url(#SVGID_7_);fill:#FF8608;}
	.st139{clip-path:url(#SVGID_7_);fill:#FF8708;}
	.st140{clip-path:url(#SVGID_7_);fill:#FF8808;}
	.st141{clip-path:url(#SVGID_7_);fill:#FF8908;}
	.st142{clip-path:url(#SVGID_7_);fill:#FF8A08;}
	.st143{clip-path:url(#SVGID_7_);fill:#FF8B08;}
	.st144{clip-path:url(#SVGID_7_);fill:#FF8C08;}
	.st145{clip-path:url(#SVGID_7_);fill:#FF8D08;}
	.st146{clip-path:url(#SVGID_7_);fill:#FF8E08;}
	.st147{clip-path:url(#SVGID_7_);fill:#FF8F08;}
	.st148{clip-path:url(#SVGID_7_);fill:#FF9008;}
	.st149{clip-path:url(#SVGID_7_);fill:#FF9108;}
	.st150{clip-path:url(#SVGID_7_);fill:#FF9208;}
	.st151{clip-path:url(#SVGID_7_);fill:#FF9308;}
	.st152{clip-path:url(#SVGID_7_);fill:#FF9408;}
	.st153{clip-path:url(#SVGID_7_);fill:#FF9508;}
	.st154{clip-path:url(#SVGID_7_);fill:#FF9608;}
	.st155{clip-path:url(#SVGID_7_);fill:#FF9708;}
	.st156{clip-path:url(#SVGID_7_);fill:#FF9808;}
	.st157{clip-path:url(#SVGID_7_);fill:#FF9908;}
	.st158{clip-path:url(#SVGID_7_);fill:#FF9A08;}
	.st159{clip-path:url(#SVGID_7_);fill:#FF9B08;}
	.st160{clip-path:url(#SVGID_7_);fill:#FF9C08;}
	.st161{clip-path:url(#SVGID_7_);fill:#FF9D08;}
	.st162{clip-path:url(#SVGID_7_);fill:#FF9E08;}
	.st163{clip-path:url(#SVGID_7_);fill:#FF9F08;}
	.st164{clip-path:url(#SVGID_7_);fill:#FFA008;}
	.st165{clip-path:url(#SVGID_9_);}
	.st166{fill:#FFBC2B;}
	.st167{clip-path:url(#SVGID_11_);}
	.st168{clip-path:url(#SVGID_13_);}
	.st169{fill:#FFBD2C;}
	.st170{clip-path:url(#SVGID_15_);}
	.st171{fill:#FFBE2D;}
	.st172{clip-path:url(#SVGID_17_);}
	.st173{fill:#FFBF2E;}
	.st174{clip-path:url(#SVGID_19_);}
	.st175{fill:#FFC02F;}
	.st176{clip-path:url(#SVGID_21_);}
	.st177{fill:#FFC130;}
	.st178{clip-path:url(#SVGID_23_);}
	.st179{fill:#FEC231;}
	.st180{clip-path:url(#SVGID_25_);}
	.st181{fill:#FEC332;}
	.st182{clip-path:url(#SVGID_27_);}
	.st183{fill:#FEC333;}
	.st184{clip-path:url(#SVGID_29_);}
	.st185{fill:#FEC434;}
	.st186{clip-path:url(#SVGID_31_);}
	.st187{fill:#FEC535;}
	.st188{clip-path:url(#SVGID_33_);}
	.st189{fill:#FEC636;}
	.st190{clip-path:url(#SVGID_35_);}
	.st191{fill:#FEC737;}
	.st192{clip-path:url(#SVGID_37_);}
	.st193{fill:#FEC838;}
	.st194{clip-path:url(#SVGID_39_);}
	.st195{fill:#FEC939;}
	.st196{clip-path:url(#SVGID_41_);}
	.st197{fill:#FECA3B;}
	.st198{clip-path:url(#SVGID_43_);}
	.st199{fill:#FDCB3C;}
	.st200{clip-path:url(#SVGID_45_);}
	.st201{fill:#FDCC3D;}
	.st202{clip-path:url(#SVGID_47_);}
	.st203{fill:#FDCD3E;}
	.st204{clip-path:url(#SVGID_49_);}
	.st205{fill:#FDCE3F;}
	.st206{clip-path:url(#SVGID_51_);}
	.st207{fill:#FDCF40;}
	.st208{clip-path:url(#SVGID_53_);}
	.st209{fill:#FDD041;}
	.st210{clip-path:url(#SVGID_55_);}
	.st211{fill:#FDD142;}
	.st212{clip-path:url(#SVGID_57_);}
	.st213{fill:#FDD143;}
	.st214{clip-path:url(#SVGID_59_);}
	.st215{fill:#FDD244;}
	.st216{clip-path:url(#SVGID_61_);}
	.st217{fill:#FDD345;}
	.st218{clip-path:url(#SVGID_63_);}
	.st219{fill:#FCD446;}
	.st220{clip-path:url(#SVGID_65_);}
	.st221{fill:#FCD547;}
	.st222{clip-path:url(#SVGID_67_);}
	.st223{fill:#FCD648;}
	.st224{clip-path:url(#SVGID_69_);}
	.st225{fill:#FCD749;}
	.st226{clip-path:url(#SVGID_71_);}
	.st227{fill:#FCD84A;}
	.st228{opacity:0.57;enable-background:new    ;}
	.st229{opacity:0.17;}
	.st230{fill:#D39200;}
	.st231{clip-path:url(#SVGID_73_);}
	.st232{clip-path:url(#SVGID_75_);}
	.st233{clip-path:url(#SVGID_77_);}
	.st234{clip-path:url(#SVGID_79_);}
	.st235{clip-path:url(#SVGID_81_);}
	.st236{clip-path:url(#SVGID_83_);}
	.st237{clip-path:url(#SVGID_85_);}
	.st238{clip-path:url(#SVGID_87_);}
	.st239{clip-path:url(#SVGID_89_);}
	.st240{clip-path:url(#SVGID_91_);}
	.st241{clip-path:url(#SVGID_93_);}
	.st242{clip-path:url(#SVGID_95_);}
	.st243{clip-path:url(#SVGID_97_);}
	.st244{clip-path:url(#SVGID_99_);}
	.st245{clip-path:url(#SVGID_101_);}
	.st246{clip-path:url(#SVGID_103_);}
	.st247{clip-path:url(#SVGID_105_);}
	.st248{clip-path:url(#SVGID_107_);}
	.st249{clip-path:url(#SVGID_109_);}
	.st250{clip-path:url(#SVGID_111_);}
	.st251{clip-path:url(#SVGID_113_);}
	.st252{clip-path:url(#SVGID_115_);}
	.st253{clip-path:url(#SVGID_117_);}
	.st254{clip-path:url(#SVGID_119_);}
	.st255{clip-path:url(#SVGID_121_);}
	.st256{clip-path:url(#SVGID_123_);}
	.st257{clip-path:url(#SVGID_125_);}
	.st258{clip-path:url(#SVGID_127_);}
	.st259{clip-path:url(#SVGID_129_);}
	.st260{clip-path:url(#SVGID_131_);}
	.st261{clip-path:url(#SVGID_133_);}
	.st262{clip-path:url(#SVGID_135_);}
</style>
<g>
	<g>
		<g>
			<defs>
				<path id="SVGID_1_" d="M656.4,296.8c0,44.4-30.9,80.7-68.7,80.7h-519C30.9,377.5,0,341.2,0,296.8V91.5
					c0-44.4,30.9-80.7,68.7-80.7h519c37.8,0,68.7,36.3,68.7,80.7V296.8z"/>
			</defs>
			<clipPath id="SVGID_2_">
				<use xlink:href="#SVGID_1_"  style="overflow:visible;"/>
			</clipPath>
			<rect y="10.8" class="st0" width="656.4" height="366.7"/>
			<path class="st0" d="M559.8,194.1c0-63.9-25.9-121.8-67.8-163.7c-5.2-5.2-10.7-10.2-16.4-14.9c-2.9-2.4-5.8-4.7-8.7-6.9v1.2
				H189.7V8.6c-3,2.2-5.9,4.5-8.7,6.9c-5.7,4.7-11.2,9.7-16.4,14.9c-41.9,41.9-67.8,99.8-67.8,163.7s25.9,121.8,67.8,163.7
				c5.2,5.2,10.7,10.2,16.4,14.9c2.9,2.4,5.8,4.7,8.7,6.9v-1.2h277.1v1.2c3-2.2,5.9-4.5,8.7-6.9c5.7-4.7,11.2-9.7,16.4-14.9
				C533.8,316,559.8,258.1,559.8,194.1z"/>
			<path class="st1" d="M556.3,194.1c0-63-25.5-120-66.8-161.3C479.1,22.6,467.8,13.2,455.7,5v4.8h-255V5
				c-12.1,8.2-23.4,17.5-33.8,27.8c-41.3,41.3-66.8,98.3-66.8,161.3s25.5,120,66.8,161.3c10.3,10.3,21.6,19.7,33.8,27.8v-4.8h255
				v4.8c12.1-8.2,23.4-17.5,33.8-27.8C530.7,314.1,556.3,257.1,556.3,194.1z"/>
			<path class="st2" d="M552.7,194.1c0-62-25.1-118.1-65.8-158.8C476.8,25.2,465.7,16,453.7,8v1.8H202.7V8
				c-11.9,8.1-23.1,17.3-33.2,27.4c-40.6,40.6-65.8,96.8-65.8,158.8s25.1,118.1,65.8,158.8c10.2,10.2,21.3,19.3,33.2,27.4v-1.8
				h251.1v1.8c11.9-8.1,23.1-17.3,33.2-27.4C527.6,312.3,552.7,256.2,552.7,194.1z"/>
			<path class="st3" d="M549.2,194.1c0-61-24.7-116.3-64.7-156.3c-10-10-21-19-32.7-27c-2.9-2-5.9-3.9-9-5.7v4.7H213.6V5.1
				c-3,1.8-6,3.8-9,5.7c-11.8,7.9-22.7,17-32.7,27c-40,40-64.7,95.3-64.7,156.3s24.7,116.3,64.7,156.3c10,10,21,19,32.7,27
				c2.9,2,5.9,3.9,9,5.7v-4.7h229.2v4.7c3-1.8,6-3.8,9-5.7c11.8-7.9,22.7-17,32.7-27C524.5,310.4,549.2,255.2,549.2,194.1z"/>
			<path class="st4" d="M545.7,194.1c0-60.1-24.3-114.5-63.7-153.8c-9.8-9.8-20.6-18.7-32.2-26.6c-5.8-3.9-11.8-7.5-17.9-10.9v6.9
				H224.5V2.9c-6.2,3.3-12.1,7-17.9,10.9c-11.6,7.8-22.4,16.7-32.2,26.6c-39.4,39.4-63.7,93.7-63.7,153.8S135,308.6,174.4,348
				c9.8,9.8,20.6,18.7,32.2,26.6c5.8,3.9,11.8,7.5,17.9,10.9v-6.9h207.4v6.9c6.2-3.3,12.1-7,17.9-10.9c11.6-7.8,22.4-16.7,32.2-26.6
				C521.4,308.6,545.7,254.2,545.7,194.1z"/>
			<path class="st5" d="M542.2,194.1c0-59.1-24-112.6-62.7-151.3c-9.7-9.7-20.3-18.4-31.7-26.1c-5.7-3.8-11.6-7.4-17.6-10.7v3.8
				h-204V6c-6.1,3.3-12,6.9-17.6,10.7c-11.4,7.7-22,16.5-31.7,26.1c-38.7,38.7-62.7,92.2-62.7,151.3s24,112.6,62.7,151.3
				c9.7,9.7,20.3,18.4,31.7,26.1c5.7,3.8,11.6,7.4,17.6,10.7v-3.8h204v3.8c6.1-3.3,12-6.9,17.6-10.7c11.4-7.7,22-16.5,31.7-26.1
				C518.3,306.8,542.2,253.3,542.2,194.1z"/>
			<path class="st6" d="M538.7,194.1c0-58.1-23.6-110.8-61.7-148.9c-9.5-9.5-20-18.1-31.2-25.7c-5.6-3.8-11.4-7.3-17.4-10.5v0.8
				H227.9V9c-6,3.2-11.8,6.8-17.4,10.5c-11.2,7.6-21.6,16.2-31.2,25.7c-38.1,38.1-61.7,90.7-61.7,148.9s23.6,110.8,61.7,148.9
				c9.5,9.5,20,18.1,31.2,25.7c5.6,3.8,11.4,7.3,17.4,10.5v-0.8h200.7v0.8c6-3.2,11.8-6.8,17.4-10.5c11.2-7.6,21.6-16.2,31.2-25.7
				C515.2,304.9,538.7,252.3,538.7,194.1z"/>
			<path class="st7" d="M535.2,194.1c0-57.2-23.2-108.9-60.6-146.4c-18.7-18.7-41-33.9-65.8-44.4v6.4H247.6V3.4
				c-24.8,10.5-47.1,25.6-65.8,44.4c-37.5,37.5-60.6,89.2-60.6,146.4s23.2,108.9,60.6,146.4c18.7,18.7,41,33.9,65.8,44.4v-6.4h161.2
				v6.4c24.8-10.5,47.1-25.6,65.8-44.4C512,303.1,535.2,251.3,535.2,194.1z"/>
			<path class="st8" d="M531.7,194.1c0-56.2-22.8-107.1-59.6-143.9c-18.4-18.4-40.3-33.3-64.7-43.6v3.2H249V6.6
				c-24.3,10.3-46.3,25.2-64.7,43.6c-36.8,36.8-59.6,87.7-59.6,143.9s22.8,107.1,59.6,143.9c18.4,18.4,40.3,33.3,64.7,43.6v-3.2
				h158.4v3.2c24.3-10.3,46.3-25.2,64.7-43.6C508.9,301.2,531.7,250.3,531.7,194.1z"/>
			<path class="st9" d="M528.2,194.1c0-55.2-22.4-105.2-58.6-141.4C451.5,34.6,430,20,406,9.9c-6-2.5-12.1-4.8-18.4-6.7v6.6H268.7
				V3.2c-6.3,1.9-12.4,4.2-18.4,6.7c-23.9,10.1-45.5,24.8-63.6,42.9c-36.2,36.2-58.6,86.2-58.6,141.4s22.4,105.2,58.6,141.4
				c18.1,18.1,39.6,32.7,63.6,42.9c6,2.5,12.1,4.8,18.4,6.7v-6.6h118.9v6.6c6.3-1.9,12.4-4.2,18.4-6.7
				c23.9-10.1,45.5-24.8,63.6-42.9C505.8,299.4,528.2,249.4,528.2,194.1z"/>
			<path class="st10" d="M524.7,194.1c0-54.3-22-103.4-57.5-138.9c-17.8-17.8-38.9-32.2-62.5-42.1c-5.9-2.5-11.9-4.7-18.1-6.6v3.3
				H269.8V6.5c-6.2,1.9-12.2,4.1-18.1,6.6c-23.5,9.9-44.7,24.3-62.5,42.1c-35.6,35.6-57.5,84.7-57.5,138.9s22,103.4,57.5,138.9
				c17.8,17.8,38.9,32.2,62.5,42.1c5.9,2.5,11.9,4.7,18.1,6.6v-3.3h116.9v3.3c6.2-1.9,12.2-4.1,18.1-6.6
				c23.5-9.9,44.7-24.3,62.5-42.1C502.7,297.5,524.7,248.4,524.7,194.1z"/>
			<path class="st11" d="M521.2,194.1c0-53.3-21.6-101.5-56.5-136.5c-17.5-17.5-38.3-31.6-61.3-41.4c-11.5-4.9-23.7-8.7-36.2-11.2
				v4.7h-77.8V5.1c-12.6,2.6-24.7,6.4-36.2,11.2c-23.1,9.8-43.9,23.9-61.3,41.4c-34.9,34.9-56.5,83.2-56.5,136.5
				s21.6,101.5,56.5,136.5c17.5,17.5,38.3,31.6,61.3,41.4c11.5,4.9,23.7,8.7,36.2,11.2v-4.7h77.8v4.7c12.6-2.6,24.7-6.4,36.2-11.2
				c23.1-9.8,43.9-23.9,61.3-41.4C499.6,295.7,521.2,247.4,521.2,194.1z"/>
			<circle class="st12" cx="328.2" cy="194.1" r="189.5"/>
			<circle class="st13" cx="328.2" cy="194.1" r="186"/>
			<circle class="st14" cx="328.2" cy="194.1" r="182.4"/>
			<circle class="st15" cx="328.2" cy="194.1" r="178.9"/>
			<circle class="st16" cx="328.2" cy="194.1" r="175.4"/>
			<circle class="st17" cx="328.2" cy="194.1" r="171.9"/>
			<circle class="st18" cx="328.2" cy="194.1" r="168.4"/>
			<circle class="st19" cx="328.2" cy="194.1" r="164.9"/>
			<circle class="st20" cx="328.2" cy="194.1" r="161.4"/>
			<circle class="st21" cx="328.2" cy="194.1" r="157.9"/>
			<circle class="st22" cx="328.2" cy="194.1" r="154.4"/>
			<circle class="st23" cx="328.2" cy="194.1" r="150.9"/>
			<circle class="st24" cx="328.2" cy="194.1" r="147.4"/>
			<circle class="st25" cx="328.2" cy="194.1" r="143.9"/>
			<circle class="st26" cx="328.2" cy="194.1" r="140.3"/>
			<circle class="st27" cx="328.2" cy="194.1" r="136.8"/>
			<circle class="st28" cx="328.2" cy="194.1" r="133.3"/>
			<circle class="st29" cx="328.2" cy="194.1" r="129.8"/>
			<circle class="st30" cx="328.2" cy="194.1" r="126.3"/>
			<circle class="st31" cx="328.2" cy="194.1" r="122.8"/>
			<circle class="st32" cx="328.2" cy="194.1" r="119.3"/>
			<circle class="st33" cx="328.2" cy="194.1" r="115.8"/>
			<circle class="st34" cx="328.2" cy="194.1" r="112.3"/>
			<circle class="st35" cx="328.2" cy="194.1" r="108.8"/>
			<circle class="st36" cx="328.2" cy="194.1" r="105.3"/>
			<circle class="st37" cx="328.2" cy="194.1" r="101.7"/>
			<circle class="st38" cx="328.2" cy="194.1" r="98.2"/>
			<circle class="st39" cx="328.2" cy="194.1" r="94.7"/>
			<circle class="st40" cx="328.2" cy="194.1" r="91.2"/>
			<circle class="st41" cx="328.2" cy="194.1" r="87.7"/>
			<circle class="st42" cx="328.2" cy="194.1" r="84.2"/>
			<circle class="st43" cx="328.2" cy="194.1" r="80.7"/>
			<circle class="st44" cx="328.2" cy="194.1" r="77.2"/>
			<circle class="st45" cx="328.2" cy="194.1" r="73.7"/>
			<circle class="st46" cx="328.2" cy="194.1" r="70.2"/>
			<circle class="st47" cx="328.2" cy="194.1" r="66.7"/>
			<circle class="st48" cx="328.2" cy="194.1" r="63.2"/>
			<circle class="st49" cx="328.2" cy="194.1" r="59.6"/>
			<circle class="st50" cx="328.2" cy="194.1" r="56.1"/>
			<circle class="st51" cx="328.2" cy="194.1" r="52.6"/>
			<circle class="st52" cx="328.2" cy="194.1" r="49.1"/>
			<circle class="st53" cx="328.2" cy="194.1" r="45.6"/>
			<circle class="st54" cx="328.2" cy="194.1" r="42.1"/>
			<circle class="st55" cx="328.2" cy="194.1" r="38.6"/>
			<circle class="st56" cx="328.2" cy="194.1" r="35.1"/>
			<circle class="st57" cx="328.2" cy="194.1" r="31.6"/>
			<circle class="st58" cx="328.2" cy="194.1" r="28.1"/>
			<circle class="st59" cx="328.2" cy="194.1" r="24.6"/>
			<circle class="st60" cx="328.2" cy="194.1" r="21.1"/>
			<circle class="st61" cx="328.2" cy="194.1" r="17.5"/>
			<circle class="st62" cx="328.2" cy="194.1" r="14"/>
			<circle class="st63" cx="328.2" cy="194.1" r="10.5"/>
			<circle class="st64" cx="328.2" cy="194.1" r="7"/>
			<circle class="st65" cx="328.2" cy="194.1" r="3.5"/>
		</g>
	</g>
	<g>
		<path class="st66" d="M652.2,289.6c0,42.9-30.6,78-68,78H72.3c-37.4,0-68-35.1-68-78V88.8c0-42.9,30.6-78,68-78h511.9
			c37.4,0,68,35.1,68,78V289.6z"/>
	</g>
	<g>
		<path class="st67" d="M652.2,279.5c0,43-30.6,78.3-68,78.3H72.3c-37.4,0-68-35.2-68-78.3V78.3c0-43,30.6-78.3,68-78.3h511.9
			c37.4,0,68,35.2,68,78.3V279.5z"/>
	</g>
	<g>
		<g>
			<defs>
				<path id="SVGID_3_" d="M652.2,282.4c0,41.5-30.6,75.4-68,75.4H72.3c-37.4,0-68-33.9-68-75.4V86.1c0-41.5,30.6-75.4,68-75.4
					h511.9c37.4,0,68,33.9,68,75.4V282.4z"/>
			</defs>
			<clipPath id="SVGID_4_">
				<use xlink:href="#SVGID_3_"  style="overflow:visible;"/>
			</clipPath>
			<rect x="4.3" y="10.7" class="st68" width="647.9" height="347.1"/>
			<path class="st68" d="M586.8,184.2c0-35.7-7.2-69.7-20.3-100.6c-6.5-15.5-14.5-30.2-23.8-43.9c-4.6-6.9-9.6-13.5-14.9-19.9
				c-2.6-3.2-5.3-6.3-8.1-9.4c-1.4-1.5-2.8-3-4.2-4.5v3.8H141.1V5.9c-1.4,1.5-2.8,3-4.2,4.5c-2.8,3.1-5.5,6.2-8.1,9.4
				c-5.3,6.4-10.2,13-14.9,19.9C104.6,53.5,96.6,68.2,90,83.6C77,114.6,69.7,148.6,69.7,184.2S77,253.9,90,284.9
				c6.5,15.5,14.5,30.2,23.8,43.9c4.6,6.9,9.6,13.5,14.9,19.9c2.6,3.2,5.3,6.3,8.1,9.4c1.4,1.5,2.8,3,4.2,4.5v-3.8h374.3v3.8
				c1.4-1.5,2.8-3,4.2-4.5c2.8-3.1,5.5-6.2,8.1-9.4c5.3-6.4,10.2-13,14.9-19.9c9.3-13.8,17.3-28.4,23.8-43.9
				C579.5,253.9,586.8,219.9,586.8,184.2z"/>
			<path class="st69" d="M578.4,184.2c0-69.1-28-131.6-73.3-176.9v2.4H151.3V7.3c-45.3,45.3-73.3,107.8-73.3,176.9
				s28,131.6,73.3,176.9v-2.4h353.8v2.4C550.4,315.9,578.4,253.3,578.4,184.2z"/>
			<path class="st70" d="M570.1,184.2c0-66.8-27.1-127.2-70.8-171c-2.7-2.7-5.5-5.4-8.4-8v4.5H165.6V5.2c-2.9,2.6-5.7,5.3-8.4,8
				c-43.8,43.8-70.8,104.2-70.8,171s27.1,127.2,70.8,171c2.7,2.7,5.5,5.4,8.4,8v-4.5h325.2v4.5c2.9-2.6,5.7-5.3,8.4-8
				C543,311.5,570.1,251,570.1,184.2z"/>
			<path class="st71" d="M561.7,184.2c0-64.5-26.1-122.9-68.4-165.1c-5.3-5.3-10.8-10.3-16.6-15.1v5.6H179.7V4.1
				c-5.8,4.8-11.3,9.8-16.6,15.1c-42.3,42.3-68.4,100.6-68.4,165.1s26.1,122.9,68.4,165.1c5.3,5.3,10.8,10.3,16.6,15.1v-5.6h297.1
				v5.6c5.8-4.8,11.3-9.8,16.6-15.1C535.6,307.1,561.7,248.7,561.7,184.2z"/>
			<path class="st72" d="M553.4,184.2c0-62.2-25.2-118.5-65.9-159.2c-5.1-5.1-10.4-9.9-16-14.5c-2.8-2.3-5.6-4.5-8.5-6.7v5.9H193.5
				V3.8c-2.9,2.2-5.7,4.4-8.5,6.7c-5.6,4.6-10.9,9.4-16,14.5c-40.7,40.7-65.9,97-65.9,159.2s25.2,118.5,65.9,159.2
				c5.1,5.1,10.4,9.9,16,14.5c2.8,2.3,5.6,4.5,8.5,6.7v-5.9H463v5.9c2.9-2.2,5.7-4.4,8.5-6.7c5.6-4.6,10.9-9.4,16-14.5
				C528.2,302.7,553.4,246.4,553.4,184.2z"/>
			<path class="st73" d="M545.1,184.2c0-59.9-24.3-114.1-63.5-153.3c-9.8-9.8-20.6-18.7-32.1-26.5v5.2H207V4.5
				c-11.5,7.8-22.3,16.7-32.1,26.5c-39.2,39.2-63.5,93.4-63.5,153.3s24.3,114.1,63.5,153.3c9.8,9.8,20.6,18.7,32.1,26.5v-5.2h242.5
				v5.2c11.5-7.8,22.3-16.7,32.1-26.5C520.8,298.3,545.1,244.1,545.1,184.2z"/>
			<path class="st74" d="M536.7,184.2c0-57.6-23.3-109.7-61.1-147.4c-9.4-9.4-19.8-18-30.9-25.5c-2.8-1.9-5.6-3.7-8.5-5.4v3.7H220.1
				V6c-2.9,1.7-5.7,3.5-8.5,5.4c-11.1,7.5-21.4,16-30.9,25.5c-37.7,37.7-61.1,89.8-61.1,147.4s23.3,109.7,61.1,147.4
				c9.4,9.4,19.8,18,30.9,25.5c2.8,1.9,5.6,3.7,8.5,5.4v-3.7h216.2v3.7c2.9-1.7,5.7-3.5,8.5-5.4c11.1-7.5,21.4-16,30.9-25.5
				C513.4,293.9,536.7,241.8,536.7,184.2z"/>
			<path class="st75" d="M528.4,184.2c0-55.3-22.4-105.3-58.6-141.5c-9.1-9.1-19-17.2-29.6-24.4c-5.3-3.6-10.8-6.9-16.5-10v1.4
				H232.9V8.3c-5.7,3.1-11.2,6.4-16.5,10c-10.6,7.2-20.6,15.4-29.6,24.4c-36.2,36.2-58.6,86.3-58.6,141.5s22.4,105.3,58.6,141.5
				c9.1,9.1,19,17.2,29.6,24.4c5.3,3.6,10.8,6.9,16.5,10v-1.4h190.8v1.4c5.7-3.1,11.2-6.4,16.5-10c10.6-7.2,20.6-15.4,29.6-24.4
				C506,289.6,528.4,239.5,528.4,184.2z"/>
			<path class="st76" d="M520.1,184.2c0-53-21.5-100.9-56.2-135.6c-17.4-17.4-38-31.4-61-41.1v2.2H253.6V7.5
				c-22.9,9.7-43.6,23.8-61,41.1c-34.7,34.7-56.2,82.7-56.2,135.6s21.5,100.9,56.2,135.6c17.4,17.4,38,31.4,61,41.1v-2.2h149.3v2.2
				c22.9-9.7,43.6-23.8,61-41.1C498.6,285.2,520.1,237.2,520.1,184.2z"/>
			<path class="st77" d="M511.7,184.2c0-50.7-20.5-96.5-53.7-129.7c-16.6-16.6-36.4-30-58.3-39.3c-11-4.6-22.5-8.2-34.4-10.7v5.2
				h-73.9V4.5c-11.9,2.4-23.5,6-34.4,10.7c-21.9,9.3-41.7,22.7-58.3,39.3c-33.2,33.2-53.7,79.1-53.7,129.7s20.5,96.5,53.7,129.7
				c16.6,16.6,36.4,30,58.3,39.3c11,4.6,22.5,8.2,34.4,10.7v-5.2h73.9v5.2c11.9-2.4,23.5-6,34.4-10.7c21.9-9.3,41.7-22.7,58.3-39.3
				C491.2,280.8,511.7,234.9,511.7,184.2z"/>
			<circle class="st78" cx="328.2" cy="184.2" r="175.1"/>
			<circle class="st79" cx="328.2" cy="184.2" r="166.8"/>
			<circle class="st80" cx="328.2" cy="184.2" r="158.4"/>
			<circle class="st81" cx="328.2" cy="184.2" r="150.1"/>
			<circle class="st82" cx="328.2" cy="184.2" r="141.8"/>
			<circle class="st83" cx="328.2" cy="184.2" r="133.4"/>
			<circle class="st84" cx="328.2" cy="184.2" r="125.1"/>
			<circle class="st85" cx="328.2" cy="184.2" r="116.7"/>
			<circle class="st86" cx="328.2" cy="184.2" r="108.4"/>
			<circle class="st87" cx="328.2" cy="184.2" r="100.1"/>
			<circle class="st88" cx="328.2" cy="184.2" r="91.7"/>
			<circle class="st89" cx="328.2" cy="184.2" r="83.4"/>
			<circle class="st90" cx="328.2" cy="184.2" r="75.1"/>
			<circle class="st91" cx="328.2" cy="184.2" r="66.7"/>
			<circle class="st92" cx="328.2" cy="184.2" r="58.4"/>
			<circle class="st93" cx="328.2" cy="184.2" r="50"/>
			<circle class="st94" cx="328.2" cy="184.2" r="41.7"/>
			<circle class="st95" cx="328.2" cy="184.2" r="33.4"/>
			<circle class="st96" cx="328.2" cy="184.2" r="25"/>
			<circle class="st97" cx="328.2" cy="184.2" r="16.7"/>
			<circle class="st98" cx="328.2" cy="184.2" r="8.3"/>
		</g>
	</g>
	<g>
		<path class="st67" d="M620.6,273.4c0,35.6-28.2,64.8-62.7,64.8H98.5c-34.5,0-62.7-29.2-62.7-64.8V95.2c0-35.6,28.2-64.8,62.7-64.8
			h459.4c34.5,0,62.7,29.2,62.7,64.8V273.4z"/>
	</g>
	<g>
		<g>
			<defs>
				<path id="SVGID_5_" d="M610.9,263.8c0,35-27.5,63.5-61.1,63.5H106.5c-33.6,0-61.1-28.6-61.1-63.5V87.7c0-35,27.5-63.5,61.1-63.5
					h443.3c33.6,0,61.1,28.6,61.1,63.5V263.8z"/>
			</defs>
			<clipPath id="SVGID_7_">
				<use xlink:href="#SVGID_5_"  style="overflow:visible;"/>
			</clipPath>
			<rect x="45.4" y="24.2" class="st99" width="565.5" height="303.1"/>
			<path class="st99" d="M525.8,175.7c0-54.6-22.1-104-57.9-139.7c-4.5-4.5-9.2-8.7-14-12.8c-2.4-2-4.9-4-7.5-5.9v5.8H209.9v-5.8
				c-2.5,1.9-5,3.9-7.5,5.9c-4.9,4-9.6,8.3-14,12.8c-35.8,35.8-57.9,85.2-57.9,139.7s22.1,104,57.9,139.7c4.5,4.5,9.2,8.7,14,12.8
				c2.4,2,4.9,4,7.5,5.9v-5.8h236.5v5.8c2.5-1.9,5-3.9,7.5-5.9c4.9-4,9.6-8.3,14-12.8C503.6,279.7,525.8,230.3,525.8,175.7z"/>
			<path class="st100" d="M522.8,175.7c0-53.7-21.8-102.4-57-137.6c-4.4-4.4-9-8.6-13.8-12.6c-2.4-2-4.9-3.9-7.4-5.8v3.4H211.7v-3.4
				c-2.5,1.9-4.9,3.8-7.4,5.8c-4.8,4-9.4,8.2-13.8,12.6c-35.2,35.2-57,83.9-57,137.6s21.8,102.4,57,137.6c4.4,4.4,9,8.6,13.8,12.6
				c2.4,2,4.9,3.9,7.4,5.8v-3.4h232.9v3.4c2.5-1.9,4.9-3.8,7.4-5.8c4.8-4,9.4-8.2,13.8-12.6C501,278.1,522.8,229.5,522.8,175.7z"/>
			<path class="st101" d="M519.8,175.7c0-52.9-21.4-100.8-56.1-135.5c-8.7-8.7-18.2-16.5-28.4-23.4v6.3H221v-6.3
				c-10.2,6.9-19.7,14.7-28.4,23.4c-34.7,34.7-56.1,82.6-56.1,135.5s21.4,100.8,56.1,135.5c8.7,8.7,18.2,16.5,28.4,23.4v-6.3h214.3
				v6.3c10.2-6.9,19.7-14.7,28.4-23.4C498.3,276.6,519.8,228.7,519.8,175.7z"/>
			<path class="st102" d="M516.8,175.7c0-52.1-21.1-99.2-55.2-133.4c-8.5-8.5-17.9-16.3-27.9-23v3.9H222.7v-3.9
				c-10,6.8-19.4,14.5-27.9,23c-34.1,34.1-55.2,81.3-55.2,133.4s21.1,99.2,55.2,133.4c8.5,8.5,17.9,16.3,27.9,23v-3.9h210.9v3.9
				c10-6.8,19.4-14.5,27.9-23C495.7,275,516.8,227.8,516.8,175.7z"/>
			<path class="st103" d="M513.8,175.7c0-51.3-20.8-97.7-54.4-131.3c-8.4-8.4-17.6-16-27.5-22.7v1.4H224.4v-1.4
				c-9.9,6.7-19.1,14.3-27.5,22.7c-33.6,33.6-54.4,80-54.4,131.3s20.8,97.7,54.4,131.3c8.4,8.4,17.6,16,27.5,22.7v-1.4h207.6v1.4
				c9.9-6.7,19.1-14.3,27.5-22.7C493,273.4,513.8,227,513.8,175.7z"/>
			<path class="st104" d="M510.8,175.7c0-50.4-20.4-96.1-53.5-129.1c-8.3-8.3-17.3-15.7-27-22.3c-2.4-1.6-4.9-3.2-7.4-4.8v3.6H233.4
				v-3.6c-2.5,1.5-5,3.1-7.4,4.8c-9.7,6.6-18.8,14-27,22.3c-33,33-53.5,78.7-53.5,129.1S166,271.8,199,304.9
				c8.3,8.3,17.3,15.7,27,22.3c2.4,1.6,4.9,3.2,7.4,4.8v-3.6h189.4v3.6c2.5-1.5,5-3.1,7.4-4.8c9.7-6.6,18.8-14,27-22.3
				C490.3,271.8,510.8,226.2,510.8,175.7z"/>
			<path class="st105" d="M507.8,175.7c0-49.6-20.1-94.5-52.6-127c-8.1-8.1-17-15.5-26.6-21.9c-4.8-3.2-9.7-6.2-14.8-9v5.4H242.5
				v-5.4c-5.1,2.8-10,5.8-14.8,9c-9.6,6.5-18.5,13.8-26.6,21.9c-32.5,32.5-52.6,77.4-52.6,127s20.1,94.5,52.6,127
				c8.1,8.1,17,15.5,26.6,21.9c4.8,3.2,9.7,6.2,14.8,9v-5.4h171.3v5.4c5.1-2.8,10-5.8,14.8-9c9.6-6.5,18.5-13.8,26.6-21.9
				C487.7,270.3,507.8,225.4,507.8,175.7z"/>
			<path class="st106" d="M504.8,175.7c0-48.8-19.8-92.9-51.7-124.9c-8-8-16.7-15.2-26.1-21.6c-4.7-3.2-9.6-6.1-14.6-8.8v2.8H244
				v-2.8c-5,2.7-9.9,5.7-14.6,8.8c-9.4,6.3-18.2,13.6-26.1,21.6c-32,32-51.7,76.1-51.7,124.9s19.8,92.9,51.7,124.9
				c8,8,16.7,15.2,26.1,21.6c4.7,3.2,9.6,6.1,14.6,8.8v-2.8h168.4v2.8c5-2.7,9.9-5.7,14.6-8.8c9.4-6.3,18.2-13.6,26.1-21.6
				C485,268.7,504.8,224.5,504.8,175.7z"/>
			<path class="st107" d="M501.8,175.7c0-48-19.4-91.4-50.9-122.8c-7.9-7.9-16.5-15-25.7-21.2c-4.6-3.1-9.4-6-14.3-8.7v0.1H245.4
				v-0.1c-4.9,2.7-9.7,5.6-14.3,8.7c-9.2,6.2-17.8,13.3-25.7,21.2c-31.4,31.4-50.9,74.8-50.9,122.8s19.4,91.4,50.9,122.8
				c7.9,7.9,16.5,15,25.7,21.2c4.6,3.1,9.4,6,14.3,8.7v-0.1h165.5v0.1c4.9-2.7,9.7-5.6,14.3-8.7c9.2-6.2,17.8-13.3,25.7-21.2
				C482.4,267.1,501.8,223.7,501.8,175.7z"/>
			<path class="st108" d="M498.8,175.7c0-47.1-19.1-89.8-50-120.7c-15.4-15.4-33.8-27.9-54.2-36.6v4.7H261.7v-4.7
				c-20.4,8.6-38.8,21.1-54.2,36.6c-30.9,30.9-50,73.5-50,120.7s19.1,89.8,50,120.7c15.4,15.4,33.8,27.9,54.2,36.6v-4.7h132.9v4.7
				c20.4-8.6,38.8-21.1,54.2-36.6C479.7,265.5,498.8,222.9,498.8,175.7z"/>
			<path class="st109" d="M495.8,175.7c0-46.3-18.8-88.2-49.1-118.6c-15.2-15.2-33.2-27.4-53.3-35.9v1.9H262.9v-1.9
				c-20.1,8.5-38.1,20.8-53.3,35.9c-30.3,30.3-49.1,72.3-49.1,118.6s18.8,88.2,49.1,118.6c15.2,15.2,33.2,27.4,53.3,35.9v-1.9h130.5
				v1.9c20.1-8.5,38.1-20.8,53.3-35.9C477,264,495.8,222,495.8,175.7z"/>
			<path class="st110" d="M492.8,175.7c0-45.5-18.4-86.6-48.2-116.4c-14.9-14.9-32.6-27-52.3-35.3c-4.9-2.1-10-3.9-15.1-5.5v4.7
				h-97.9v-4.7c-5.2,1.6-10.2,3.5-15.1,5.5c-19.7,8.3-37.4,20.4-52.3,35.3c-29.8,29.8-48.2,71-48.2,116.4s18.4,86.6,48.2,116.4
				c14.9,14.9,32.6,27,52.3,35.3c4.9,2.1,10,3.9,15.1,5.5v-4.7h97.9v4.7c5.2-1.6,10.2-3.5,15.1-5.5c19.7-8.3,37.4-20.4,52.3-35.3
				C474.4,262.4,492.8,221.2,492.8,175.7z"/>
			<path class="st111" d="M489.8,175.7c0-44.6-18.1-85.1-47.4-114.3c-14.6-14.6-32-26.5-51.4-34.6c-9.7-4.1-19.8-7.3-30.3-9.4v5.8
				h-65.2v-5.8c-10.5,2.2-20.7,5.3-30.3,9.4c-19.3,8.2-36.8,20-51.4,34.6c-29.3,29.3-47.4,69.7-47.4,114.3s18.1,85.1,47.4,114.3
				c14.6,14.6,32,26.5,51.4,34.6c9.7,4.1,19.8,7.3,30.3,9.4v-5.8h65.2v5.8c10.5-2.2,20.7-5.3,30.3-9.4c19.3-8.2,36.8-20,51.4-34.6
				C471.7,260.8,489.8,220.4,489.8,175.7z"/>
			<circle class="st112" cx="328.1" cy="175.7" r="158.7"/>
			<circle class="st113" cx="328.1" cy="175.7" r="155.7"/>
			<circle class="st114" cx="328.1" cy="175.7" r="152.7"/>
			<circle class="st115" cx="328.1" cy="175.7" r="149.7"/>
			<circle class="st116" cx="328.1" cy="175.7" r="146.7"/>
			<circle class="st117" cx="328.1" cy="175.7" r="143.7"/>
			<circle class="st118" cx="328.1" cy="175.7" r="140.7"/>
			<circle class="st119" cx="328.1" cy="175.7" r="137.7"/>
			<circle class="st120" cx="328.1" cy="175.7" r="134.7"/>
			<circle class="st121" cx="328.1" cy="175.7" r="131.7"/>
			<circle class="st122" cx="328.1" cy="175.7" r="128.7"/>
			<circle class="st123" cx="328.1" cy="175.7" r="125.7"/>
			<circle class="st124" cx="328.1" cy="175.7" r="122.8"/>
			<circle class="st125" cx="328.1" cy="175.7" r="119.8"/>
			<circle class="st126" cx="328.1" cy="175.7" r="116.8"/>
			<circle class="st127" cx="328.1" cy="175.7" r="113.8"/>
			<circle class="st128" cx="328.1" cy="175.7" r="110.8"/>
			<circle class="st129" cx="328.1" cy="175.7" r="107.8"/>
			<circle class="st130" cx="328.1" cy="175.7" r="104.8"/>
			<circle class="st131" cx="328.1" cy="175.7" r="101.8"/>
			<circle class="st132" cx="328.1" cy="175.7" r="98.8"/>
			<circle class="st133" cx="328.1" cy="175.7" r="95.8"/>
			<circle class="st134" cx="328.1" cy="175.7" r="92.8"/>
			<circle class="st135" cx="328.1" cy="175.7" r="89.8"/>
			<circle class="st136" cx="328.1" cy="175.7" r="86.8"/>
			<circle class="st137" cx="328.1" cy="175.7" r="83.8"/>
			<circle class="st138" cx="328.1" cy="175.7" r="80.8"/>
			<circle class="st139" cx="328.1" cy="175.7" r="77.8"/>
			<circle class="st140" cx="328.1" cy="175.7" r="74.8"/>
			<circle class="st141" cx="328.1" cy="175.7" r="71.9"/>
			<circle class="st142" cx="328.1" cy="175.7" r="68.9"/>
			<circle class="st143" cx="328.1" cy="175.7" r="65.9"/>
			<circle class="st144" cx="328.1" cy="175.7" r="62.9"/>
			<circle class="st145" cx="328.1" cy="175.7" r="59.9"/>
			<circle class="st146" cx="328.1" cy="175.7" r="56.9"/>
			<circle class="st147" cx="328.1" cy="175.7" r="53.9"/>
			<circle class="st148" cx="328.1" cy="175.7" r="50.9"/>
			<circle class="st149" cx="328.1" cy="175.7" r="47.9"/>
			<circle class="st150" cx="328.1" cy="175.7" r="44.9"/>
			<circle class="st151" cx="328.1" cy="175.7" r="41.9"/>
			<circle class="st152" cx="328.1" cy="175.7" r="38.9"/>
			<circle class="st153" cx="328.1" cy="175.7" r="35.9"/>
			<circle class="st154" cx="328.1" cy="175.7" r="32.9"/>
			<circle class="st155" cx="328.1" cy="175.7" r="29.9"/>
			<circle class="st156" cx="328.1" cy="175.7" r="26.9"/>
			<circle class="st157" cx="328.1" cy="175.7" r="24"/>
			<circle class="st158" cx="328.1" cy="175.7" r="21"/>
			<circle class="st159" cx="328.1" cy="175.7" r="18"/>
			<circle class="st160" cx="328.1" cy="175.7" r="15"/>
			<circle class="st161" cx="328.1" cy="175.7" r="12"/>
			<circle class="st162" cx="328.1" cy="175.7" r="9"/>
			<circle class="st163" cx="328.1" cy="175.7" r="6"/>
			<circle class="st164" cx="328.1" cy="175.7" r="3"/>
		</g>
	</g>
	<g>
		<g>
			<g>
				<defs>
					<path id="SVGID_8_" d="M610.9,266.3c0,33.6-27.5,61.1-61.1,61.1H106.5c-33.6,0-61.1-27.5-61.1-61.1V94.4
						c0-33.6,27.5-61.1,61.1-61.1h443.3c33.6,0,61.1,27.5,61.1,61.1V266.3z"/>
				</defs>
				<clipPath id="SVGID_9_">
					<use xlink:href="#SVGID_8_"  style="overflow:visible;"/>
				</clipPath>
				<g class="st165">
					<rect x="45.5" y="33.4" class="st166" width="565.4" height="294"/>
				</g>
			</g>
			<g>
				<defs>
					<path id="SVGID_10_" d="M610.9,266.3c0,33.6-27.5,61.1-61.1,61.1H106.5c-33.6,0-61.1-27.5-61.1-61.1V94.4
						c0-33.6,27.5-61.1,61.1-61.1h443.3c33.6,0,61.1,27.5,61.1,61.1V266.3z"/>
				</defs>
				<clipPath id="SVGID_11_">
					<use xlink:href="#SVGID_10_"  style="overflow:visible;"/>
				</clipPath>
				<g class="st167">
					<path class="st166" d="M611.9,64.5v62.9v33.8h4.4c-3.4,2.1-7,4.1-10.6,6.1c-7.3,4-15,7.8-23.1,11.5
						c-64.7,29.2-154.1,47.3-252.9,47.3S141.5,208,76.8,178.8c-8.1-3.7-15.8-7.5-23.1-11.5c-3.6-2-7.2-4-10.6-6.1h1.4V32.4h567.4
						L611.9,64.5L611.9,64.5z"/>
				</g>
			</g>
			<g>
				<defs>
					<path id="SVGID_12_" d="M610.9,266.3c0,33.6-27.5,61.1-61.1,61.1H106.5c-33.6,0-61.1-27.5-61.1-61.1V94.4
						c0-33.6,27.5-61.1,61.1-61.1h443.3c33.6,0,61.1,27.5,61.1,61.1V266.3z"/>
				</defs>
				<clipPath id="SVGID_13_">
					<use xlink:href="#SVGID_12_"  style="overflow:visible;"/>
				</clipPath>
				<g class="st168">
					<path class="st169" d="M611.9,64.5v60.8v26.6h4.8c-12.4,8.3-26.6,16.1-42.3,23.1c-62.6,28.3-149.2,45.8-244.7,45.8
						c-95.6,0-182.1-17.5-244.7-45.8c-15.7-7.1-29.8-14.8-42.3-23.1h1.8V32.3h567.4L611.9,64.5L611.9,64.5z"/>
				</g>
			</g>
			<g>
				<defs>
					<path id="SVGID_14_" d="M610.9,266.3c0,33.6-27.5,61.1-61.1,61.1H106.5c-33.6,0-61.1-27.5-61.1-61.1V94.4
						c0-33.6,27.5-61.1,61.1-61.1h443.3c33.6,0,61.1,27.5,61.1,61.1V266.3z"/>
				</defs>
				<clipPath id="SVGID_15_">
					<use xlink:href="#SVGID_14_"  style="overflow:visible;"/>
				</clipPath>
				<g class="st170">
					<path class="st171" d="M611.9,64.5v58.8v19.5h3.9c-2.8,2.1-5.7,4.1-8.7,6.1c-12,8-25.7,15.5-40.9,22.4
						c-60.5,27.3-144.2,44.3-236.6,44.3s-176-16.9-236.6-44.3c-15.1-6.8-28.8-14.3-40.9-22.4c-3-2-5.9-4.1-8.7-6.1h0.9V32.3h567.4
						v32.2H611.9z"/>
				</g>
			</g>
			<g>
				<defs>
					<path id="SVGID_16_" d="M610.9,266.3c0,33.6-27.5,61.1-61.1,61.1H106.5c-33.6,0-61.1-27.5-61.1-61.1V94.4
						c0-33.6,27.5-61.1,61.1-61.1h443.3c33.6,0,61.1,27.5,61.1,61.1V266.3z"/>
				</defs>
				<clipPath id="SVGID_17_">
					<use xlink:href="#SVGID_16_"  style="overflow:visible;"/>
				</clipPath>
				<g class="st172">
					<path class="st173" d="M611.9,64.5v56.8v12.8h1.8c-5,4.1-10.4,8.1-16.2,12c-11.6,7.8-24.8,15-39.4,21.6
						c-58.5,26.4-139.2,42.7-228.4,42.7s-170-16.3-228.4-42.7c-14.6-6.6-27.8-13.8-39.4-21.6c-5.8-3.9-11.2-7.9-16.2-12
						c-2.5-2.1-4.9-4.2-7.1-6.3h5.9V32.4h567.4L611.9,64.5L611.9,64.5z"/>
				</g>
			</g>
			<g>
				<defs>
					<path id="SVGID_18_" d="M610.9,266.3c0,33.6-27.5,61.1-61.1,61.1H106.5c-33.6,0-61.1-27.5-61.1-61.1V94.4
						c0-33.6,27.5-61.1,61.1-61.1h443.3c33.6,0,61.1,27.5,61.1,61.1V266.3z"/>
				</defs>
				<clipPath id="SVGID_19_">
					<use xlink:href="#SVGID_18_"  style="overflow:visible;"/>
				</clipPath>
				<g class="st174">
					<path class="st175" d="M611.9,64.5v54.8h4.8c-15.8,16.8-38.6,32-66.8,44.7c-56.4,25.5-134.2,41.2-220.3,41.2
						S165.7,189.5,109.3,164c-28.2-12.7-51-27.9-66.8-44.7h1.8V32.4h567.4v32.1H611.9z"/>
				</g>
			</g>
			<g>
				<defs>
					<path id="SVGID_20_" d="M610.9,266.3c0,33.6-27.5,61.1-61.1,61.1H106.5c-33.6,0-61.1-27.5-61.1-61.1V94.4
						c0-33.6,27.5-61.1,61.1-61.1h443.3c33.6,0,61.1,27.5,61.1,61.1V266.3z"/>
				</defs>
				<clipPath id="SVGID_21_">
					<use xlink:href="#SVGID_20_"  style="overflow:visible;"/>
				</clipPath>
				<g class="st176">
					<path class="st177" d="M611.9,64.5v27.3v13h4.3c-2.9,4.2-6.3,8.4-10.1,12.4c-15.2,16.2-37.1,30.8-64.3,43.1
						C487.5,184.8,412.5,200,329.7,200s-157.8-15.2-212.1-39.7c-27.1-12.3-49.1-26.9-64.3-43.1c-3.8-4.1-7.2-8.2-10.1-12.4h1.2V32.4
						h567.4L611.9,64.5L611.9,64.5z"/>
				</g>
			</g>
			<g>
				<defs>
					<path id="SVGID_22_" d="M610.9,266.3c0,33.6-27.5,61.1-61.1,61.1H106.5c-33.6,0-61.1-27.5-61.1-61.1V94.4
						c0-33.6,27.5-61.1,61.1-61.1h443.3c33.6,0,61.1,27.5,61.1,61.1V266.3z"/>
				</defs>
				<clipPath id="SVGID_23_">
					<use xlink:href="#SVGID_22_"  style="overflow:visible;"/>
				</clipPath>
				<g class="st178">
					<path class="st179" d="M618.1,64.5c0,71.9-129.1,130.3-288.4,130.3S41.3,136.5,41.3,64.5c0-9,2-17.8,5.9-26.3
						c1.9-4.2,4.3-8.4,7.1-12.5v6.6h550.9v-6.6c2.8,4.1,5.2,8.2,7.1,12.5h-0.4v26.3H618.1z"/>
				</g>
			</g>
			<g>
				<defs>
					<path id="SVGID_24_" d="M610.9,266.3c0,33.6-27.5,61.1-61.1,61.1H106.5c-33.6,0-61.1-27.5-61.1-61.1V94.4
						c0-33.6,27.5-61.1,61.1-61.1h443.3c33.6,0,61.1,27.5,61.1,61.1V266.3z"/>
				</defs>
				<clipPath id="SVGID_25_">
					<use xlink:href="#SVGID_24_"  style="overflow:visible;"/>
				</clipPath>
				<g class="st180">
					<path class="st181" d="M606.6,64.5c0,69.1-124,125-276.9,125s-276.9-56-276.9-125c0-8.6,1.9-17.1,5.6-25.2
						c1.8-4.1,4.1-8.1,6.8-12v5h528.9v-5c2.7,3.9,5,7.9,6.8,12C604.7,47.5,606.6,55.9,606.6,64.5z"/>
				</g>
			</g>
			<g>
				<defs>
					<path id="SVGID_26_" d="M610.9,266.3c0,33.6-27.5,61.1-61.1,61.1H106.5c-33.6,0-61.1-27.5-61.1-61.1V94.4
						c0-33.6,27.5-61.1,61.1-61.1h443.3c33.6,0,61.1,27.5,61.1,61.1V266.3z"/>
				</defs>
				<clipPath id="SVGID_27_">
					<use xlink:href="#SVGID_26_"  style="overflow:visible;"/>
				</clipPath>
				<g class="st182">
					<path class="st183" d="M595.1,64.5c0,66.2-118.8,119.8-265.3,119.8S64.5,130.6,64.5,64.5c0-8.3,1.9-16.4,5.4-24.2
						c1.8-3.9,4-7.7,6.5-11.5v3.5h506.8v-3.5c2.6,3.8,4.8,7.6,6.5,11.5C593.2,48.2,595.1,56.2,595.1,64.5z"/>
				</g>
			</g>
			<g>
				<defs>
					<path id="SVGID_28_" d="M610.9,266.3c0,33.6-27.5,61.1-61.1,61.1H106.5c-33.6,0-61.1-27.5-61.1-61.1V94.4
						c0-33.6,27.5-61.1,61.1-61.1h443.3c33.6,0,61.1,27.5,61.1,61.1V266.3z"/>
				</defs>
				<clipPath id="SVGID_29_">
					<use xlink:href="#SVGID_28_"  style="overflow:visible;"/>
				</clipPath>
				<g class="st184">
					<path class="st185" d="M583.5,64.5c0,63.3-113.6,114.6-253.8,114.6S75.9,127.8,75.9,64.5c0-7.9,1.8-15.6,5.2-23.1
						c1.7-3.7,3.8-7.4,6.3-11v1.9h484.8v-1.9c2.5,3.6,4.6,7.3,6.3,11C581.8,48.9,583.5,56.6,583.5,64.5z"/>
				</g>
			</g>
			<g>
				<defs>
					<path id="SVGID_30_" d="M610.9,266.3c0,33.6-27.5,61.1-61.1,61.1H106.5c-33.6,0-61.1-27.5-61.1-61.1V94.4
						c0-33.6,27.5-61.1,61.1-61.1h443.3c33.6,0,61.1,27.5,61.1,61.1V266.3z"/>
				</defs>
				<clipPath id="SVGID_31_">
					<use xlink:href="#SVGID_30_"  style="overflow:visible;"/>
				</clipPath>
				<g class="st186">
					<path class="st187" d="M572,64.5c0,60.4-108.5,109.4-242.3,109.4S87.4,124.9,87.4,64.5c0-7.6,1.7-14.9,4.9-22.1
						c1.6-3.6,3.6-7.1,6-10.5v0.4H561v-0.4c2.4,3.4,4.4,6.9,6,10.5C570.3,49.6,572,57,572,64.5z"/>
				</g>
			</g>
			<g>
				<defs>
					<path id="SVGID_32_" d="M610.9,266.3c0,33.6-27.5,61.1-61.1,61.1H106.5c-33.6,0-61.1-27.5-61.1-61.1V94.4
						c0-33.6,27.5-61.1,61.1-61.1h443.3c33.6,0,61.1,27.5,61.1,61.1V266.3z"/>
				</defs>
				<clipPath id="SVGID_33_">
					<use xlink:href="#SVGID_32_"  style="overflow:visible;"/>
				</clipPath>
				<g class="st188">
					<path class="st189" d="M560.5,64.5c0,57.6-103.3,104.2-230.7,104.2S99.1,122,99.1,64.5c0-7.2,1.6-14.2,4.7-21
						c1.5-3.4,3.4-6.7,5.7-10c1.1-1.6,2.3-3.2,3.6-4.8v3.7h433.4v-3.7c1.3,1.6,2.5,3.2,3.6,4.8c2.2,3.3,4.1,6.6,5.7,10
						C558.8,50.3,560.5,57.3,560.5,64.5z"/>
				</g>
			</g>
			<g>
				<defs>
					<path id="SVGID_34_" d="M610.9,266.3c0,33.6-27.5,61.1-61.1,61.1H106.5c-33.6,0-61.1-27.5-61.1-61.1V94.4
						c0-33.6,27.5-61.1,61.1-61.1h443.3c33.6,0,61.1,27.5,61.1,61.1V266.3z"/>
				</defs>
				<clipPath id="SVGID_35_">
					<use xlink:href="#SVGID_34_"  style="overflow:visible;"/>
				</clipPath>
				<g class="st190">
					<path class="st191" d="M548.9,64.5c0,54.7-98.1,99-219.2,99s-219.2-44.3-219.2-99c0-13.7,6.1-26.7,17.2-38.5v6.4h403.9V26
						C542.8,37.8,548.9,50.9,548.9,64.5z"/>
				</g>
			</g>
			<g>
				<defs>
					<path id="SVGID_36_" d="M610.9,266.3c0,33.6-27.5,61.1-61.1,61.1H106.5c-33.6,0-61.1-27.5-61.1-61.1V94.4
						c0-33.6,27.5-61.1,61.1-61.1h443.3c33.6,0,61.1,27.5,61.1,61.1V266.3z"/>
				</defs>
				<clipPath id="SVGID_37_">
					<use xlink:href="#SVGID_36_"  style="overflow:visible;"/>
				</clipPath>
				<g class="st192">
					<path class="st193" d="M537.4,64.5c0,51.8-93,93.8-207.7,93.8S122,116.3,122,64.5c0-12.9,5.8-25.3,16.3-36.5v4.3H521V28
						C531.6,39.2,537.4,51.6,537.4,64.5z"/>
				</g>
			</g>
			<g>
				<defs>
					<path id="SVGID_38_" d="M610.9,266.3c0,33.6-27.5,61.1-61.1,61.1H106.5c-33.6,0-61.1-27.5-61.1-61.1V94.4
						c0-33.6,27.5-61.1,61.1-61.1h443.3c33.6,0,61.1,27.5,61.1,61.1V266.3z"/>
				</defs>
				<clipPath id="SVGID_39_">
					<use xlink:href="#SVGID_38_"  style="overflow:visible;"/>
				</clipPath>
				<g class="st194">
					<path class="st195" d="M525.8,64.5c0,48.9-87.8,88.6-196.1,88.6s-196.1-39.7-196.1-88.6c0-12.2,5.5-23.9,15.4-34.5v2.3h361.4
						V30C520.4,40.6,525.8,52.3,525.8,64.5z"/>
				</g>
			</g>
			<g>
				<defs>
					<path id="SVGID_40_" d="M610.9,266.3c0,33.6-27.5,61.1-61.1,61.1H106.5c-33.6,0-61.1-27.5-61.1-61.1V94.4
						c0-33.6,27.5-61.1,61.1-61.1h443.3c33.6,0,61.1,27.5,61.1,61.1V266.3z"/>
				</defs>
				<clipPath id="SVGID_41_">
					<use xlink:href="#SVGID_40_"  style="overflow:visible;"/>
				</clipPath>
				<g class="st196">
					<path class="st197" d="M514.3,64.5c0,46-82.6,83.4-184.6,83.4c-101.9,0-184.6-37.3-184.6-83.4c0-11.5,5.2-22.5,14.5-32.4v0.3
						h340.2v-0.3C509.1,42,514.3,53,514.3,64.5z"/>
				</g>
			</g>
			<g>
				<defs>
					<path id="SVGID_42_" d="M610.9,266.3c0,33.6-27.5,61.1-61.1,61.1H106.5c-33.6,0-61.1-27.5-61.1-61.1V94.4
						c0-33.6,27.5-61.1,61.1-61.1h443.3c33.6,0,61.1,27.5,61.1,61.1V266.3z"/>
				</defs>
				<clipPath id="SVGID_43_">
					<use xlink:href="#SVGID_42_"  style="overflow:visible;"/>
				</clipPath>
				<g class="st198">
					<path class="st199" d="M502.8,64.5c0,43.2-77.5,78.2-173,78.2c-95.6,0-173-35-173-78.2c0-10.8,4.8-21.1,13.6-30.4
						c2.2-2.3,4.6-4.6,7.3-6.8v5.1H482v-5.1c2.7,2.2,5.1,4.5,7.3,6.8C497.9,43.5,502.8,53.7,502.8,64.5z"/>
				</g>
			</g>
			<g>
				<defs>
					<path id="SVGID_44_" d="M610.9,266.3c0,33.6-27.5,61.1-61.1,61.1H106.5c-33.6,0-61.1-27.5-61.1-61.1V94.4
						c0-33.6,27.5-61.1,61.1-61.1h443.3c33.6,0,61.1,27.5,61.1,61.1V266.3z"/>
				</defs>
				<clipPath id="SVGID_45_">
					<use xlink:href="#SVGID_44_"  style="overflow:visible;"/>
				</clipPath>
				<g class="st200">
					<path class="st201" d="M491.2,64.5c0,40.3-72.3,72.9-161.5,72.9s-161.5-32.7-161.5-72.9c0-10.1,4.5-19.7,12.7-28.4
						c2-2.2,4.3-4.3,6.8-6.4v2.6h284v-2.6c2.5,2.1,4.8,4.2,6.8,6.4C486.7,44.9,491.2,54.5,491.2,64.5z"/>
				</g>
			</g>
			<g>
				<defs>
					<path id="SVGID_46_" d="M610.9,266.3c0,33.6-27.5,61.1-61.1,61.1H106.5c-33.6,0-61.1-27.5-61.1-61.1V94.4
						c0-33.6,27.5-61.1,61.1-61.1h443.3c33.6,0,61.1,27.5,61.1,61.1V266.3z"/>
				</defs>
				<clipPath id="SVGID_47_">
					<use xlink:href="#SVGID_46_"  style="overflow:visible;"/>
				</clipPath>
				<g class="st202">
					<path class="st203" d="M479.7,64.5c0,37.4-67.1,67.7-150,67.7s-150-30.3-150-67.7c0-9.4,4.2-18.3,11.8-26.4
						c3.8-4.1,8.4-7.9,13.8-11.5v5.7H454v-5.7c5.4,3.6,10,7.5,13.8,11.5C475.5,46.3,479.7,55.2,479.7,64.5z"/>
				</g>
			</g>
			<g>
				<defs>
					<path id="SVGID_48_" d="M610.9,266.3c0,33.6-27.5,61.1-61.1,61.1H106.5c-33.6,0-61.1-27.5-61.1-61.1V94.4
						c0-33.6,27.5-61.1,61.1-61.1h443.3c33.6,0,61.1,27.5,61.1,61.1V266.3z"/>
				</defs>
				<clipPath id="SVGID_49_">
					<use xlink:href="#SVGID_48_"  style="overflow:visible;"/>
				</clipPath>
				<g class="st204">
					<path class="st205" d="M468.2,64.5c0,34.5-62,62.5-138.4,62.5c-76.5,0-138.4-28-138.4-62.5c0-8.6,3.9-16.9,10.9-24.3
						c3.5-3.7,7.8-7.3,12.8-10.6v2.8h229.4v-2.8c5,3.3,9.3,6.9,12.8,10.6C464.3,47.7,468.2,55.9,468.2,64.5z"/>
				</g>
			</g>
			<g>
				<defs>
					<path id="SVGID_50_" d="M610.9,266.3c0,33.6-27.5,61.1-61.1,61.1H106.5c-33.6,0-61.1-27.5-61.1-61.1V94.4
						c0-33.6,27.5-61.1,61.1-61.1h443.3c33.6,0,61.1,27.5,61.1,61.1V266.3z"/>
				</defs>
				<clipPath id="SVGID_51_">
					<use xlink:href="#SVGID_50_"  style="overflow:visible;"/>
				</clipPath>
				<g class="st206">
					<path class="st207" d="M456.6,64.5c0,31.7-56.8,57.3-126.9,57.3S202.8,96.1,202.8,64.5c0-7.9,3.6-15.5,10-22.3
						c3.2-3.4,7.1-6.7,11.7-9.7c2.3-1.5,4.7-3,7.3-4.4v4.3h195.8v-4.3c2.6,1.4,5,2.9,7.3,4.4c4.6,3,8.5,6.3,11.7,9.7
						C453.1,49.1,456.6,56.6,456.6,64.5z"/>
				</g>
			</g>
			<g>
				<defs>
					<path id="SVGID_52_" d="M610.9,266.3c0,33.6-27.5,61.1-61.1,61.1H106.5c-33.6,0-61.1-27.5-61.1-61.1V94.4
						c0-33.6,27.5-61.1,61.1-61.1h443.3c33.6,0,61.1,27.5,61.1,61.1V266.3z"/>
				</defs>
				<clipPath id="SVGID_53_">
					<use xlink:href="#SVGID_52_"  style="overflow:visible;"/>
				</clipPath>
				<g class="st208">
					<path class="st209" d="M445.1,64.5c0,28.8-51.7,52.1-115.4,52.1S214.3,93.3,214.3,64.5c0-14.4,12.9-27.4,33.8-36.8v4.7h163.2
						v-4.7C432.2,37.1,445.1,50.1,445.1,64.5z"/>
				</g>
			</g>
			<g>
				<defs>
					<path id="SVGID_54_" d="M610.9,266.3c0,33.6-27.5,61.1-61.1,61.1H106.5c-33.6,0-61.1-27.5-61.1-61.1V94.4
						c0-33.6,27.5-61.1,61.1-61.1h443.3c33.6,0,61.1,27.5,61.1,61.1V266.3z"/>
				</defs>
				<clipPath id="SVGID_55_">
					<use xlink:href="#SVGID_54_"  style="overflow:visible;"/>
				</clipPath>
				<g class="st210">
					<path class="st211" d="M433.6,64.5c0,25.9-46.5,46.9-103.8,46.9S226,90.4,226,64.5c0-12.9,11.6-24.7,30.4-33.2v1h146.8v-1
						C421.9,39.9,433.6,51.6,433.6,64.5z"/>
				</g>
			</g>
			<g>
				<defs>
					<path id="SVGID_56_" d="M610.9,266.3c0,33.6-27.5,61.1-61.1,61.1H106.5c-33.6,0-61.1-27.5-61.1-61.1V94.4
						c0-33.6,27.5-61.1,61.1-61.1h443.3c33.6,0,61.1,27.5,61.1,61.1V266.3z"/>
				</defs>
				<clipPath id="SVGID_57_">
					<use xlink:href="#SVGID_56_"  style="overflow:visible;"/>
				</clipPath>
				<g class="st212">
					<path class="st213" d="M422,64.5c0,23-41.3,41.7-92.3,41.7s-92.3-18.7-92.3-41.7c0-11.5,10.3-21.9,27-29.5
						c8.4-3.8,18.3-6.8,29.3-8.9v6.2h71.8v-6.2c11,2.1,21,5.2,29.3,8.9C411.7,42.6,422,53,422,64.5z"/>
				</g>
			</g>
			<g>
				<defs>
					<path id="SVGID_58_" d="M610.9,266.3c0,33.6-27.5,61.1-61.1,61.1H106.5c-33.6,0-61.1-27.5-61.1-61.1V94.4
						c0-33.6,27.5-61.1,61.1-61.1h443.3c33.6,0,61.1,27.5,61.1,61.1V266.3z"/>
				</defs>
				<clipPath id="SVGID_59_">
					<use xlink:href="#SVGID_58_"  style="overflow:visible;"/>
				</clipPath>
				<g class="st214">
					<ellipse class="st215" cx="329.7" cy="64.5" rx="80.8" ry="36.5"/>
				</g>
			</g>
			<g>
				<defs>
					<path id="SVGID_60_" d="M610.9,266.3c0,33.6-27.5,61.1-61.1,61.1H106.5c-33.6,0-61.1-27.5-61.1-61.1V94.4
						c0-33.6,27.5-61.1,61.1-61.1h443.3c33.6,0,61.1,27.5,61.1,61.1V266.3z"/>
				</defs>
				<clipPath id="SVGID_61_">
					<use xlink:href="#SVGID_60_"  style="overflow:visible;"/>
				</clipPath>
				<g class="st216">
					<ellipse class="st217" cx="329.7" cy="64.5" rx="69.2" ry="31.3"/>
				</g>
			</g>
			<g>
				<defs>
					<path id="SVGID_62_" d="M610.9,266.3c0,33.6-27.5,61.1-61.1,61.1H106.5c-33.6,0-61.1-27.5-61.1-61.1V94.4
						c0-33.6,27.5-61.1,61.1-61.1h443.3c33.6,0,61.1,27.5,61.1,61.1V266.3z"/>
				</defs>
				<clipPath id="SVGID_63_">
					<use xlink:href="#SVGID_62_"  style="overflow:visible;"/>
				</clipPath>
				<g class="st218">
					<ellipse class="st219" cx="329.7" cy="64.5" rx="57.7" ry="26.1"/>
				</g>
			</g>
			<g>
				<defs>
					<path id="SVGID_64_" d="M610.9,266.3c0,33.6-27.5,61.1-61.1,61.1H106.5c-33.6,0-61.1-27.5-61.1-61.1V94.4
						c0-33.6,27.5-61.1,61.1-61.1h443.3c33.6,0,61.1,27.5,61.1,61.1V266.3z"/>
				</defs>
				<clipPath id="SVGID_65_">
					<use xlink:href="#SVGID_64_"  style="overflow:visible;"/>
				</clipPath>
				<g class="st220">
					<ellipse class="st221" cx="329.7" cy="64.5" rx="46.1" ry="20.8"/>
				</g>
			</g>
			<g>
				<defs>
					<path id="SVGID_66_" d="M610.9,266.3c0,33.6-27.5,61.1-61.1,61.1H106.5c-33.6,0-61.1-27.5-61.1-61.1V94.4
						c0-33.6,27.5-61.1,61.1-61.1h443.3c33.6,0,61.1,27.5,61.1,61.1V266.3z"/>
				</defs>
				<clipPath id="SVGID_67_">
					<use xlink:href="#SVGID_66_"  style="overflow:visible;"/>
				</clipPath>
				<g class="st222">
					<ellipse class="st223" cx="329.7" cy="64.5" rx="34.6" ry="15.6"/>
				</g>
			</g>
			<g>
				<defs>
					<path id="SVGID_68_" d="M610.9,266.3c0,33.6-27.5,61.1-61.1,61.1H106.5c-33.6,0-61.1-27.5-61.1-61.1V94.4
						c0-33.6,27.5-61.1,61.1-61.1h443.3c33.6,0,61.1,27.5,61.1,61.1V266.3z"/>
				</defs>
				<clipPath id="SVGID_69_">
					<use xlink:href="#SVGID_68_"  style="overflow:visible;"/>
				</clipPath>
				<g class="st224">
					<ellipse class="st225" cx="329.7" cy="64.5" rx="23.1" ry="10.4"/>
				</g>
			</g>
			<g>
				<defs>
					<path id="SVGID_70_" d="M610.9,266.3c0,33.6-27.5,61.1-61.1,61.1H106.5c-33.6,0-61.1-27.5-61.1-61.1V94.4
						c0-33.6,27.5-61.1,61.1-61.1h443.3c33.6,0,61.1,27.5,61.1,61.1V266.3z"/>
				</defs>
				<clipPath id="SVGID_71_">
					<use xlink:href="#SVGID_70_"  style="overflow:visible;"/>
				</clipPath>
				<g class="st226">
					<ellipse class="st227" cx="329.7" cy="64.5" rx="11.5" ry="5.2"/>
				</g>
			</g>
		</g>
	</g>
	<g class="st228">
		<ellipse class="st66" cx="103.7" cy="69.7" rx="21.3" ry="17.6"/>
	</g>
	<g class="st228">
		<ellipse class="st66" cx="554.2" cy="291.1" rx="15.1" ry="13.8"/>
	</g>
	<g class="st228">
		<ellipse class="st66" cx="576.8" cy="227" rx="17.6" ry="32.6"/>
	</g>
</g>
<g class="st229">
	<g>
		<g>
			<g id="SVGID_6_">
				<path class="st230" d="M610.9,266.3c0,33.6-27.5,61.1-61.1,61.1H106.5c-33.6,0-61.1-27.5-61.1-61.1V94.4
					c0-33.6,27.5-61.1,61.1-61.1h443.3c33.6,0,61.1,27.5,61.1,61.1V266.3z"/>
			</g>
		</g>
		<g>
			<defs>
				<path id="SVGID_72_" d="M610.9,266.3c0,33.6-27.5,61.1-61.1,61.1H106.5c-33.6,0-61.1-27.5-61.1-61.1V94.4
					c0-33.6,27.5-61.1,61.1-61.1h443.3c33.6,0,61.1,27.5,61.1,61.1V266.3z"/>
			</defs>
			<clipPath id="SVGID_73_">
				<use xlink:href="#SVGID_72_"  style="overflow:visible;"/>
			</clipPath>
			<g class="st231">
				<rect x="45.5" y="33.4" class="st230" width="565.4" height="294"/>
			</g>
		</g>
		<g>
			<defs>
				<path id="SVGID_74_" d="M610.9,266.3c0,33.6-27.5,61.1-61.1,61.1H106.5c-33.6,0-61.1-27.5-61.1-61.1V94.4
					c0-33.6,27.5-61.1,61.1-61.1h443.3c33.6,0,61.1,27.5,61.1,61.1V266.3z"/>
			</defs>
			<clipPath id="SVGID_75_">
				<use xlink:href="#SVGID_74_"  style="overflow:visible;"/>
			</clipPath>
			<g class="st232">
				<path class="st230" d="M611.9,64.5v62.9v33.8h4.4c-3.4,2.1-7,4.1-10.6,6.1c-7.3,4-15,7.8-23.1,11.5
					c-64.7,29.2-154.1,47.3-252.9,47.3S141.5,208,76.8,178.8c-8.1-3.7-15.8-7.5-23.1-11.5c-3.6-2-7.2-4-10.6-6.1h1.4V32.4h567.4
					L611.9,64.5L611.9,64.5z"/>
			</g>
		</g>
		<g>
			<defs>
				<path id="SVGID_76_" d="M610.9,266.3c0,33.6-27.5,61.1-61.1,61.1H106.5c-33.6,0-61.1-27.5-61.1-61.1V94.4
					c0-33.6,27.5-61.1,61.1-61.1h443.3c33.6,0,61.1,27.5,61.1,61.1V266.3z"/>
			</defs>
			<clipPath id="SVGID_77_">
				<use xlink:href="#SVGID_76_"  style="overflow:visible;"/>
			</clipPath>
			<g class="st233">
				<path class="st230" d="M611.9,64.5v60.8v26.6h4.8c-12.4,8.3-26.6,16.1-42.3,23.1c-62.6,28.3-149.2,45.8-244.7,45.8
					c-95.6,0-182.1-17.5-244.7-45.8c-15.7-7.1-29.8-14.8-42.3-23.1h1.8V32.3h567.4L611.9,64.5L611.9,64.5z"/>
			</g>
		</g>
		<g>
			<defs>
				<path id="SVGID_78_" d="M610.9,266.3c0,33.6-27.5,61.1-61.1,61.1H106.5c-33.6,0-61.1-27.5-61.1-61.1V94.4
					c0-33.6,27.5-61.1,61.1-61.1h443.3c33.6,0,61.1,27.5,61.1,61.1V266.3z"/>
			</defs>
			<clipPath id="SVGID_79_">
				<use xlink:href="#SVGID_78_"  style="overflow:visible;"/>
			</clipPath>
			<g class="st234">
				<path class="st230" d="M611.9,64.5v58.8v19.5h3.9c-2.8,2.1-5.7,4.1-8.7,6.1c-12,8-25.7,15.5-40.9,22.4
					c-60.5,27.3-144.2,44.3-236.6,44.3s-176-16.9-236.6-44.3c-15.1-6.8-28.8-14.3-40.9-22.4c-3-2-5.9-4.1-8.7-6.1h0.9V32.3h567.4
					v32.2H611.9z"/>
			</g>
		</g>
		<g>
			<defs>
				<path id="SVGID_80_" d="M610.9,266.3c0,33.6-27.5,61.1-61.1,61.1H106.5c-33.6,0-61.1-27.5-61.1-61.1V94.4
					c0-33.6,27.5-61.1,61.1-61.1h443.3c33.6,0,61.1,27.5,61.1,61.1V266.3z"/>
			</defs>
			<clipPath id="SVGID_81_">
				<use xlink:href="#SVGID_80_"  style="overflow:visible;"/>
			</clipPath>
			<g class="st235">
				<path class="st230" d="M611.9,64.5v56.8v12.8h1.8c-5,4.1-10.4,8.1-16.2,12c-11.6,7.8-24.8,15-39.4,21.6
					c-58.5,26.4-139.2,42.7-228.4,42.7s-170-16.3-228.4-42.7c-14.6-6.6-27.8-13.8-39.4-21.6c-5.8-3.9-11.2-7.9-16.2-12
					c-2.5-2.1-4.9-4.2-7.1-6.3h5.9V32.4h567.4L611.9,64.5L611.9,64.5z"/>
			</g>
		</g>
		<g>
			<defs>
				<path id="SVGID_82_" d="M610.9,266.3c0,33.6-27.5,61.1-61.1,61.1H106.5c-33.6,0-61.1-27.5-61.1-61.1V94.4
					c0-33.6,27.5-61.1,61.1-61.1h443.3c33.6,0,61.1,27.5,61.1,61.1V266.3z"/>
			</defs>
			<clipPath id="SVGID_83_">
				<use xlink:href="#SVGID_82_"  style="overflow:visible;"/>
			</clipPath>
			<g class="st236">
				<path class="st230" d="M611.9,64.5v54.8h4.8c-15.8,16.8-38.6,32-66.8,44.7c-56.4,25.5-134.2,41.2-220.3,41.2
					S165.7,189.5,109.3,164c-28.2-12.7-51-27.9-66.8-44.7h1.8V32.4h567.4v32.1H611.9z"/>
			</g>
		</g>
		<g>
			<defs>
				<path id="SVGID_84_" d="M610.9,266.3c0,33.6-27.5,61.1-61.1,61.1H106.5c-33.6,0-61.1-27.5-61.1-61.1V94.4
					c0-33.6,27.5-61.1,61.1-61.1h443.3c33.6,0,61.1,27.5,61.1,61.1V266.3z"/>
			</defs>
			<clipPath id="SVGID_85_">
				<use xlink:href="#SVGID_84_"  style="overflow:visible;"/>
			</clipPath>
			<g class="st237">
				<path class="st230" d="M611.9,64.5v27.3v13h4.3c-2.9,4.2-6.3,8.4-10.1,12.4c-15.2,16.2-37.1,30.8-64.3,43.1
					C487.5,184.8,412.5,200,329.7,200s-157.8-15.2-212.1-39.7c-27.1-12.3-49.1-26.9-64.3-43.1c-3.8-4.1-7.2-8.2-10.1-12.4h1.2V32.4
					h567.4L611.9,64.5L611.9,64.5z"/>
			</g>
		</g>
		<g>
			<defs>
				<path id="SVGID_86_" d="M610.9,266.3c0,33.6-27.5,61.1-61.1,61.1H106.5c-33.6,0-61.1-27.5-61.1-61.1V94.4
					c0-33.6,27.5-61.1,61.1-61.1h443.3c33.6,0,61.1,27.5,61.1,61.1V266.3z"/>
			</defs>
			<clipPath id="SVGID_87_">
				<use xlink:href="#SVGID_86_"  style="overflow:visible;"/>
			</clipPath>
			<g class="st238">
				<path class="st230" d="M618.1,64.5c0,71.9-129.1,130.3-288.4,130.3S41.3,136.5,41.3,64.5c0-9,2-17.8,5.9-26.3
					c1.9-4.2,4.3-8.4,7.1-12.5v6.6h550.9v-6.6c2.8,4.1,5.2,8.2,7.1,12.5h-0.4v26.3H618.1z"/>
			</g>
		</g>
		<g>
			<defs>
				<path id="SVGID_88_" d="M610.9,266.3c0,33.6-27.5,61.1-61.1,61.1H106.5c-33.6,0-61.1-27.5-61.1-61.1V94.4
					c0-33.6,27.5-61.1,61.1-61.1h443.3c33.6,0,61.1,27.5,61.1,61.1V266.3z"/>
			</defs>
			<clipPath id="SVGID_89_">
				<use xlink:href="#SVGID_88_"  style="overflow:visible;"/>
			</clipPath>
			<g class="st239">
				<path class="st230" d="M606.6,64.5c0,69.1-124,125-276.9,125s-276.9-56-276.9-125c0-8.6,1.9-17.1,5.6-25.2
					c1.8-4.1,4.1-8.1,6.8-12v5h528.9v-5c2.7,3.9,5,7.9,6.8,12C604.7,47.5,606.6,55.9,606.6,64.5z"/>
			</g>
		</g>
		<g>
			<defs>
				<path id="SVGID_90_" d="M610.9,266.3c0,33.6-27.5,61.1-61.1,61.1H106.5c-33.6,0-61.1-27.5-61.1-61.1V94.4
					c0-33.6,27.5-61.1,61.1-61.1h443.3c33.6,0,61.1,27.5,61.1,61.1V266.3z"/>
			</defs>
			<clipPath id="SVGID_91_">
				<use xlink:href="#SVGID_90_"  style="overflow:visible;"/>
			</clipPath>
			<g class="st240">
				<path class="st230" d="M595.1,64.5c0,66.2-118.8,119.8-265.3,119.8S64.5,130.6,64.5,64.5c0-8.3,1.9-16.4,5.4-24.2
					c1.8-3.9,4-7.7,6.5-11.5v3.5h506.8v-3.5c2.6,3.8,4.8,7.6,6.5,11.5C593.2,48.2,595.1,56.2,595.1,64.5z"/>
			</g>
		</g>
		<g>
			<defs>
				<path id="SVGID_92_" d="M610.9,266.3c0,33.6-27.5,61.1-61.1,61.1H106.5c-33.6,0-61.1-27.5-61.1-61.1V94.4
					c0-33.6,27.5-61.1,61.1-61.1h443.3c33.6,0,61.1,27.5,61.1,61.1V266.3z"/>
			</defs>
			<clipPath id="SVGID_93_">
				<use xlink:href="#SVGID_92_"  style="overflow:visible;"/>
			</clipPath>
			<g class="st241">
				<path class="st230" d="M583.5,64.5c0,63.3-113.6,114.6-253.8,114.6S75.9,127.8,75.9,64.5c0-7.9,1.8-15.6,5.2-23.1
					c1.7-3.7,3.8-7.4,6.3-11v1.9h484.8v-1.9c2.5,3.6,4.6,7.3,6.3,11C581.8,48.9,583.5,56.6,583.5,64.5z"/>
			</g>
		</g>
		<g>
			<defs>
				<path id="SVGID_94_" d="M610.9,266.3c0,33.6-27.5,61.1-61.1,61.1H106.5c-33.6,0-61.1-27.5-61.1-61.1V94.4
					c0-33.6,27.5-61.1,61.1-61.1h443.3c33.6,0,61.1,27.5,61.1,61.1V266.3z"/>
			</defs>
			<clipPath id="SVGID_95_">
				<use xlink:href="#SVGID_94_"  style="overflow:visible;"/>
			</clipPath>
			<g class="st242">
				<path class="st230" d="M572,64.5c0,60.4-108.5,109.4-242.3,109.4S87.4,124.9,87.4,64.5c0-7.6,1.7-14.9,4.9-22.1
					c1.6-3.6,3.6-7.1,6-10.5v0.4H561v-0.4c2.4,3.4,4.4,6.9,6,10.5C570.3,49.6,572,57,572,64.5z"/>
			</g>
		</g>
		<g>
			<defs>
				<path id="SVGID_96_" d="M610.9,266.3c0,33.6-27.5,61.1-61.1,61.1H106.5c-33.6,0-61.1-27.5-61.1-61.1V94.4
					c0-33.6,27.5-61.1,61.1-61.1h443.3c33.6,0,61.1,27.5,61.1,61.1V266.3z"/>
			</defs>
			<clipPath id="SVGID_97_">
				<use xlink:href="#SVGID_96_"  style="overflow:visible;"/>
			</clipPath>
			<g class="st243">
				<path class="st230" d="M560.5,64.5c0,57.6-103.3,104.2-230.7,104.2S99.1,122,99.1,64.5c0-7.2,1.6-14.2,4.7-21
					c1.5-3.4,3.4-6.7,5.7-10c1.1-1.6,2.3-3.2,3.6-4.8v3.7h433.4v-3.7c1.3,1.6,2.5,3.2,3.6,4.8c2.2,3.3,4.1,6.6,5.7,10
					C558.8,50.3,560.5,57.3,560.5,64.5z"/>
			</g>
		</g>
		<g>
			<defs>
				<path id="SVGID_98_" d="M610.9,266.3c0,33.6-27.5,61.1-61.1,61.1H106.5c-33.6,0-61.1-27.5-61.1-61.1V94.4
					c0-33.6,27.5-61.1,61.1-61.1h443.3c33.6,0,61.1,27.5,61.1,61.1V266.3z"/>
			</defs>
			<clipPath id="SVGID_99_">
				<use xlink:href="#SVGID_98_"  style="overflow:visible;"/>
			</clipPath>
			<g class="st244">
				<path class="st230" d="M548.9,64.5c0,54.7-98.1,99-219.2,99s-219.2-44.3-219.2-99c0-13.7,6.1-26.7,17.2-38.5v6.4h403.9V26
					C542.8,37.8,548.9,50.9,548.9,64.5z"/>
			</g>
		</g>
		<g>
			<defs>
				<path id="SVGID_100_" d="M610.9,266.3c0,33.6-27.5,61.1-61.1,61.1H106.5c-33.6,0-61.1-27.5-61.1-61.1V94.4
					c0-33.6,27.5-61.1,61.1-61.1h443.3c33.6,0,61.1,27.5,61.1,61.1V266.3z"/>
			</defs>
			<clipPath id="SVGID_101_">
				<use xlink:href="#SVGID_100_"  style="overflow:visible;"/>
			</clipPath>
			<g class="st245">
				<path class="st230" d="M537.4,64.5c0,51.8-93,93.8-207.7,93.8S122,116.3,122,64.5c0-12.9,5.8-25.3,16.3-36.5v4.3H521V28
					C531.6,39.2,537.4,51.6,537.4,64.5z"/>
			</g>
		</g>
		<g>
			<defs>
				<path id="SVGID_102_" d="M610.9,266.3c0,33.6-27.5,61.1-61.1,61.1H106.5c-33.6,0-61.1-27.5-61.1-61.1V94.4
					c0-33.6,27.5-61.1,61.1-61.1h443.3c33.6,0,61.1,27.5,61.1,61.1V266.3z"/>
			</defs>
			<clipPath id="SVGID_103_">
				<use xlink:href="#SVGID_102_"  style="overflow:visible;"/>
			</clipPath>
			<g class="st246">
				<path class="st230" d="M525.8,64.5c0,48.9-87.8,88.6-196.1,88.6s-196.1-39.7-196.1-88.6c0-12.2,5.5-23.9,15.4-34.5v2.3h361.4V30
					C520.4,40.6,525.8,52.3,525.8,64.5z"/>
			</g>
		</g>
		<g>
			<defs>
				<path id="SVGID_104_" d="M610.9,266.3c0,33.6-27.5,61.1-61.1,61.1H106.5c-33.6,0-61.1-27.5-61.1-61.1V94.4
					c0-33.6,27.5-61.1,61.1-61.1h443.3c33.6,0,61.1,27.5,61.1,61.1V266.3z"/>
			</defs>
			<clipPath id="SVGID_105_">
				<use xlink:href="#SVGID_104_"  style="overflow:visible;"/>
			</clipPath>
			<g class="st247">
				<path class="st230" d="M514.3,64.5c0,46-82.6,83.4-184.6,83.4c-101.9,0-184.6-37.3-184.6-83.4c0-11.5,5.2-22.5,14.5-32.4v0.3
					h340.2v-0.3C509.1,42,514.3,53,514.3,64.5z"/>
			</g>
		</g>
		<g>
			<defs>
				<path id="SVGID_106_" d="M610.9,266.3c0,33.6-27.5,61.1-61.1,61.1H106.5c-33.6,0-61.1-27.5-61.1-61.1V94.4
					c0-33.6,27.5-61.1,61.1-61.1h443.3c33.6,0,61.1,27.5,61.1,61.1V266.3z"/>
			</defs>
			<clipPath id="SVGID_107_">
				<use xlink:href="#SVGID_106_"  style="overflow:visible;"/>
			</clipPath>
			<g class="st248">
				<path class="st230" d="M502.8,64.5c0,43.2-77.5,78.2-173,78.2c-95.6,0-173-35-173-78.2c0-10.8,4.8-21.1,13.6-30.4
					c2.2-2.3,4.6-4.6,7.3-6.8v5.1H482v-5.1c2.7,2.2,5.1,4.5,7.3,6.8C497.9,43.5,502.8,53.7,502.8,64.5z"/>
			</g>
		</g>
		<g>
			<defs>
				<path id="SVGID_108_" d="M610.9,266.3c0,33.6-27.5,61.1-61.1,61.1H106.5c-33.6,0-61.1-27.5-61.1-61.1V94.4
					c0-33.6,27.5-61.1,61.1-61.1h443.3c33.6,0,61.1,27.5,61.1,61.1V266.3z"/>
			</defs>
			<clipPath id="SVGID_109_">
				<use xlink:href="#SVGID_108_"  style="overflow:visible;"/>
			</clipPath>
			<g class="st249">
				<path class="st230" d="M491.2,64.5c0,40.3-72.3,72.9-161.5,72.9s-161.5-32.7-161.5-72.9c0-10.1,4.5-19.7,12.7-28.4
					c2-2.2,4.3-4.3,6.8-6.4v2.6h284v-2.6c2.5,2.1,4.8,4.2,6.8,6.4C486.7,44.9,491.2,54.5,491.2,64.5z"/>
			</g>
		</g>
		<g>
			<defs>
				<path id="SVGID_110_" d="M610.9,266.3c0,33.6-27.5,61.1-61.1,61.1H106.5c-33.6,0-61.1-27.5-61.1-61.1V94.4
					c0-33.6,27.5-61.1,61.1-61.1h443.3c33.6,0,61.1,27.5,61.1,61.1V266.3z"/>
			</defs>
			<clipPath id="SVGID_111_">
				<use xlink:href="#SVGID_110_"  style="overflow:visible;"/>
			</clipPath>
			<g class="st250">
				<path class="st230" d="M479.7,64.5c0,37.4-67.1,67.7-150,67.7s-150-30.3-150-67.7c0-9.4,4.2-18.3,11.8-26.4
					c3.8-4.1,8.4-7.9,13.8-11.5v5.7H454v-5.7c5.4,3.6,10,7.5,13.8,11.5C475.5,46.3,479.7,55.2,479.7,64.5z"/>
			</g>
		</g>
		<g>
			<defs>
				<path id="SVGID_112_" d="M610.9,266.3c0,33.6-27.5,61.1-61.1,61.1H106.5c-33.6,0-61.1-27.5-61.1-61.1V94.4
					c0-33.6,27.5-61.1,61.1-61.1h443.3c33.6,0,61.1,27.5,61.1,61.1V266.3z"/>
			</defs>
			<clipPath id="SVGID_113_">
				<use xlink:href="#SVGID_112_"  style="overflow:visible;"/>
			</clipPath>
			<g class="st251">
				<path class="st230" d="M468.2,64.5c0,34.5-62,62.5-138.4,62.5c-76.5,0-138.4-28-138.4-62.5c0-8.6,3.9-16.9,10.9-24.3
					c3.5-3.7,7.8-7.3,12.8-10.6v2.8h229.4v-2.8c5,3.3,9.3,6.9,12.8,10.6C464.3,47.7,468.2,55.9,468.2,64.5z"/>
			</g>
		</g>
		<g>
			<defs>
				<path id="SVGID_114_" d="M610.9,266.3c0,33.6-27.5,61.1-61.1,61.1H106.5c-33.6,0-61.1-27.5-61.1-61.1V94.4
					c0-33.6,27.5-61.1,61.1-61.1h443.3c33.6,0,61.1,27.5,61.1,61.1V266.3z"/>
			</defs>
			<clipPath id="SVGID_115_">
				<use xlink:href="#SVGID_114_"  style="overflow:visible;"/>
			</clipPath>
			<g class="st252">
				<path class="st230" d="M456.6,64.5c0,31.7-56.8,57.3-126.9,57.3S202.8,96.1,202.8,64.5c0-7.9,3.6-15.5,10-22.3
					c3.2-3.4,7.1-6.7,11.7-9.7c2.3-1.5,4.7-3,7.3-4.4v4.3h195.8v-4.3c2.6,1.4,5,2.9,7.3,4.4c4.6,3,8.5,6.3,11.7,9.7
					C453.1,49.1,456.6,56.6,456.6,64.5z"/>
			</g>
		</g>
		<g>
			<defs>
				<path id="SVGID_116_" d="M610.9,266.3c0,33.6-27.5,61.1-61.1,61.1H106.5c-33.6,0-61.1-27.5-61.1-61.1V94.4
					c0-33.6,27.5-61.1,61.1-61.1h443.3c33.6,0,61.1,27.5,61.1,61.1V266.3z"/>
			</defs>
			<clipPath id="SVGID_117_">
				<use xlink:href="#SVGID_116_"  style="overflow:visible;"/>
			</clipPath>
			<g class="st253">
				<path class="st230" d="M445.1,64.5c0,28.8-51.7,52.1-115.4,52.1S214.3,93.3,214.3,64.5c0-14.4,12.9-27.4,33.8-36.8v4.7h163.2
					v-4.7C432.2,37.1,445.1,50.1,445.1,64.5z"/>
			</g>
		</g>
		<g>
			<defs>
				<path id="SVGID_118_" d="M610.9,266.3c0,33.6-27.5,61.1-61.1,61.1H106.5c-33.6,0-61.1-27.5-61.1-61.1V94.4
					c0-33.6,27.5-61.1,61.1-61.1h443.3c33.6,0,61.1,27.5,61.1,61.1V266.3z"/>
			</defs>
			<clipPath id="SVGID_119_">
				<use xlink:href="#SVGID_118_"  style="overflow:visible;"/>
			</clipPath>
			<g class="st254">
				<path class="st230" d="M433.6,64.5c0,25.9-46.5,46.9-103.8,46.9S226,90.4,226,64.5c0-12.9,11.6-24.7,30.4-33.2v1h146.8v-1
					C421.9,39.9,433.6,51.6,433.6,64.5z"/>
			</g>
		</g>
		<g>
			<defs>
				<path id="SVGID_120_" d="M610.9,266.3c0,33.6-27.5,61.1-61.1,61.1H106.5c-33.6,0-61.1-27.5-61.1-61.1V94.4
					c0-33.6,27.5-61.1,61.1-61.1h443.3c33.6,0,61.1,27.5,61.1,61.1V266.3z"/>
			</defs>
			<clipPath id="SVGID_121_">
				<use xlink:href="#SVGID_120_"  style="overflow:visible;"/>
			</clipPath>
			<g class="st255">
				<path class="st230" d="M422,64.5c0,23-41.3,41.7-92.3,41.7s-92.3-18.7-92.3-41.7c0-11.5,10.3-21.9,27-29.5
					c8.4-3.8,18.3-6.8,29.3-8.9v6.2h71.8v-6.2c11,2.1,21,5.2,29.3,8.9C411.7,42.6,422,53,422,64.5z"/>
			</g>
		</g>
		<g>
			<defs>
				<path id="SVGID_122_" d="M610.9,266.3c0,33.6-27.5,61.1-61.1,61.1H106.5c-33.6,0-61.1-27.5-61.1-61.1V94.4
					c0-33.6,27.5-61.1,61.1-61.1h443.3c33.6,0,61.1,27.5,61.1,61.1V266.3z"/>
			</defs>
			<clipPath id="SVGID_123_">
				<use xlink:href="#SVGID_122_"  style="overflow:visible;"/>
			</clipPath>
			<g class="st256">
				<ellipse class="st230" cx="329.7" cy="64.5" rx="80.8" ry="36.5"/>
			</g>
		</g>
		<g>
			<defs>
				<path id="SVGID_124_" d="M610.9,266.3c0,33.6-27.5,61.1-61.1,61.1H106.5c-33.6,0-61.1-27.5-61.1-61.1V94.4
					c0-33.6,27.5-61.1,61.1-61.1h443.3c33.6,0,61.1,27.5,61.1,61.1V266.3z"/>
			</defs>
			<clipPath id="SVGID_125_">
				<use xlink:href="#SVGID_124_"  style="overflow:visible;"/>
			</clipPath>
			<g class="st257">
				<ellipse class="st230" cx="329.7" cy="64.5" rx="69.2" ry="31.3"/>
			</g>
		</g>
		<g>
			<defs>
				<path id="SVGID_126_" d="M610.9,266.3c0,33.6-27.5,61.1-61.1,61.1H106.5c-33.6,0-61.1-27.5-61.1-61.1V94.4
					c0-33.6,27.5-61.1,61.1-61.1h443.3c33.6,0,61.1,27.5,61.1,61.1V266.3z"/>
			</defs>
			<clipPath id="SVGID_127_">
				<use xlink:href="#SVGID_126_"  style="overflow:visible;"/>
			</clipPath>
			<g class="st258">
				<ellipse class="st230" cx="329.7" cy="64.5" rx="57.7" ry="26.1"/>
			</g>
		</g>
		<g>
			<defs>
				<path id="SVGID_128_" d="M610.9,266.3c0,33.6-27.5,61.1-61.1,61.1H106.5c-33.6,0-61.1-27.5-61.1-61.1V94.4
					c0-33.6,27.5-61.1,61.1-61.1h443.3c33.6,0,61.1,27.5,61.1,61.1V266.3z"/>
			</defs>
			<clipPath id="SVGID_129_">
				<use xlink:href="#SVGID_128_"  style="overflow:visible;"/>
			</clipPath>
			<g class="st259">
				<ellipse class="st230" cx="329.7" cy="64.5" rx="46.1" ry="20.8"/>
			</g>
		</g>
		<g>
			<defs>
				<path id="SVGID_130_" d="M610.9,266.3c0,33.6-27.5,61.1-61.1,61.1H106.5c-33.6,0-61.1-27.5-61.1-61.1V94.4
					c0-33.6,27.5-61.1,61.1-61.1h443.3c33.6,0,61.1,27.5,61.1,61.1V266.3z"/>
			</defs>
			<clipPath id="SVGID_131_">
				<use xlink:href="#SVGID_130_"  style="overflow:visible;"/>
			</clipPath>
			<g class="st260">
				<ellipse class="st230" cx="329.7" cy="64.5" rx="34.6" ry="15.6"/>
			</g>
		</g>
		<g>
			<defs>
				<path id="SVGID_132_" d="M610.9,266.3c0,33.6-27.5,61.1-61.1,61.1H106.5c-33.6,0-61.1-27.5-61.1-61.1V94.4
					c0-33.6,27.5-61.1,61.1-61.1h443.3c33.6,0,61.1,27.5,61.1,61.1V266.3z"/>
			</defs>
			<clipPath id="SVGID_133_">
				<use xlink:href="#SVGID_132_"  style="overflow:visible;"/>
			</clipPath>
			<g class="st261">
				<ellipse class="st230" cx="329.7" cy="64.5" rx="23.1" ry="10.4"/>
			</g>
		</g>
		<g>
			<defs>
				<path id="SVGID_134_" d="M610.9,266.3c0,33.6-27.5,61.1-61.1,61.1H106.5c-33.6,0-61.1-27.5-61.1-61.1V94.4
					c0-33.6,27.5-61.1,61.1-61.1h443.3c33.6,0,61.1,27.5,61.1,61.1V266.3z"/>
			</defs>
			<clipPath id="SVGID_135_">
				<use xlink:href="#SVGID_134_"  style="overflow:visible;"/>
			</clipPath>
			<g class="st262">
				<ellipse class="st230" cx="329.7" cy="64.5" rx="11.5" ry="5.2"/>
			</g>
		</g>
	</g>
</g>
</svg>
